131 151 177
133 154 181
132 151 177
132 151 177
133 154 181
131 151 178
133 153 179
131 152 178
130 150 176
132 151 178
132 153 179
132 152 178
132 151 177
131 151 176
132 154 180
132 153 179
129 150 176
131 152 177
132 153 180
130 150 175
133 153 179
125 153 174
114 156 166
94 164 155
77 163 147
73 173 147
75 178 151
77 183 154
77 184 154
77 184 153
77 183 153
==PROF== Profiling "free_world" - 5: 0%....50%....100% - 14 passes
==PROF== Disconnected from process 21102
[21102] a.out@127.0.0.1
  rand_init(curandStateXORWOW *), 2023-Mar-24 15:11:27, Context 1, Stream 7
    Section: Command line profiler metrics
    ---------------------------------------------------------------------- --------------- ------------------------------
    dram__bytes_read.sum                                                              byte                            160
    dram__bytes_read.sum.per_second                                           Mbyte/second                          66.67
    dram__bytes_write.sum                                                             byte                              0
    dram__bytes_write.sum.per_second                                           byte/second                              0
    dram__sectors_read.sum                                                          sector                              5
    dram__sectors_write.sum                                                         sector                              0
    l1tex__f_tex2sm_cycles_active.avg.pct_of_peak_sustained_elapsed                      %                              0
    l1tex__lsu_writeback_active.avg.pct_of_peak_sustained_active                         %                           0.13
    l1tex__lsu_writeback_active.sum                                                  cycle                              1
    l1tex__t_bytes_pipe_lsu_mem_global_op_ld.sum.per_second                    byte/second                              0
    l1tex__t_bytes_pipe_lsu_mem_global_op_st.sum                                      byte                            192
    l1tex__t_bytes_pipe_lsu_mem_global_op_st.sum.per_second                   Mbyte/second                             80
    l1tex__t_bytes_pipe_lsu_mem_local_op_ld.sum.per_second                     byte/second                              0
    l1tex__t_requests_pipe_lsu_mem_global_op_atom.sum                              request                              0
    l1tex__t_requests_pipe_lsu_mem_global_op_ld.sum                                request                              0
    l1tex__t_requests_pipe_lsu_mem_global_op_red.sum                               request                              0
    l1tex__t_requests_pipe_lsu_mem_global_op_st.sum                                request                              6
    l1tex__t_requests_pipe_lsu_mem_local_op_ld.sum                                 request                              0
    l1tex__t_requests_pipe_lsu_mem_local_op_st.sum                                 request                              0
    l1tex__t_requests_pipe_tex_mem_surface_op_atom.sum                             request                              0
    l1tex__t_requests_pipe_tex_mem_surface_op_ld.sum                               request                              0
    l1tex__t_requests_pipe_tex_mem_surface_op_red.sum                              request                              0
    l1tex__t_requests_pipe_tex_mem_surface_op_st.sum                               request                              0
    l1tex__t_requests_pipe_tex_mem_texture.sum                                     request                              0
    l1tex__t_sector_hit_rate.pct                                                         %                          83.33
    l1tex__t_sectors_pipe_lsu_mem_global_op.sum                                                                   (!) n/a
    l1tex__t_sectors_pipe_lsu_mem_global_op_ld.sum                                  sector                              0
    l1tex__t_sectors_pipe_lsu_mem_global_op_lookup_hit.sum                                                        (!) n/a
    l1tex__t_sectors_pipe_lsu_mem_local_op_ld.sum                                   sector                              0
    l1tex__t_sectors_pipe_lsu_mem_local_op_st.sum                                   sector                              0
    l1tex__t_sectors_pipe_lsu_mem_local_op_st.sum.per_second                 sector/second                              0
    l1tex__t_set_accesses_pipe_lsu_mem_global_op_atom.sum                                                               0
    l1tex__t_set_accesses_pipe_lsu_mem_global_op_red.sum                                                                0
    l1tex__t_set_accesses_pipe_tex_mem_surface_op_atom.sum                                                              0
    l1tex__t_set_accesses_pipe_tex_mem_surface_op_red.sum                                                               0
    l1tex__tex_writeback_active.avg.pct_of_peak_sustained_active                         %                              0
    l1tex__texin_sm2tex_req_cycles_active.avg.pct_of_peak_sustained_elapse               %                           0.13
    d                                                                                                                    
    lts__t_bytes_equiv_l1sectormiss_pipe_lsu_mem_global_op_ld.sum                     byte                              0
    lts__t_bytes_equiv_l1sectormiss_pipe_lsu_mem_global_op_st.sum                     byte                             32
    lts__t_bytes_equiv_l1sectormiss_pipe_lsu_mem_surface_op_st.sum                                                (!) n/a
    lts__t_bytes_equiv_l1sectormiss_pipe_tex_mem_surface_op_ld.sum                    byte                              0
    lts__t_sector_hit_rate.pct                                                           %                          98.39
    lts__t_sector_op_read_hit_rate.pct                                                   %                           2.71
    lts__t_sector_op_write_hit_rate.pct                                                  %                          89.47
    lts__t_sectors.avg.pct_of_peak_sustained_elapsed                                     %                           0.45
    lts__t_sectors_aperture_sysmem_op_read.sum                                      sector                              0
    lts__t_sectors_aperture_sysmem_op_read.sum.per_second                    sector/second                              0
    lts__t_sectors_aperture_sysmem_op_write.sum                                     sector                              7
    lts__t_sectors_aperture_sysmem_op_write.sum.per_second                  sector/usecond                           2.92
    lts__t_sectors_op_read.sum                                                      sector                            479
    lts__t_sectors_op_read.sum.per_second                                   sector/usecond                         199.58
    lts__t_sectors_op_write.sum                                                     sector                             19
    lts__t_sectors_op_write.sum.per_second                                  sector/usecond                           7.92
    lts__t_sectors_srcunit_l1_op_atom.sum                                           sector                              0
    lts__t_sectors_srcunit_l1_op_atom.sum.per_second                         sector/second                              0
    lts__t_sectors_srcunit_tex_op_read.sum                                          sector                              0
    lts__t_sectors_srcunit_tex_op_read.sum.per_second                        sector/second                              0
    sm__mio2rf_writeback_active.avg.pct_of_peak_sustained_elapsed                        %                           0.00
    sm__pipe_tensor_cycles_active.avg.pct_of_peak_sustained_active                       %                              0
    sm__warps_active.avg.pct_of_peak_sustained_active                                    %                           3.12
    smsp__average_inst_executed_per_warp.ratio                                   inst/warp                             19
    smsp__cycles_active.avg.pct_of_peak_sustained_elapsed                                %                           0.12
    smsp__inst_executed.avg.per_cycle_active                                    inst/cycle                           0.02
    smsp__inst_executed.sum                                                           inst                             19
    smsp__inst_executed_op_global_atom.sum                                                                        (!) n/a
    smsp__inst_executed_op_global_ld.sum                                              inst                              0
    smsp__inst_executed_op_global_st.sum                                              inst                              6
    smsp__inst_executed_op_local_ld.sum                                               inst                              0
    smsp__inst_executed_op_shared_atom.sum                                            inst                              0
    smsp__inst_executed_op_shared_atom_dot_alu.sum                                    inst                              0
    smsp__inst_executed_op_shared_atom_dot_cas.sum                                    inst                              0
    smsp__inst_executed_op_shared_ld.avg.pct_of_peak_sustained_elapsed                   %                              0
    smsp__inst_executed_op_shared_ld.sum                                              inst                              0
    smsp__inst_executed_op_shared_ld.sum.per_second                            inst/second                              0
    smsp__inst_executed_op_shared_st.avg.pct_of_peak_sustained_elapsed                   %                              0
    smsp__inst_executed_op_shared_st.sum                                              inst                              0
    smsp__inst_executed_op_shared_st.sum.per_second                            inst/second                              0
    smsp__inst_executed_op_surface_atom.sum                                           inst                              0
    smsp__inst_executed_op_surface_ld.sum                                             inst                              0
    smsp__inst_executed_op_surface_red.sum                                            inst                              0
    smsp__inst_executed_op_surface_st.sum                                             inst                              0
    smsp__inst_executed_op_texture.sum                                                inst                              0
    smsp__inst_executed_pipe_adu.sum                                                  inst                              1
    smsp__inst_executed_pipe_cbu.sum                                                  inst                              2
    smsp__inst_executed_pipe_fp16.sum                                                 inst                              0
    smsp__inst_executed_pipe_fp64.avg.pct_of_peak_sustained_active                       %                              0
    smsp__inst_executed_pipe_lsu.avg.pct_of_peak_sustained_active                        %                           1.79
    smsp__inst_executed_pipe_tex.avg.pct_of_peak_sustained_active                        %                              0
    smsp__inst_issued.avg.per_cycle_active                                      inst/cycle                           0.03
    smsp__inst_issued.sum                                                             inst                             23
    smsp__issue_active.avg.pct_of_peak_sustained_active                                  %                           2.94
    smsp__sass_thread_inst_executed_op_control_pred_on.sum                            inst                              1
    smsp__sass_thread_inst_executed_op_dadd_pred_on.sum                               inst                              0
    smsp__sass_thread_inst_executed_op_dfma_pred_on.sum                               inst                              0
    smsp__sass_thread_inst_executed_op_dmul_pred_on.sum                               inst                              0
    smsp__sass_thread_inst_executed_op_fadd_pred_on.sum                               inst                              0
    smsp__sass_thread_inst_executed_op_ffma_pred_on.sum                               inst                              0
    smsp__sass_thread_inst_executed_op_fmul_pred_on.sum                               inst                              0
    smsp__sass_thread_inst_executed_op_fp16_pred_on.sum                               inst                              0
    smsp__sass_thread_inst_executed_op_fp32_pred_on.sum                               inst                              0
    smsp__sass_thread_inst_executed_op_fp64_pred_on.sum                               inst                              0
    smsp__sass_thread_inst_executed_op_hadd_pred_on.sum                               inst                              0
    smsp__sass_thread_inst_executed_op_hfma_pred_on.sum                               inst                              0
    smsp__sass_thread_inst_executed_op_hmul_pred_on.sum                               inst                              0
    smsp__sass_thread_inst_executed_op_integer_pred_on.sum                            inst                              5
    smsp__sass_thread_inst_executed_op_inter_thread_communication_pred_on.            inst                              0
    sum                                                                                                                  
    smsp__sass_thread_inst_executed_op_memory_pred_on.sum                             inst                              6
    smsp__sass_thread_inst_executed_op_misc_pred_on.sum                               inst                              5
    smsp__sass_thread_inst_executed_op_mufu_pred_on.sum                                                           (!) n/a
    smsp__thread_inst_executed_per_inst_executed.pct                                     %                           3.12
    smsp__thread_inst_executed_per_inst_executed.ratio                                                                  1
    smsp__warp_issue_stalled_drain_miss_per_warp_active.pct                                                       (!) n/a
    smsp__warp_issue_stalled_imc_miss_per_warp_active.pct                                %                          81.90
    smsp__warp_issue_stalled_long_scoreboard_miss_per_warp_active.pct                                             (!) n/a
    smsp__warp_issue_stalled_misc_membar_per_warp_active.pct                                                      (!) n/a
    smsp__warp_issue_stalled_misc_mio_throttle_per_warp_active.pct                                                (!) n/a
    smsp__warp_issue_stalled_misc_miss_per_warp_active.pct                                                        (!) n/a
    smsp__warp_issue_stalled_misc_sleeping_per_warp_active.pct                                                    (!) n/a
    smsp__warp_issue_stalled_misc_tex_throttle_per_warp_active.pct                                                (!) n/a
    smsp__warp_issue_stalled_no_instruction_miss_per_warp_active.pct                                              (!) n/a
    smsp__warp_issue_stalled_short_scoreboard_miss_per_warp_active.pct                                            (!) n/a
    smsp__warps_eligible.sum.per_cycle_active                                         warp                           8.01
    ---------------------------------------------------------------------- --------------- ------------------------------

  create_world(hitable **, hitable **, camera **, int, int, curandStateXORWOW *), 2023-Mar-24 15:11:27, Context 1, Stream 7
    Section: Command line profiler metrics
    ---------------------------------------------------------------------- --------------- ------------------------------
    dram__bytes_read.sum                                                             Kbyte                         269.15
    dram__bytes_read.sum.per_second                                           Mbyte/second                          12.43
    dram__bytes_write.sum                                                            Kbyte                          40.58
    dram__bytes_write.sum.per_second                                          Mbyte/second                           1.87
    dram__sectors_read.sum                                                          sector                          8,411
    dram__sectors_write.sum                                                         sector                          1,268
    l1tex__f_tex2sm_cycles_active.avg.pct_of_peak_sustained_elapsed                      %                              0
    l1tex__lsu_writeback_active.avg.pct_of_peak_sustained_active                         %                           0.67
    l1tex__lsu_writeback_active.sum                                                  cycle                        198,642
    l1tex__t_bytes_pipe_lsu_mem_global_op_ld.sum.per_second                   Mbyte/second                         158.82
    l1tex__t_bytes_pipe_lsu_mem_global_op_st.sum                                     Kbyte                         336.99
    l1tex__t_bytes_pipe_lsu_mem_global_op_st.sum.per_second                   Mbyte/second                          15.57
    l1tex__t_bytes_pipe_lsu_mem_local_op_ld.sum.per_second                    Mbyte/second                         108.55
    l1tex__t_requests_pipe_lsu_mem_global_op_atom.sum                              request                          7,921
    l1tex__t_requests_pipe_lsu_mem_global_op_ld.sum                                request                        107,454
    l1tex__t_requests_pipe_lsu_mem_global_op_red.sum                               request                            978
    l1tex__t_requests_pipe_lsu_mem_global_op_st.sum                                request                         10,531
    l1tex__t_requests_pipe_lsu_mem_local_op_ld.sum                                 request                         73,444
    l1tex__t_requests_pipe_lsu_mem_local_op_st.sum                                 request                         79,623
    l1tex__t_requests_pipe_tex_mem_surface_op_atom.sum                             request                              0
    l1tex__t_requests_pipe_tex_mem_surface_op_ld.sum                               request                              0
    l1tex__t_requests_pipe_tex_mem_surface_op_red.sum                              request                              0
    l1tex__t_requests_pipe_tex_mem_surface_op_st.sum                               request                              0
    l1tex__t_requests_pipe_tex_mem_texture.sum                                     request                              0
    l1tex__t_sector_hit_rate.pct                                                         %                          56.77
    l1tex__t_sectors_pipe_lsu_mem_global_op.sum                                                                   (!) n/a
    l1tex__t_sectors_pipe_lsu_mem_global_op_ld.sum                                  sector                        107,454
    l1tex__t_sectors_pipe_lsu_mem_global_op_lookup_hit.sum                                                        (!) n/a
    l1tex__t_sectors_pipe_lsu_mem_local_op_ld.sum                                   sector                         73,444
    l1tex__t_sectors_pipe_lsu_mem_local_op_st.sum                                   sector                         79,623
    l1tex__t_sectors_pipe_lsu_mem_local_op_st.sum.per_second                sector/usecond                           3.68
    l1tex__t_set_accesses_pipe_lsu_mem_global_op_atom.sum                                                           7,921
    l1tex__t_set_accesses_pipe_lsu_mem_global_op_red.sum                                                              978
    l1tex__t_set_accesses_pipe_tex_mem_surface_op_atom.sum                                                              0
    l1tex__t_set_accesses_pipe_tex_mem_surface_op_red.sum                                                               0
    l1tex__tex_writeback_active.avg.pct_of_peak_sustained_active                         %                              0
    l1tex__texin_sm2tex_req_cycles_active.avg.pct_of_peak_sustained_elapse               %                           0.00
    d                                                                                                                    
    lts__t_bytes_equiv_l1sectormiss_pipe_lsu_mem_global_op_ld.sum                    Mbyte                           3.44
    lts__t_bytes_equiv_l1sectormiss_pipe_lsu_mem_global_op_st.sum                    Kbyte                         147.23
    lts__t_bytes_equiv_l1sectormiss_pipe_lsu_mem_surface_op_st.sum                                                (!) n/a
    lts__t_bytes_equiv_l1sectormiss_pipe_tex_mem_surface_op_ld.sum                    byte                              0
    lts__t_sector_hit_rate.pct                                                           %                          92.95
    lts__t_sector_op_read_hit_rate.pct                                                   %                          80.04
    lts__t_sector_op_write_hit_rate.pct                                                  %                          97.43
    lts__t_sectors.avg.pct_of_peak_sustained_elapsed                                     %                           0.02
    lts__t_sectors_aperture_sysmem_op_read.sum                                      sector                              0
    lts__t_sectors_aperture_sysmem_op_read.sum.per_second                    sector/second                              0
    lts__t_sectors_aperture_sysmem_op_write.sum                                     sector                              8
    lts__t_sectors_aperture_sysmem_op_write.sum.per_second                   sector/second                         369.51
    lts__t_sectors_op_read.sum                                                      sector                        136,690
    lts__t_sectors_op_read.sum.per_second                                   sector/usecond                           6.31
    lts__t_sectors_op_write.sum                                                     sector                         88,685
    lts__t_sectors_op_write.sum.per_second                                  sector/usecond                           4.10
    lts__t_sectors_srcunit_l1_op_atom.sum                                           sector                              0
    lts__t_sectors_srcunit_l1_op_atom.sum.per_second                         sector/second                              0
    lts__t_sectors_srcunit_tex_op_read.sum                                          sector                        107,441
    lts__t_sectors_srcunit_tex_op_read.sum.per_second                       sector/usecond                           4.96
    sm__mio2rf_writeback_active.avg.pct_of_peak_sustained_elapsed                        %                           0.01
    sm__pipe_tensor_cycles_active.avg.pct_of_peak_sustained_active                       %                              0
    sm__warps_active.avg.pct_of_peak_sustained_active                                    %                           3.12
    smsp__average_inst_executed_per_warp.ratio                                   inst/warp                   1,613,036.00
    smsp__cycles_active.avg.pct_of_peak_sustained_elapsed                                %                           0.37
    smsp__inst_executed.avg.per_cycle_active                                    inst/cycle                           0.05
    smsp__inst_executed.sum                                                           inst                      1,613,036
    smsp__inst_executed_op_global_atom.sum                                                                        (!) n/a
    smsp__inst_executed_op_global_ld.sum                                              inst                            984
    smsp__inst_executed_op_global_st.sum                                              inst                            496
    smsp__inst_executed_op_local_ld.sum                                               inst                         69,477
    smsp__inst_executed_op_shared_atom.sum                                            inst                              0
    smsp__inst_executed_op_shared_atom_dot_alu.sum                                    inst                              0
    smsp__inst_executed_op_shared_atom_dot_cas.sum                                    inst                              0
    smsp__inst_executed_op_shared_ld.avg.pct_of_peak_sustained_elapsed                   %                              0
    smsp__inst_executed_op_shared_ld.sum                                              inst                              0
    smsp__inst_executed_op_shared_ld.sum.per_second                            inst/second                              0
    smsp__inst_executed_op_shared_st.avg.pct_of_peak_sustained_elapsed                   %                              0
    smsp__inst_executed_op_shared_st.sum                                              inst                              0
    smsp__inst_executed_op_shared_st.sum.per_second                            inst/second                              0
    smsp__inst_executed_op_surface_atom.sum                                           inst                              0
    smsp__inst_executed_op_surface_ld.sum                                             inst                              0
    smsp__inst_executed_op_surface_red.sum                                            inst                              0
    smsp__inst_executed_op_surface_st.sum                                             inst                              0
    smsp__inst_executed_op_texture.sum                                                inst                              0
    smsp__inst_executed_pipe_adu.sum                                                  inst                         26,377
    smsp__inst_executed_pipe_cbu.sum                                                  inst                        251,448
    smsp__inst_executed_pipe_fp16.sum                                                 inst                              0
    smsp__inst_executed_pipe_fp64.avg.pct_of_peak_sustained_active                       %                              0
    smsp__inst_executed_pipe_lsu.avg.pct_of_peak_sustained_active                        %                           1.90
    smsp__inst_executed_pipe_tex.avg.pct_of_peak_sustained_active                        %                              0
    smsp__inst_issued.avg.per_cycle_active                                      inst/cycle                           0.05
    smsp__inst_issued.sum                                                             inst                      1,618,955
    smsp__issue_active.avg.pct_of_peak_sustained_active                                  %                           5.48
    smsp__sass_thread_inst_executed_op_control_pred_on.sum                            inst                          5,858
    smsp__sass_thread_inst_executed_op_dadd_pred_on.sum                               inst                              0
    smsp__sass_thread_inst_executed_op_dfma_pred_on.sum                               inst                              0
    smsp__sass_thread_inst_executed_op_dmul_pred_on.sum                               inst                              0
    smsp__sass_thread_inst_executed_op_fadd_pred_on.sum                               inst                          1,214
    smsp__sass_thread_inst_executed_op_ffma_pred_on.sum                               inst                          4,132
    smsp__sass_thread_inst_executed_op_fmul_pred_on.sum                               inst                          1,493
    smsp__sass_thread_inst_executed_op_fp16_pred_on.sum                               inst                              0
    smsp__sass_thread_inst_executed_op_fp32_pred_on.sum                               inst                          7,510
    smsp__sass_thread_inst_executed_op_fp64_pred_on.sum                               inst                              0
    smsp__sass_thread_inst_executed_op_hadd_pred_on.sum                               inst                              0
    smsp__sass_thread_inst_executed_op_hfma_pred_on.sum                               inst                              0
    smsp__sass_thread_inst_executed_op_hmul_pred_on.sum                               inst                              0
    smsp__sass_thread_inst_executed_op_integer_pred_on.sum                            inst                         37,466
    smsp__sass_thread_inst_executed_op_inter_thread_communication_pred_on.            inst                              0
    sum                                                                                                                  
    smsp__sass_thread_inst_executed_op_memory_pred_on.sum                             inst                          4,013
    smsp__sass_thread_inst_executed_op_misc_pred_on.sum                               inst                          7,126
    smsp__sass_thread_inst_executed_op_mufu_pred_on.sum                                                           (!) n/a
    smsp__thread_inst_executed_per_inst_executed.pct                                     %                           3.12
    smsp__thread_inst_executed_per_inst_executed.ratio                                                                  1
    smsp__warp_issue_stalled_drain_miss_per_warp_active.pct                                                       (!) n/a
    smsp__warp_issue_stalled_imc_miss_per_warp_active.pct                                %                           0.00
    smsp__warp_issue_stalled_long_scoreboard_miss_per_warp_active.pct                                             (!) n/a
    smsp__warp_issue_stalled_misc_membar_per_warp_active.pct                                                      (!) n/a
    smsp__warp_issue_stalled_misc_mio_throttle_per_warp_active.pct                                                (!) n/a
    smsp__warp_issue_stalled_misc_miss_per_warp_active.pct                                                        (!) n/a
    smsp__warp_issue_stalled_misc_sleeping_per_warp_active.pct                                                    (!) n/a
    smsp__warp_issue_stalled_misc_tex_throttle_per_warp_active.pct                                                (!) n/a
    smsp__warp_issue_stalled_no_instruction_miss_per_warp_active.pct                                              (!) n/a
    smsp__warp_issue_stalled_short_scoreboard_miss_per_warp_active.pct                                            (!) n/a
    smsp__warps_eligible.sum.per_cycle_active                                         warp                          14.90
    ---------------------------------------------------------------------- --------------- ------------------------------

  render_init(int, int, curandStateXORWOW *), 2023-Mar-24 15:11:27, Context 1, Stream 7
    Section: Command line profiler metrics
    ---------------------------------------------------------------------- --------------- ------------------------------
    dram__bytes_read.sum                                                             Mbyte                         133.44
    dram__bytes_read.sum.per_second                                           Gbyte/second                         104.90
    dram__bytes_write.sum                                                            Mbyte                         204.52
    dram__bytes_write.sum.per_second                                          Gbyte/second                         160.78
    dram__sectors_read.sum                                                          sector                      4,169,871
    dram__sectors_write.sum                                                         sector                      6,391,324
    l1tex__f_tex2sm_cycles_active.avg.pct_of_peak_sustained_elapsed                      %                              0
    l1tex__lsu_writeback_active.avg.pct_of_peak_sustained_active                         %                          17.92
    l1tex__lsu_writeback_active.sum                                                  cycle                     19,343,375
    l1tex__t_bytes_pipe_lsu_mem_global_op_ld.sum.per_second                   Gbyte/second                         454.72
    l1tex__t_bytes_pipe_lsu_mem_global_op_st.sum                                     Mbyte                          12.96
    l1tex__t_bytes_pipe_lsu_mem_global_op_st.sum.per_second                   Gbyte/second                          10.19
    l1tex__t_bytes_pipe_lsu_mem_local_op_ld.sum.per_second                    Gbyte/second                         125.02
    l1tex__t_requests_pipe_lsu_mem_global_op_atom.sum                              request                              0
    l1tex__t_requests_pipe_lsu_mem_global_op_ld.sum                                request                     18,075,640
    l1tex__t_requests_pipe_lsu_mem_global_op_red.sum                               request                              0
    l1tex__t_requests_pipe_lsu_mem_global_op_st.sum                                request                         12,825
    l1tex__t_requests_pipe_lsu_mem_local_op_ld.sum                                 request                      1,261,845
    l1tex__t_requests_pipe_lsu_mem_local_op_st.sum                                 request                      2,618,195
    l1tex__t_requests_pipe_tex_mem_surface_op_atom.sum                             request                              0
    l1tex__t_requests_pipe_tex_mem_surface_op_ld.sum                               request                              0
    l1tex__t_requests_pipe_tex_mem_surface_op_red.sum                              request                              0
    l1tex__t_requests_pipe_tex_mem_surface_op_st.sum                               request                              0
    l1tex__t_requests_pipe_tex_mem_texture.sum                                     request                              0
    l1tex__t_sector_hit_rate.pct                                                         %                          68.53
    l1tex__t_sectors_pipe_lsu_mem_global_op.sum                                                                   (!) n/a
    l1tex__t_sectors_pipe_lsu_mem_global_op_ld.sum                                  sector                     18,075,640
    l1tex__t_sectors_pipe_lsu_mem_global_op_lookup_hit.sum                                                        (!) n/a
    l1tex__t_sectors_pipe_lsu_mem_local_op_ld.sum                                   sector                      4,969,645
    l1tex__t_sectors_pipe_lsu_mem_local_op_st.sum                                   sector                     10,325,987
    l1tex__t_sectors_pipe_lsu_mem_local_op_st.sum.per_second                sector/nsecond                           8.12
    l1tex__t_set_accesses_pipe_lsu_mem_global_op_atom.sum                                                               0
    l1tex__t_set_accesses_pipe_lsu_mem_global_op_red.sum                                                                0
    l1tex__t_set_accesses_pipe_tex_mem_surface_op_atom.sum                                                              0
    l1tex__t_set_accesses_pipe_tex_mem_surface_op_red.sum                                                               0
    l1tex__tex_writeback_active.avg.pct_of_peak_sustained_active                         %                              0
    l1tex__texin_sm2tex_req_cycles_active.avg.pct_of_peak_sustained_elapse               %                           0.00
    d                                                                                                                    
    lts__t_bytes_equiv_l1sectormiss_pipe_lsu_mem_global_op_ld.sum                    Mbyte                           5.01
    lts__t_bytes_equiv_l1sectormiss_pipe_lsu_mem_global_op_st.sum                    Mbyte                           2.83
    lts__t_bytes_equiv_l1sectormiss_pipe_lsu_mem_surface_op_st.sum                                                (!) n/a
    lts__t_bytes_equiv_l1sectormiss_pipe_tex_mem_surface_op_ld.sum                    byte                              0
    lts__t_sector_hit_rate.pct                                                           %                          72.16
    lts__t_sector_op_read_hit_rate.pct                                                   %                           4.49
    lts__t_sector_op_write_hit_rate.pct                                                  %                         100.00
    lts__t_sectors.avg.pct_of_peak_sustained_elapsed                                     %                          20.98
    lts__t_sectors_aperture_sysmem_op_read.sum                                      sector                              0
    lts__t_sectors_aperture_sysmem_op_read.sum.per_second                    sector/second                              0
    lts__t_sectors_aperture_sysmem_op_write.sum                                     sector                              7
    lts__t_sectors_aperture_sysmem_op_write.sum.per_second                  sector/msecond                           5.50
    lts__t_sectors_op_read.sum                                                      sector                      4,347,810
    lts__t_sectors_op_read.sum.per_second                                   sector/nsecond                           3.42
    lts__t_sectors_op_write.sum                                                     sector                     10,552,366
    lts__t_sectors_op_write.sum.per_second                                  sector/nsecond                           8.30
    lts__t_sectors_srcunit_l1_op_atom.sum                                           sector                              0
    lts__t_sectors_srcunit_l1_op_atom.sum.per_second                         sector/second                              0
    lts__t_sectors_srcunit_tex_op_read.sum                                          sector                      4,339,452
    lts__t_sectors_srcunit_tex_op_read.sum.per_second                       sector/nsecond                           3.41
    sm__mio2rf_writeback_active.avg.pct_of_peak_sustained_elapsed                        %                           8.35
    sm__pipe_tensor_cycles_active.avg.pct_of_peak_sustained_active                       %                              0
    sm__warps_active.avg.pct_of_peak_sustained_active                                    %                          42.31
    smsp__average_inst_executed_per_warp.ratio                                   inst/warp                      30,154.89
    smsp__cycles_active.avg.pct_of_peak_sustained_elapsed                                %                          90.99
    smsp__inst_executed.avg.per_cycle_active                                    inst/cycle                           0.11
    smsp__inst_executed.sum                                                           inst                     45,835,434
    smsp__inst_executed_op_global_atom.sum                                                                        (!) n/a
    smsp__inst_executed_op_global_ld.sum                                              inst                     20,119,200
    smsp__inst_executed_op_global_st.sum                                              inst                         12,825
    smsp__inst_executed_op_local_ld.sum                                               inst                        879,965
    smsp__inst_executed_op_shared_atom.sum                                            inst                              0
    smsp__inst_executed_op_shared_atom_dot_alu.sum                                    inst                              0
    smsp__inst_executed_op_shared_atom_dot_cas.sum                                    inst                              0
    smsp__inst_executed_op_shared_ld.avg.pct_of_peak_sustained_elapsed                   %                              0
    smsp__inst_executed_op_shared_ld.sum                                              inst                              0
    smsp__inst_executed_op_shared_ld.sum.per_second                            inst/second                              0
    smsp__inst_executed_op_shared_st.avg.pct_of_peak_sustained_elapsed                   %                              0
    smsp__inst_executed_op_shared_st.sum                                              inst                              0
    smsp__inst_executed_op_shared_st.sum.per_second                            inst/second                              0
    smsp__inst_executed_op_surface_atom.sum                                           inst                              0
    smsp__inst_executed_op_surface_ld.sum                                             inst                              0
    smsp__inst_executed_op_surface_red.sum                                            inst                              0
    smsp__inst_executed_op_surface_st.sum                                             inst                              0
    smsp__inst_executed_op_texture.sum                                                inst                              0
    smsp__inst_executed_pipe_adu.sum                                                  inst                          5,890
    smsp__inst_executed_pipe_cbu.sum                                                  inst                        929,922
    smsp__inst_executed_pipe_fp16.sum                                                 inst                              0
    smsp__inst_executed_pipe_fp64.avg.pct_of_peak_sustained_active                       %                              0
    smsp__inst_executed_pipe_lsu.avg.pct_of_peak_sustained_active                        %                          10.82
    smsp__inst_executed_pipe_tex.avg.pct_of_peak_sustained_active                        %                              0
    smsp__inst_issued.avg.per_cycle_active                                      inst/cycle                           0.11
    smsp__inst_issued.sum                                                             inst                     45,838,865
    smsp__issue_active.avg.pct_of_peak_sustained_active                                  %                          10.86
    smsp__sass_thread_inst_executed_op_control_pred_on.sum                            inst                     20,702,061
    smsp__sass_thread_inst_executed_op_dadd_pred_on.sum                               inst                              0
    smsp__sass_thread_inst_executed_op_dfma_pred_on.sum                               inst                              0
    smsp__sass_thread_inst_executed_op_dmul_pred_on.sum                               inst                              0
    smsp__sass_thread_inst_executed_op_fadd_pred_on.sum                               inst                              0
    smsp__sass_thread_inst_executed_op_ffma_pred_on.sum                               inst                              0
    smsp__sass_thread_inst_executed_op_fmul_pred_on.sum                               inst                              0
    smsp__sass_thread_inst_executed_op_fp16_pred_on.sum                               inst                              0
    smsp__sass_thread_inst_executed_op_fp32_pred_on.sum                               inst                              0
    smsp__sass_thread_inst_executed_op_fp64_pred_on.sum                               inst                              0
    smsp__sass_thread_inst_executed_op_hadd_pred_on.sum                               inst                              0
    smsp__sass_thread_inst_executed_op_hfma_pred_on.sum                               inst                              0
    smsp__sass_thread_inst_executed_op_hmul_pred_on.sum                               inst                              0
    smsp__sass_thread_inst_executed_op_integer_pred_on.sum                            inst                    237,342,708
    smsp__sass_thread_inst_executed_op_inter_thread_communication_pred_on.            inst                              0
    sum                                                                                                                  
    smsp__sass_thread_inst_executed_op_memory_pred_on.sum                             inst                    289,087,093
    smsp__sass_thread_inst_executed_op_misc_pred_on.sum                               inst                      8,832,677
    smsp__sass_thread_inst_executed_op_mufu_pred_on.sum                                                           (!) n/a
    smsp__thread_inst_executed_per_inst_executed.pct                                     %                          64.76
    smsp__thread_inst_executed_per_inst_executed.ratio                                                              20.72
    smsp__warp_issue_stalled_drain_miss_per_warp_active.pct                                                       (!) n/a
    smsp__warp_issue_stalled_imc_miss_per_warp_active.pct                                %                           0.06
    smsp__warp_issue_stalled_long_scoreboard_miss_per_warp_active.pct                                             (!) n/a
    smsp__warp_issue_stalled_misc_membar_per_warp_active.pct                                                      (!) n/a
    smsp__warp_issue_stalled_misc_mio_throttle_per_warp_active.pct                                                (!) n/a
    smsp__warp_issue_stalled_misc_miss_per_warp_active.pct                                                        (!) n/a
    smsp__warp_issue_stalled_misc_sleeping_per_warp_active.pct                                                    (!) n/a
    smsp__warp_issue_stalled_misc_tex_throttle_per_warp_active.pct                                                (!) n/a
    smsp__warp_issue_stalled_no_instruction_miss_per_warp_active.pct                                              (!) n/a
    smsp__warp_issue_stalled_short_scoreboard_miss_per_warp_active.pct                                            (!) n/a
    smsp__warps_eligible.sum.per_cycle_active                                         warp                          62.31
    ---------------------------------------------------------------------- --------------- ------------------------------

  render(vec3 *, int, int, int, camera **, hitable **, curandStateXORWOW *), 2023-Mar-24 15:11:59, Context 1, Stream 7
    Section: Command line profiler metrics
    ---------------------------------------------------------------------- --------------- ------------------------------
    dram__bytes_read.sum                                                             Gbyte                           2.69
    dram__bytes_read.sum.per_second                                           Gbyte/second                           1.90
    dram__bytes_write.sum                                                            Gbyte                          60.88
    dram__bytes_write.sum.per_second                                          Gbyte/second                          43.04
    dram__sectors_read.sum                                                          sector                     83,959,277
    dram__sectors_write.sum                                                         sector                  1,902,360,086
    l1tex__f_tex2sm_cycles_active.avg.pct_of_peak_sustained_elapsed                      %                              0
    l1tex__lsu_writeback_active.avg.pct_of_peak_sustained_active                         %                          17.73
    l1tex__lsu_writeback_active.sum                                                  cycle                 12,325,258,214
    l1tex__t_bytes_pipe_lsu_mem_global_op_ld.sum.per_second                   Gbyte/second                          60.64
    l1tex__t_bytes_pipe_lsu_mem_global_op_st.sum                                     Mbyte                          10.40
    l1tex__t_bytes_pipe_lsu_mem_global_op_st.sum.per_second                   Mbyte/second                           7.35
    l1tex__t_bytes_pipe_lsu_mem_local_op_ld.sum.per_second                    Gbyte/second                         492.59
    l1tex__t_requests_pipe_lsu_mem_global_op_atom.sum                              request                              0
    l1tex__t_requests_pipe_lsu_mem_global_op_ld.sum                                request                  2,678,312,944
    l1tex__t_requests_pipe_lsu_mem_global_op_red.sum                               request                              0
    l1tex__t_requests_pipe_lsu_mem_global_op_st.sum                                request                         12,825
    l1tex__t_requests_pipe_lsu_mem_local_op_ld.sum                                 request                  8,449,597,575
    l1tex__t_requests_pipe_lsu_mem_local_op_st.sum                                 request                  6,165,751,619
    l1tex__t_requests_pipe_tex_mem_surface_op_atom.sum                             request                              0
    l1tex__t_requests_pipe_tex_mem_surface_op_ld.sum                               request                              0
    l1tex__t_requests_pipe_tex_mem_surface_op_red.sum                              request                              0
    l1tex__t_requests_pipe_tex_mem_surface_op_st.sum                               request                              0
    l1tex__t_requests_pipe_tex_mem_texture.sum                                     request                              0
    l1tex__t_sector_hit_rate.pct                                                         %                          84.81
    l1tex__t_sectors_pipe_lsu_mem_global_op.sum                                                                   (!) n/a
    l1tex__t_sectors_pipe_lsu_mem_global_op_ld.sum                                  sector                  2,680,209,510
    l1tex__t_sectors_pipe_lsu_mem_global_op_lookup_hit.sum                                                        (!) n/a
    l1tex__t_sectors_pipe_lsu_mem_local_op_ld.sum                                   sector                 21,771,873,160
    l1tex__t_sectors_pipe_lsu_mem_local_op_st.sum                                   sector                 15,879,607,994
    l1tex__t_sectors_pipe_lsu_mem_local_op_st.sum.per_second                sector/nsecond                          11.23
    l1tex__t_set_accesses_pipe_lsu_mem_global_op_atom.sum                                                               0
    l1tex__t_set_accesses_pipe_lsu_mem_global_op_red.sum                                                                0
    l1tex__t_set_accesses_pipe_tex_mem_surface_op_atom.sum                                                              0
    l1tex__t_set_accesses_pipe_tex_mem_surface_op_red.sum                                                               0
    l1tex__tex_writeback_active.avg.pct_of_peak_sustained_active                         %                              0
    l1tex__texin_sm2tex_req_cycles_active.avg.pct_of_peak_sustained_elapse               %                           0.00
    d                                                                                                                    
    lts__t_bytes_equiv_l1sectormiss_pipe_lsu_mem_global_op_ld.sum                    Gbyte                           7.75
    lts__t_bytes_equiv_l1sectormiss_pipe_lsu_mem_global_op_st.sum                    Mbyte                           2.03
    lts__t_bytes_equiv_l1sectormiss_pipe_lsu_mem_surface_op_st.sum                                                (!) n/a
    lts__t_bytes_equiv_l1sectormiss_pipe_tex_mem_surface_op_ld.sum                    byte                              0
    lts__t_sector_hit_rate.pct                                                           %                          99.67
    lts__t_sector_op_read_hit_rate.pct                                                   %                          98.71
    lts__t_sector_op_write_hit_rate.pct                                                  %                         100.00
    lts__t_sectors.avg.pct_of_peak_sustained_elapsed                                     %                          24.93
    lts__t_sectors_aperture_sysmem_op_read.sum                                      sector                              0
    lts__t_sectors_aperture_sysmem_op_read.sum.per_second                    sector/second                              0
    lts__t_sectors_aperture_sysmem_op_write.sum                                     sector                             79
    lts__t_sectors_aperture_sysmem_op_write.sum.per_second                   sector/second                          55.86
    lts__t_sectors_op_read.sum                                                      sector                  3,580,922,180
    lts__t_sectors_op_read.sum.per_second                                   sector/nsecond                           2.53
    lts__t_sectors_op_write.sum                                                     sector                 15,878,353,939
    lts__t_sectors_op_write.sum.per_second                                  sector/nsecond                          11.23
    lts__t_sectors_srcunit_l1_op_atom.sum                                           sector                              0
    lts__t_sectors_srcunit_l1_op_atom.sum.per_second                         sector/second                              0
    lts__t_sectors_srcunit_tex_op_read.sum                                          sector                  3,598,219,203
    lts__t_sectors_srcunit_tex_op_read.sum.per_second                       sector/nsecond                           2.54
    sm__mio2rf_writeback_active.avg.pct_of_peak_sustained_elapsed                        %                           5.26
    sm__pipe_tensor_cycles_active.avg.pct_of_peak_sustained_active                       %                              0
    sm__warps_active.avg.pct_of_peak_sustained_active                                    %                          32.46
    smsp__average_inst_executed_per_warp.ratio                                   inst/warp                  27,454,667.13
    smsp__cycles_active.avg.pct_of_peak_sustained_elapsed                                %                          45.16
    smsp__inst_executed.avg.per_cycle_active                                    inst/cycle                           0.18
    smsp__inst_executed.sum                                                           inst                 41,731,094,034
    smsp__inst_executed_op_global_atom.sum                                                                        (!) n/a
    smsp__inst_executed_op_global_ld.sum                                              inst                        931,155
    smsp__inst_executed_op_global_st.sum                                              inst                         12,825
    smsp__inst_executed_op_local_ld.sum                                               inst                  6,133,723,920
    smsp__inst_executed_op_shared_atom.sum                                            inst                              0
    smsp__inst_executed_op_shared_atom_dot_alu.sum                                    inst                              0
    smsp__inst_executed_op_shared_atom_dot_cas.sum                                    inst                              0
    smsp__inst_executed_op_shared_ld.avg.pct_of_peak_sustained_elapsed                   %                              0
    smsp__inst_executed_op_shared_ld.sum                                              inst                              0
    smsp__inst_executed_op_shared_ld.sum.per_second                            inst/second                              0
    smsp__inst_executed_op_shared_st.avg.pct_of_peak_sustained_elapsed                   %                              0
    smsp__inst_executed_op_shared_st.sum                                              inst                              0
    smsp__inst_executed_op_shared_st.sum.per_second                            inst/second                              0
    smsp__inst_executed_op_surface_atom.sum                                           inst                              0
    smsp__inst_executed_op_surface_ld.sum                                             inst                              0
    smsp__inst_executed_op_surface_red.sum                                            inst                              0
    smsp__inst_executed_op_surface_st.sum                                             inst                              0
    smsp__inst_executed_op_texture.sum                                                inst                              0
    smsp__inst_executed_pipe_adu.sum                                                  inst                    382,112,430
    smsp__inst_executed_pipe_cbu.sum                                                  inst                  6,164,191,729
    smsp__inst_executed_pipe_fp16.sum                                                 inst                              0
    smsp__inst_executed_pipe_fp64.avg.pct_of_peak_sustained_active                       %                              0
    smsp__inst_executed_pipe_lsu.avg.pct_of_peak_sustained_active                        %                          14.98
    smsp__inst_executed_pipe_tex.avg.pct_of_peak_sustained_active                        %                              0
    smsp__inst_issued.avg.per_cycle_active                                      inst/cycle                           0.18
    smsp__inst_issued.sum                                                             inst                 42,114,291,945
    smsp__issue_active.avg.pct_of_peak_sustained_active                                  %                          18.27
    smsp__sass_thread_inst_executed_op_control_pred_on.sum                            inst                 53,765,066,034
    smsp__sass_thread_inst_executed_op_dadd_pred_on.sum                               inst                              0
    smsp__sass_thread_inst_executed_op_dfma_pred_on.sum                               inst                              0
    smsp__sass_thread_inst_executed_op_dmul_pred_on.sum                               inst                              0
    smsp__sass_thread_inst_executed_op_fadd_pred_on.sum                               inst                 14,825,955,700
    smsp__sass_thread_inst_executed_op_ffma_pred_on.sum                               inst                 39,536,647,043
    smsp__sass_thread_inst_executed_op_fmul_pred_on.sum                               inst                 19,541,726,831
    smsp__sass_thread_inst_executed_op_fp16_pred_on.sum                               inst                              0
    smsp__sass_thread_inst_executed_op_fp32_pred_on.sum                               inst                 78,901,990,750
    smsp__sass_thread_inst_executed_op_fp64_pred_on.sum                               inst                              0
    smsp__sass_thread_inst_executed_op_hadd_pred_on.sum                               inst                              0
    smsp__sass_thread_inst_executed_op_hfma_pred_on.sum                               inst                              0
    smsp__sass_thread_inst_executed_op_hmul_pred_on.sum                               inst                              0
    smsp__sass_thread_inst_executed_op_integer_pred_on.sum                            inst                 68,635,817,341
    smsp__sass_thread_inst_executed_op_inter_thread_communication_pred_on.            inst                              0
    sum                                                                                                                  
    smsp__sass_thread_inst_executed_op_memory_pred_on.sum                             inst                224,397,094,049
    smsp__sass_thread_inst_executed_op_misc_pred_on.sum                               inst                 92,806,955,340
    smsp__sass_thread_inst_executed_op_mufu_pred_on.sum                                                           (!) n/a
    smsp__thread_inst_executed_per_inst_executed.pct                                     %                          39.57
    smsp__thread_inst_executed_per_inst_executed.ratio                                                              12.66
    smsp__warp_issue_stalled_drain_miss_per_warp_active.pct                                                       (!) n/a
    smsp__warp_issue_stalled_imc_miss_per_warp_active.pct                                %                           0.00
    smsp__warp_issue_stalled_long_scoreboard_miss_per_warp_active.pct                                             (!) n/a
    smsp__warp_issue_stalled_misc_membar_per_warp_active.pct                                                      (!) n/a
    smsp__warp_issue_stalled_misc_mio_throttle_per_warp_active.pct                                                (!) n/a
    smsp__warp_issue_stalled_misc_miss_per_warp_active.pct                                                        (!) n/a
    smsp__warp_issue_stalled_misc_sleeping_per_warp_active.pct                                                    (!) n/a
    smsp__warp_issue_stalled_misc_tex_throttle_per_warp_active.pct                                                (!) n/a
    smsp__warp_issue_stalled_no_instruction_miss_per_warp_active.pct                                              (!) n/a
    smsp__warp_issue_stalled_short_scoreboard_miss_per_warp_active.pct                                            (!) n/a
    smsp__warps_eligible.sum.per_cycle_active                                         warp                          68.87
    ---------------------------------------------------------------------- --------------- ------------------------------

  free_world(hitable **, hitable **, camera **), 2023-Mar-24 15:12:00, Context 1, Stream 7
    Section: Command line profiler metrics
    ---------------------------------------------------------------------- --------------- ------------------------------
    dram__bytes_read.sum                                                             Kbyte                         102.37
    dram__bytes_read.sum.per_second                                           Mbyte/second                           5.08
    dram__bytes_write.sum                                                            Kbyte                           2.43
    dram__bytes_write.sum.per_second                                          Kbyte/second                         120.69
    dram__sectors_read.sum                                                          sector                          3,199
    dram__sectors_write.sum                                                         sector                             76
    l1tex__f_tex2sm_cycles_active.avg.pct_of_peak_sustained_elapsed                      %                              0
    l1tex__lsu_writeback_active.avg.pct_of_peak_sustained_active                         %                           0.66
    l1tex__lsu_writeback_active.sum                                                  cycle                        181,464
    l1tex__t_bytes_pipe_lsu_mem_global_op_ld.sum.per_second                   Mbyte/second                         180.53
    l1tex__t_bytes_pipe_lsu_mem_global_op_st.sum                                     Kbyte                           2.69
    l1tex__t_bytes_pipe_lsu_mem_global_op_st.sum.per_second                   Kbyte/second                         133.39
    l1tex__t_bytes_pipe_lsu_mem_local_op_ld.sum.per_second                    Mbyte/second                          81.09
    l1tex__t_requests_pipe_lsu_mem_global_op_atom.sum                              request                          6,930
    l1tex__t_requests_pipe_lsu_mem_global_op_ld.sum                                request                        113,688
    l1tex__t_requests_pipe_lsu_mem_global_op_red.sum                               request                            978
    l1tex__t_requests_pipe_lsu_mem_global_op_st.sum                                request                             84
    l1tex__t_requests_pipe_lsu_mem_local_op_ld.sum                                 request                         51,066
    l1tex__t_requests_pipe_lsu_mem_local_op_st.sum                                 request                         49,110
    l1tex__t_requests_pipe_tex_mem_surface_op_atom.sum                             request                              0
    l1tex__t_requests_pipe_tex_mem_surface_op_ld.sum                               request                              0
    l1tex__t_requests_pipe_tex_mem_surface_op_red.sum                              request                              0
    l1tex__t_requests_pipe_tex_mem_surface_op_st.sum                               request                              0
    l1tex__t_requests_pipe_tex_mem_texture.sum                                     request                              0
    l1tex__t_sector_hit_rate.pct                                                         %                          45.54
    l1tex__t_sectors_pipe_lsu_mem_global_op.sum                                                                   (!) n/a
    l1tex__t_sectors_pipe_lsu_mem_global_op_ld.sum                                  sector                        113,688
    l1tex__t_sectors_pipe_lsu_mem_global_op_lookup_hit.sum                                                        (!) n/a
    l1tex__t_sectors_pipe_lsu_mem_local_op_ld.sum                                   sector                         51,066
    l1tex__t_sectors_pipe_lsu_mem_local_op_st.sum                                   sector                         49,110
    l1tex__t_sectors_pipe_lsu_mem_local_op_st.sum.per_second                sector/usecond                           2.44
    l1tex__t_set_accesses_pipe_lsu_mem_global_op_atom.sum                                                           6,930
    l1tex__t_set_accesses_pipe_lsu_mem_global_op_red.sum                                                              978
    l1tex__t_set_accesses_pipe_tex_mem_surface_op_atom.sum                                                              0
    l1tex__t_set_accesses_pipe_tex_mem_surface_op_red.sum                                                               0
    l1tex__tex_writeback_active.avg.pct_of_peak_sustained_active                         %                              0
    l1tex__texin_sm2tex_req_cycles_active.avg.pct_of_peak_sustained_elapse               %                           0.00
    d                                                                                                                    
    lts__t_bytes_equiv_l1sectormiss_pipe_lsu_mem_global_op_ld.sum                    Mbyte                           3.61
    lts__t_bytes_equiv_l1sectormiss_pipe_lsu_mem_global_op_st.sum                    Kbyte                           1.34
    lts__t_bytes_equiv_l1sectormiss_pipe_lsu_mem_surface_op_st.sum                                                (!) n/a
    lts__t_bytes_equiv_l1sectormiss_pipe_tex_mem_surface_op_ld.sum                    byte                              0
    lts__t_sector_hit_rate.pct                                                           %                          99.13
    lts__t_sector_op_read_hit_rate.pct                                                   %                          96.72
    lts__t_sector_op_write_hit_rate.pct                                                  %                         100.15
    lts__t_sectors.avg.pct_of_peak_sustained_elapsed                                     %                           0.02
    lts__t_sectors_aperture_sysmem_op_read.sum                                      sector                              0
    lts__t_sectors_aperture_sysmem_op_read.sum.per_second                    sector/second                              0
    lts__t_sectors_aperture_sysmem_op_write.sum                                     sector                              9
    lts__t_sectors_aperture_sysmem_op_write.sum.per_second                   sector/second                         446.62
    lts__t_sectors_op_read.sum                                                      sector                        116,575
    lts__t_sectors_op_read.sum.per_second                                   sector/usecond                           5.78
    lts__t_sectors_op_write.sum                                                     sector                         49,239
    lts__t_sectors_op_write.sum.per_second                                  sector/usecond                           2.44
    lts__t_sectors_srcunit_l1_op_atom.sum                                           sector                              0
    lts__t_sectors_srcunit_l1_op_atom.sum.per_second                         sector/second                              0
    lts__t_sectors_srcunit_tex_op_read.sum                                          sector                        112,834
    lts__t_sectors_srcunit_tex_op_read.sum.per_second                       sector/usecond                           5.60
    sm__mio2rf_writeback_active.avg.pct_of_peak_sustained_elapsed                        %                           0.01
    sm__pipe_tensor_cycles_active.avg.pct_of_peak_sustained_active                       %                              0
    sm__warps_active.avg.pct_of_peak_sustained_active                                    %                           3.13
    smsp__average_inst_executed_per_warp.ratio                                   inst/warp                      1,232,459
    smsp__cycles_active.avg.pct_of_peak_sustained_elapsed                                %                           0.37
    smsp__inst_executed.avg.per_cycle_active                                    inst/cycle                           0.04
    smsp__inst_executed.sum                                                           inst                      1,232,459
    smsp__inst_executed_op_global_atom.sum                                                                        (!) n/a
    smsp__inst_executed_op_global_ld.sum                                              inst                          1,956
    smsp__inst_executed_op_global_st.sum                                              inst                              0
    smsp__inst_executed_op_local_ld.sum                                               inst                         48,090
    smsp__inst_executed_op_shared_atom.sum                                            inst                              0
    smsp__inst_executed_op_shared_atom_dot_alu.sum                                    inst                              0
    smsp__inst_executed_op_shared_atom_dot_cas.sum                                    inst                              0
    smsp__inst_executed_op_shared_ld.avg.pct_of_peak_sustained_elapsed                   %                              0
    smsp__inst_executed_op_shared_ld.sum                                              inst                              0
    smsp__inst_executed_op_shared_ld.sum.per_second                            inst/second                              0
    smsp__inst_executed_op_shared_st.avg.pct_of_peak_sustained_elapsed                   %                              0
    smsp__inst_executed_op_shared_st.sum                                              inst                              0
    smsp__inst_executed_op_shared_st.sum.per_second                            inst/second                              0
    smsp__inst_executed_op_surface_atom.sum                                           inst                              0
    smsp__inst_executed_op_surface_ld.sum                                             inst                              0
    smsp__inst_executed_op_surface_red.sum                                            inst                              0
    smsp__inst_executed_op_surface_st.sum                                             inst                              0
    smsp__inst_executed_op_texture.sum                                                inst                              0
    smsp__inst_executed_pipe_adu.sum                                                  inst                         25,282
    smsp__inst_executed_pipe_cbu.sum                                                  inst                        184,051
    smsp__inst_executed_pipe_fp16.sum                                                 inst                              0
    smsp__inst_executed_pipe_fp64.avg.pct_of_peak_sustained_active                       %                              0
    smsp__inst_executed_pipe_lsu.avg.pct_of_peak_sustained_active                        %                           1.64
    smsp__inst_executed_pipe_tex.avg.pct_of_peak_sustained_active                        %                              0
    smsp__inst_issued.avg.per_cycle_active                                      inst/cycle                           0.04
    smsp__inst_issued.sum                                                             inst                      1,236,421
    smsp__issue_active.avg.pct_of_peak_sustained_active                                  %                           4.50
    smsp__sass_thread_inst_executed_op_control_pred_on.sum                            inst                          1,039
    smsp__sass_thread_inst_executed_op_dadd_pred_on.sum                               inst                              0
    smsp__sass_thread_inst_executed_op_dfma_pred_on.sum                               inst                              0
    smsp__sass_thread_inst_executed_op_dmul_pred_on.sum                               inst                              0
    smsp__sass_thread_inst_executed_op_fadd_pred_on.sum                               inst                              0
    smsp__sass_thread_inst_executed_op_ffma_pred_on.sum                               inst                              0
    smsp__sass_thread_inst_executed_op_fmul_pred_on.sum                               inst                              0
    smsp__sass_thread_inst_executed_op_fp16_pred_on.sum                               inst                              0
    smsp__sass_thread_inst_executed_op_fp32_pred_on.sum                               inst                              0
    smsp__sass_thread_inst_executed_op_fp64_pred_on.sum                               inst                              0
    smsp__sass_thread_inst_executed_op_hadd_pred_on.sum                               inst                              0
    smsp__sass_thread_inst_executed_op_hfma_pred_on.sum                               inst                              0
    smsp__sass_thread_inst_executed_op_hmul_pred_on.sum                               inst                              0
    smsp__sass_thread_inst_executed_op_integer_pred_on.sum                            inst                            123
    smsp__sass_thread_inst_executed_op_inter_thread_communication_pred_on.            inst                              0
    sum                                                                                                                  
    smsp__sass_thread_inst_executed_op_memory_pred_on.sum                             inst                          1,466
    smsp__sass_thread_inst_executed_op_misc_pred_on.sum                               inst                          1,956
    smsp__sass_thread_inst_executed_op_mufu_pred_on.sum                                                           (!) n/a
    smsp__thread_inst_executed_per_inst_executed.pct                                     %                           3.12
    smsp__thread_inst_executed_per_inst_executed.ratio                                                                  1
    smsp__warp_issue_stalled_drain_miss_per_warp_active.pct                                                       (!) n/a
    smsp__warp_issue_stalled_imc_miss_per_warp_active.pct                                %                           0.00
    smsp__warp_issue_stalled_long_scoreboard_miss_per_warp_active.pct                                             (!) n/a
    smsp__warp_issue_stalled_misc_membar_per_warp_active.pct                                                      (!) n/a
    smsp__warp_issue_stalled_misc_mio_throttle_per_warp_active.pct                                                (!) n/a
    smsp__warp_issue_stalled_misc_miss_per_warp_active.pct                                                        (!) n/a
    smsp__warp_issue_stalled_misc_sleeping_per_warp_active.pct                                                    (!) n/a
    smsp__warp_issue_stalled_misc_tex_throttle_per_warp_active.pct                                                (!) n/a
    smsp__warp_issue_stalled_no_instruction_miss_per_warp_active.pct                                              (!) n/a
    smsp__warp_issue_stalled_short_scoreboard_miss_per_warp_active.pct                                            (!) n/a
    smsp__warps_eligible.sum.per_cycle_active                                         warp                          12.23
