  render(vec3*, int, int, int, camera**, hitable**, curandStateXORWOW*), 2023-Feb-26 05:27:02, Context 1, Stream 7
    Section: Command line profiler metrics
    ---------------------------------------------------------------------- --------------- ------------------------------
    dram__throughput.avg.pct_of_peak_sustained_elapsed                                   %                           0.43
    fe__draw_count.avg.pct_of_peak_sustained_elapsed                                                              (!) n/a
    gpc__cycles_elapsed.avg.per_second                                       cycle/usecond                         764.87
    gr__cycles_active.sum.pct_of_peak_sustained_elapsed                                  %                            100
    gr__dispatch_count.avg.pct_of_peak_sustained_elapsed                                                          (!) n/a
    gr__dispatch_cycles_active_queue_async.avg.pct_of_peak_sustained_elaps                                        (!) n/a
    ed                                                                                                                   
    gr__dispatch_cycles_active_queue_sync.avg.pct_of_peak_sustained_elapse                                        (!) n/a
    d                                                                                                                    
    pcie__read_bytes.avg.pct_of_peak_sustained_elapsed                                   %                           0.00
    pcie__rx_requests_aperture_bar1_op_read.sum                                                                   (!) n/a
    pcie__rx_requests_aperture_bar1_op_write.sum                                                                  (!) n/a
    pcie__write_bytes.avg.pct_of_peak_sustained_elapsed                                  %                           0.00
    sm__cycles_active.avg.pct_of_peak_sustained_elapsed                                  %                          78.32
    sm__inst_executed_realtime.avg.pct_of_peak_sustained_elapsed                                                  (!) n/a
    sm__pipe_shared_cycles_active_realtime.avg.pct_of_peak_sustained_elaps               %                              0
    ed                                                                                                                   
    sm__pipe_tensor_cycles_active_realtime.avg.pct_of_peak_sustained_elaps                                        (!) n/a
    ed                                                                                                                   
    sys__cycles_elapsed.avg.per_second                                       cycle/usecond                         734.88
    tpc__warps_active_shader_cs_realtime.avg.pct_of_peak_sustained_elapsed               %                          28.64
    tpc__warps_active_shader_ps_realtime.avg.pct_of_peak_sustained_elapsed                                        (!) n/a
    tpc__warps_active_shader_vtg_realtime.avg.pct_of_peak_sustained_elapse                                        (!) n/a
    d                                                                                                                    
    tpc__warps_inactive_sm_active_realtime.avg.pct_of_peak_sustained_elaps                                        (!) n/a
    ed                                                                                                                   
    tpc__warps_inactive_sm_idle_realtime.avg.pct_of_peak_sustained_elapsed                                        (!) n/a
    ---------------------------------------------------------------------- --------------- ------------------------------

  delete_cam(camera**), 2023-Feb-26 05:27:02, Context 1, Stream 7
    Section: Command line profiler metrics
    ---------------------------------------------------------------------- --------------- ------------------------------
    dram__throughput.avg.pct_of_peak_sustained_elapsed                                   %                           0.02
    fe__draw_count.avg.pct_of_peak_sustained_elapsed                                                              (!) n/a
    gpc__cycles_elapsed.avg.per_second                                       cycle/usecond                         764.28
    gr__cycles_active.sum.pct_of_peak_sustained_elapsed                                  %                            100
    gr__dispatch_count.avg.pct_of_peak_sustained_elapsed                                                          (!) n/a
    gr__dispatch_cycles_active_queue_async.avg.pct_of_peak_sustained_elaps                                        (!) n/a
    ed                                                                                                                   
    gr__dispatch_cycles_active_queue_sync.avg.pct_of_peak_sustained_elapse                                        (!) n/a
    d                                                                                                                    
    pcie__read_bytes.avg.pct_of_peak_sustained_elapsed                                   %                              0
    pcie__rx_requests_aperture_bar1_op_read.sum                                                                   (!) n/a
    pcie__rx_requests_aperture_bar1_op_write.sum                                                                  (!) n/a
    pcie__write_bytes.avg.pct_of_peak_sustained_elapsed                                  %                           0.34
    sm__cycles_active.avg.pct_of_peak_sustained_elapsed                                  %                           0.90
    sm__inst_executed_realtime.avg.pct_of_peak_sustained_elapsed                                                  (!) n/a
    sm__pipe_shared_cycles_active_realtime.avg.pct_of_peak_sustained_elaps               %                              0
    ed                                                                                                                   
    sm__pipe_tensor_cycles_active_realtime.avg.pct_of_peak_sustained_elaps                                        (!) n/a
    ed                                                                                                                   
    sys__cycles_elapsed.avg.per_second                                       cycle/usecond                         734.30
    tpc__warps_active_shader_cs_realtime.avg.pct_of_peak_sustained_elapsed               %                           0.01
    tpc__warps_active_shader_ps_realtime.avg.pct_of_peak_sustained_elapsed                                        (!) n/a
    tpc__warps_active_shader_vtg_realtime.avg.pct_of_peak_sustained_elapse                                        (!) n/a
    d                                                                                                                    
    tpc__warps_inactive_sm_active_realtime.avg.pct_of_peak_sustained_elaps                                        (!) n/a
    ed                                                                                                                   
    tpc__warps_inactive_sm_idle_realtime.avg.pct_of_peak_sustained_elapsed                                        (!) n/a
    ---------------------------------------------------------------------- --------------- ------------------------------

  init_cam(camera**, unsigned int, unsigned int, unsigned int, unsigned int), 2023-Feb-26 05:27:02, Context 1, Stream 7
    Section: Command line profiler metrics
    ---------------------------------------------------------------------- --------------- ------------------------------
    dram__throughput.avg.pct_of_peak_sustained_elapsed                                   %                           0.03
    fe__draw_count.avg.pct_of_peak_sustained_elapsed                                                              (!) n/a
    gpc__cycles_elapsed.avg.per_second                                       cycle/usecond                         764.46
    gr__cycles_active.sum.pct_of_peak_sustained_elapsed                                  %                            100
    gr__dispatch_count.avg.pct_of_peak_sustained_elapsed                                                          (!) n/a
    gr__dispatch_cycles_active_queue_async.avg.pct_of_peak_sustained_elaps                                        (!) n/a
    ed                                                                                                                   
    gr__dispatch_cycles_active_queue_sync.avg.pct_of_peak_sustained_elapse                                        (!) n/a
    d                                                                                                                    
    pcie__read_bytes.avg.pct_of_peak_sustained_elapsed                                   %                           0.02
    pcie__rx_requests_aperture_bar1_op_read.sum                                                                   (!) n/a
    pcie__rx_requests_aperture_bar1_op_write.sum                                                                  (!) n/a
    pcie__write_bytes.avg.pct_of_peak_sustained_elapsed                                  %                           0.30
    sm__cycles_active.avg.pct_of_peak_sustained_elapsed                                  %                           0.90
    sm__inst_executed_realtime.avg.pct_of_peak_sustained_elapsed                                                  (!) n/a
    sm__pipe_shared_cycles_active_realtime.avg.pct_of_peak_sustained_elaps               %                              0
    ed                                                                                                                   
    sm__pipe_tensor_cycles_active_realtime.avg.pct_of_peak_sustained_elaps                                        (!) n/a
    ed                                                                                                                   
    sys__cycles_elapsed.avg.per_second                                       cycle/usecond                         734.47
    tpc__warps_active_shader_cs_realtime.avg.pct_of_peak_sustained_elapsed               %                           0.01
    tpc__warps_active_shader_ps_realtime.avg.pct_of_peak_sustained_elapsed                                        (!) n/a
    tpc__warps_active_shader_vtg_realtime.avg.pct_of_peak_sustained_elapse                                        (!) n/a
    d                                                                                                                    
    tpc__warps_inactive_sm_active_realtime.avg.pct_of_peak_sustained_elaps                                        (!) n/a
    ed                                                                                                                   
    tpc__warps_inactive_sm_idle_realtime.avg.pct_of_peak_sustained_elapsed                                        (!) n/a
    ---------------------------------------------------------------------- --------------- ------------------------------

  render(vec3*, int, int, int, camera**, hitable**, curandStateXORWOW*), 2023-Feb-26 05:27:23, Context 1, Stream 7
    Section: Command line profiler metrics
    ---------------------------------------------------------------------- --------------- ------------------------------
    dram__throughput.avg.pct_of_peak_sustained_elapsed                                   %                           0.44
    fe__draw_count.avg.pct_of_peak_sustained_elapsed                                                              (!) n/a
    gpc__cycles_elapsed.avg.per_second                                       cycle/usecond                         764.87
    gr__cycles_active.sum.pct_of_peak_sustained_elapsed                                  %                            100
    gr__dispatch_count.avg.pct_of_peak_sustained_elapsed                                                          (!) n/a
    gr__dispatch_cycles_active_queue_async.avg.pct_of_peak_sustained_elaps                                        (!) n/a
    ed                                                                                                                   
    gr__dispatch_cycles_active_queue_sync.avg.pct_of_peak_sustained_elapse                                        (!) n/a
    d                                                                                                                    
    pcie__read_bytes.avg.pct_of_peak_sustained_elapsed                                   %                           0.00
    pcie__rx_requests_aperture_bar1_op_read.sum                                                                   (!) n/a
    pcie__rx_requests_aperture_bar1_op_write.sum                                                                  (!) n/a
    pcie__write_bytes.avg.pct_of_peak_sustained_elapsed                                  %                           0.00
    sm__cycles_active.avg.pct_of_peak_sustained_elapsed                                  %                          81.34
    sm__inst_executed_realtime.avg.pct_of_peak_sustained_elapsed                                                  (!) n/a
    sm__pipe_shared_cycles_active_realtime.avg.pct_of_peak_sustained_elaps               %                              0
    ed                                                                                                                   
    sm__pipe_tensor_cycles_active_realtime.avg.pct_of_peak_sustained_elaps                                        (!) n/a
    ed                                                                                                                   
    sys__cycles_elapsed.avg.per_second                                       cycle/usecond                         734.87
    tpc__warps_active_shader_cs_realtime.avg.pct_of_peak_sustained_elapsed               %                          29.66
    tpc__warps_active_shader_ps_realtime.avg.pct_of_peak_sustained_elapsed                                        (!) n/a
    tpc__warps_active_shader_vtg_realtime.avg.pct_of_peak_sustained_elapse                                        (!) n/a
    d                                                                                                                    
    tpc__warps_inactive_sm_active_realtime.avg.pct_of_peak_sustained_elaps                                        (!) n/a
    ed                                                                                                                   
    tpc__warps_inactive_sm_idle_realtime.avg.pct_of_peak_sustained_elapsed                                        (!) n/a
    ---------------------------------------------------------------------- --------------- ------------------------------

  delete_cam(camera**), 2023-Feb-26 05:27:23, Context 1, Stream 7
    Section: Command line profiler metrics
    ---------------------------------------------------------------------- --------------- ------------------------------
    dram__throughput.avg.pct_of_peak_sustained_elapsed                                   %                           0.02
    fe__draw_count.avg.pct_of_peak_sustained_elapsed                                                              (!) n/a
    gpc__cycles_elapsed.avg.per_second                                       cycle/usecond                         764.36
    gr__cycles_active.sum.pct_of_peak_sustained_elapsed                                  %                            100
    gr__dispatch_count.avg.pct_of_peak_sustained_elapsed                                                          (!) n/a
    gr__dispatch_cycles_active_queue_async.avg.pct_of_peak_sustained_elaps                                        (!) n/a
    ed                                                                                                                   
    gr__dispatch_cycles_active_queue_sync.avg.pct_of_peak_sustained_elapse                                        (!) n/a
    d                                                                                                                    
    pcie__read_bytes.avg.pct_of_peak_sustained_elapsed                                   %                           0.05
    pcie__rx_requests_aperture_bar1_op_read.sum                                                                   (!) n/a
    pcie__rx_requests_aperture_bar1_op_write.sum                                                                  (!) n/a
    pcie__write_bytes.avg.pct_of_peak_sustained_elapsed                                  %                           0.34
    sm__cycles_active.avg.pct_of_peak_sustained_elapsed                                  %                           0.90
    sm__inst_executed_realtime.avg.pct_of_peak_sustained_elapsed                                                  (!) n/a
    sm__pipe_shared_cycles_active_realtime.avg.pct_of_peak_sustained_elaps               %                              0
    ed                                                                                                                   
    sm__pipe_tensor_cycles_active_realtime.avg.pct_of_peak_sustained_elaps                                        (!) n/a
    ed                                                                                                                   
    sys__cycles_elapsed.avg.per_second                                       cycle/usecond                         734.39
    tpc__warps_active_shader_cs_realtime.avg.pct_of_peak_sustained_elapsed               %                           0.01
    tpc__warps_active_shader_ps_realtime.avg.pct_of_peak_sustained_elapsed                                        (!) n/a
    tpc__warps_active_shader_vtg_realtime.avg.pct_of_peak_sustained_elapse                                        (!) n/a
    d                                                                                                                    
    tpc__warps_inactive_sm_active_realtime.avg.pct_of_peak_sustained_elaps                                        (!) n/a
    ed                                                                                                                   
    tpc__warps_inactive_sm_idle_realtime.avg.pct_of_peak_sustained_elapsed                                        (!) n/a
    ---------------------------------------------------------------------- --------------- ------------------------------

  init_cam(camera**, unsigned int, unsigned int, unsigned int, unsigned int), 2023-Feb-26 05:27:23, Context 1, Stream 7
    Section: Command line profiler metrics
    ---------------------------------------------------------------------- --------------- ------------------------------
    dram__throughput.avg.pct_of_peak_sustained_elapsed                                   %                           0.03
    fe__draw_count.avg.pct_of_peak_sustained_elapsed                                                              (!) n/a
    gpc__cycles_elapsed.avg.per_second                                       cycle/usecond                         764.48
    gr__cycles_active.sum.pct_of_peak_sustained_elapsed                                  %                            100
    gr__dispatch_count.avg.pct_of_peak_sustained_elapsed                                                          (!) n/a
    gr__dispatch_cycles_active_queue_async.avg.pct_of_peak_sustained_elaps                                        (!) n/a
    ed                                                                                                                   
    gr__dispatch_cycles_active_queue_sync.avg.pct_of_peak_sustained_elapse                                        (!) n/a
    d                                                                                                                    
    pcie__read_bytes.avg.pct_of_peak_sustained_elapsed                                   %                           0.02
    pcie__rx_requests_aperture_bar1_op_read.sum                                                                   (!) n/a
    pcie__rx_requests_aperture_bar1_op_write.sum                                                                  (!) n/a
    pcie__write_bytes.avg.pct_of_peak_sustained_elapsed                                  %                           0.30
    sm__cycles_active.avg.pct_of_peak_sustained_elapsed                                  %                           0.90
    sm__inst_executed_realtime.avg.pct_of_peak_sustained_elapsed                                                  (!) n/a
    sm__pipe_shared_cycles_active_realtime.avg.pct_of_peak_sustained_elaps               %                              0
    ed                                                                                                                   
    sm__pipe_tensor_cycles_active_realtime.avg.pct_of_peak_sustained_elaps                                        (!) n/a
    ed                                                                                                                   
    sys__cycles_elapsed.avg.per_second                                       cycle/usecond                         734.50
    tpc__warps_active_shader_cs_realtime.avg.pct_of_peak_sustained_elapsed               %                           0.01
    tpc__warps_active_shader_ps_realtime.avg.pct_of_peak_sustained_elapsed                                        (!) n/a
    tpc__warps_active_shader_vtg_realtime.avg.pct_of_peak_sustained_elapse                                        (!) n/a
    d                                                                                                                    
    tpc__warps_inactive_sm_active_realtime.avg.pct_of_peak_sustained_elaps                                        (!) n/a
    ed                                                                                                                   
    tpc__warps_inactive_sm_idle_realtime.avg.pct_of_peak_sustained_elapsed                                        (!) n/a
    ---------------------------------------------------------------------- --------------- ------------------------------

  render(vec3*, int, int, int, camera**, hitable**, curandStateXORWOW*), 2023-Feb-26 05:27:45, Context 1, Stream 7
    Section: Command line profiler metrics
    ---------------------------------------------------------------------- --------------- ------------------------------
    dram__throughput.avg.pct_of_peak_sustained_elapsed                                   %                           0.41
    fe__draw_count.avg.pct_of_peak_sustained_elapsed                                                              (!) n/a
    gpc__cycles_elapsed.avg.per_second                                       cycle/usecond                         764.87
    gr__cycles_active.sum.pct_of_peak_sustained_elapsed                                  %                            100
    gr__dispatch_count.avg.pct_of_peak_sustained_elapsed                                                          (!) n/a
    gr__dispatch_cycles_active_queue_async.avg.pct_of_peak_sustained_elaps                                        (!) n/a
    ed                                                                                                                   
    gr__dispatch_cycles_active_queue_sync.avg.pct_of_peak_sustained_elapse                                        (!) n/a
    d                                                                                                                    
    pcie__read_bytes.avg.pct_of_peak_sustained_elapsed                                   %                           0.00
    pcie__rx_requests_aperture_bar1_op_read.sum                                                                   (!) n/a
    pcie__rx_requests_aperture_bar1_op_write.sum                                                                  (!) n/a
    pcie__write_bytes.avg.pct_of_peak_sustained_elapsed                                  %                           0.00
    sm__cycles_active.avg.pct_of_peak_sustained_elapsed                                  %                          78.43
    sm__inst_executed_realtime.avg.pct_of_peak_sustained_elapsed                                                  (!) n/a
    sm__pipe_shared_cycles_active_realtime.avg.pct_of_peak_sustained_elaps               %                              0
    ed                                                                                                                   
    sm__pipe_tensor_cycles_active_realtime.avg.pct_of_peak_sustained_elaps                                        (!) n/a
    ed                                                                                                                   
    sys__cycles_elapsed.avg.per_second                                       cycle/usecond                         734.88
    tpc__warps_active_shader_cs_realtime.avg.pct_of_peak_sustained_elapsed               %                          28.73
    tpc__warps_active_shader_ps_realtime.avg.pct_of_peak_sustained_elapsed                                        (!) n/a
    tpc__warps_active_shader_vtg_realtime.avg.pct_of_peak_sustained_elapse                                        (!) n/a
    d                                                                                                                    
    tpc__warps_inactive_sm_active_realtime.avg.pct_of_peak_sustained_elaps                                        (!) n/a
    ed                                                                                                                   
    tpc__warps_inactive_sm_idle_realtime.avg.pct_of_peak_sustained_elapsed                                        (!) n/a
    ---------------------------------------------------------------------- --------------- ------------------------------

  delete_cam(camera**), 2023-Feb-26 05:27:45, Context 1, Stream 7
    Section: Command line profiler metrics
    ---------------------------------------------------------------------- --------------- ------------------------------
    dram__throughput.avg.pct_of_peak_sustained_elapsed                                   %                           0.02
    fe__draw_count.avg.pct_of_peak_sustained_elapsed                                                              (!) n/a
    gpc__cycles_elapsed.avg.per_second                                       cycle/usecond                         764.37
    gr__cycles_active.sum.pct_of_peak_sustained_elapsed                                  %                            100
    gr__dispatch_count.avg.pct_of_peak_sustained_elapsed                                                          (!) n/a
    gr__dispatch_cycles_active_queue_async.avg.pct_of_peak_sustained_elaps                                        (!) n/a
    ed                                                                                                                   
    gr__dispatch_cycles_active_queue_sync.avg.pct_of_peak_sustained_elapse                                        (!) n/a
    d                                                                                                                    
    pcie__read_bytes.avg.pct_of_peak_sustained_elapsed                                   %                           0.05
    pcie__rx_requests_aperture_bar1_op_read.sum                                                                   (!) n/a
    pcie__rx_requests_aperture_bar1_op_write.sum                                                                  (!) n/a
    pcie__write_bytes.avg.pct_of_peak_sustained_elapsed                                  %                           0.34
    sm__cycles_active.avg.pct_of_peak_sustained_elapsed                                  %                           0.90
    sm__inst_executed_realtime.avg.pct_of_peak_sustained_elapsed                                                  (!) n/a
    sm__pipe_shared_cycles_active_realtime.avg.pct_of_peak_sustained_elaps               %                              0
    ed                                                                                                                   
    sm__pipe_tensor_cycles_active_realtime.avg.pct_of_peak_sustained_elaps                                        (!) n/a
    ed                                                                                                                   
    sys__cycles_elapsed.avg.per_second                                       cycle/usecond                         734.38
    tpc__warps_active_shader_cs_realtime.avg.pct_of_peak_sustained_elapsed               %                           0.01
    tpc__warps_active_shader_ps_realtime.avg.pct_of_peak_sustained_elapsed                                        (!) n/a
    tpc__warps_active_shader_vtg_realtime.avg.pct_of_peak_sustained_elapse                                        (!) n/a
    d                                                                                                                    
    tpc__warps_inactive_sm_active_realtime.avg.pct_of_peak_sustained_elaps                                        (!) n/a
    ed                                                                                                                   
    tpc__warps_inactive_sm_idle_realtime.avg.pct_of_peak_sustained_elapsed                                        (!) n/a
    ---------------------------------------------------------------------- --------------- ------------------------------

  init_cam(camera**, unsigned int, unsigned int, unsigned int, unsigned int), 2023-Feb-26 05:27:45, Context 1, Stream 7
    Section: Command line profiler metrics
    ---------------------------------------------------------------------- --------------- ------------------------------
    dram__throughput.avg.pct_of_peak_sustained_elapsed                                   %                           0.03
    fe__draw_count.avg.pct_of_peak_sustained_elapsed                                                              (!) n/a
    gpc__cycles_elapsed.avg.per_second                                       cycle/usecond                         764.57
    gr__cycles_active.sum.pct_of_peak_sustained_elapsed                                  %                            100
    gr__dispatch_count.avg.pct_of_peak_sustained_elapsed                                                          (!) n/a
    gr__dispatch_cycles_active_queue_async.avg.pct_of_peak_sustained_elaps                                        (!) n/a
    ed                                                                                                                   
    gr__dispatch_cycles_active_queue_sync.avg.pct_of_peak_sustained_elapse                                        (!) n/a
    d                                                                                                                    
    pcie__read_bytes.avg.pct_of_peak_sustained_elapsed                                   %                              0
    pcie__rx_requests_aperture_bar1_op_read.sum                                                                   (!) n/a
    pcie__rx_requests_aperture_bar1_op_write.sum                                                                  (!) n/a
    pcie__write_bytes.avg.pct_of_peak_sustained_elapsed                                  %                           0.28
    sm__cycles_active.avg.pct_of_peak_sustained_elapsed                                  %                           0.90
    sm__inst_executed_realtime.avg.pct_of_peak_sustained_elapsed                                                  (!) n/a
    sm__pipe_shared_cycles_active_realtime.avg.pct_of_peak_sustained_elaps               %                              0
    ed                                                                                                                   
    sm__pipe_tensor_cycles_active_realtime.avg.pct_of_peak_sustained_elaps                                        (!) n/a
    ed                                                                                                                   
    sys__cycles_elapsed.avg.per_second                                       cycle/usecond                         734.59
    tpc__warps_active_shader_cs_realtime.avg.pct_of_peak_sustained_elapsed               %                           0.01
    tpc__warps_active_shader_ps_realtime.avg.pct_of_peak_sustained_elapsed                                        (!) n/a
    tpc__warps_active_shader_vtg_realtime.avg.pct_of_peak_sustained_elapse                                        (!) n/a
    d                                                                                                                    
    tpc__warps_inactive_sm_active_realtime.avg.pct_of_peak_sustained_elaps                                        (!) n/a
    ed                                                                                                                   
    tpc__warps_inactive_sm_idle_realtime.avg.pct_of_peak_sustained_elapsed                                        (!) n/a
    ---------------------------------------------------------------------- --------------- ------------------------------

  render(vec3*, int, int, int, camera**, hitable**, curandStateXORWOW*), 2023-Feb-26 05:28:05, Context 1, Stream 7
    Section: Command line profiler metrics
    ---------------------------------------------------------------------- --------------- ------------------------------
    dram__throughput.avg.pct_of_peak_sustained_elapsed                                   %                           0.44
    fe__draw_count.avg.pct_of_peak_sustained_elapsed                                                              (!) n/a
    gpc__cycles_elapsed.avg.per_second                                       cycle/usecond                         764.87
    gr__cycles_active.sum.pct_of_peak_sustained_elapsed                                  %                            100
    gr__dispatch_count.avg.pct_of_peak_sustained_elapsed                                                          (!) n/a
    gr__dispatch_cycles_active_queue_async.avg.pct_of_peak_sustained_elaps                                        (!) n/a
    ed                                                                                                                   
    gr__dispatch_cycles_active_queue_sync.avg.pct_of_peak_sustained_elapse                                        (!) n/a
    d                                                                                                                    
    pcie__read_bytes.avg.pct_of_peak_sustained_elapsed                                   %                           0.00
    pcie__rx_requests_aperture_bar1_op_read.sum                                                                   (!) n/a
    pcie__rx_requests_aperture_bar1_op_write.sum                                                                  (!) n/a
    pcie__write_bytes.avg.pct_of_peak_sustained_elapsed                                  %                           0.00
    sm__cycles_active.avg.pct_of_peak_sustained_elapsed                                  %                          81.98
    sm__inst_executed_realtime.avg.pct_of_peak_sustained_elapsed                                                  (!) n/a
    sm__pipe_shared_cycles_active_realtime.avg.pct_of_peak_sustained_elaps               %                              0
    ed                                                                                                                   
    sm__pipe_tensor_cycles_active_realtime.avg.pct_of_peak_sustained_elaps                                        (!) n/a
    ed                                                                                                                   
    sys__cycles_elapsed.avg.per_second                                       cycle/usecond                         734.87
    tpc__warps_active_shader_cs_realtime.avg.pct_of_peak_sustained_elapsed               %                          29.64
    tpc__warps_active_shader_ps_realtime.avg.pct_of_peak_sustained_elapsed                                        (!) n/a
    tpc__warps_active_shader_vtg_realtime.avg.pct_of_peak_sustained_elapse                                        (!) n/a
    d                                                                                                                    
    tpc__warps_inactive_sm_active_realtime.avg.pct_of_peak_sustained_elaps                                        (!) n/a
    ed                                                                                                                   
    tpc__warps_inactive_sm_idle_realtime.avg.pct_of_peak_sustained_elapsed                                        (!) n/a
    ---------------------------------------------------------------------- --------------- ------------------------------

  delete_cam(camera**), 2023-Feb-26 05:28:05, Context 1, Stream 7
    Section: Command line profiler metrics
    ---------------------------------------------------------------------- --------------- ------------------------------
    dram__throughput.avg.pct_of_peak_sustained_elapsed                                   %                           0.02
    fe__draw_count.avg.pct_of_peak_sustained_elapsed                                                              (!) n/a
    gpc__cycles_elapsed.avg.per_second                                       cycle/usecond                         764.39
    gr__cycles_active.sum.pct_of_peak_sustained_elapsed                                  %                            100
    gr__dispatch_count.avg.pct_of_peak_sustained_elapsed                                                          (!) n/a
    gr__dispatch_cycles_active_queue_async.avg.pct_of_peak_sustained_elaps                                        (!) n/a
    ed                                                                                                                   
    gr__dispatch_cycles_active_queue_sync.avg.pct_of_peak_sustained_elapse                                        (!) n/a
    d                                                                                                                    
    pcie__read_bytes.avg.pct_of_peak_sustained_elapsed                                   %                              0
    pcie__rx_requests_aperture_bar1_op_read.sum                                                                   (!) n/a
    pcie__rx_requests_aperture_bar1_op_write.sum                                                                  (!) n/a
    pcie__write_bytes.avg.pct_of_peak_sustained_elapsed                                  %                           0.34
    sm__cycles_active.avg.pct_of_peak_sustained_elapsed                                  %                           0.90
    sm__inst_executed_realtime.avg.pct_of_peak_sustained_elapsed                                                  (!) n/a
    sm__pipe_shared_cycles_active_realtime.avg.pct_of_peak_sustained_elaps               %                              0
    ed                                                                                                                   
    sm__pipe_tensor_cycles_active_realtime.avg.pct_of_peak_sustained_elaps                                        (!) n/a
    ed                                                                                                                   
    sys__cycles_elapsed.avg.per_second                                       cycle/usecond                         734.42
    tpc__warps_active_shader_cs_realtime.avg.pct_of_peak_sustained_elapsed               %                           0.01
    tpc__warps_active_shader_ps_realtime.avg.pct_of_peak_sustained_elapsed                                        (!) n/a
    tpc__warps_active_shader_vtg_realtime.avg.pct_of_peak_sustained_elapse                                        (!) n/a
    d                                                                                                                    
    tpc__warps_inactive_sm_active_realtime.avg.pct_of_peak_sustained_elaps                                        (!) n/a
    ed                                                                                                                   
    tpc__warps_inactive_sm_idle_realtime.avg.pct_of_peak_sustained_elapsed                                        (!) n/a
    ---------------------------------------------------------------------- --------------- ------------------------------

  init_cam(camera**, unsigned int, unsigned int, unsigned int, unsigned int), 2023-Feb-26 05:28:06, Context 1, Stream 7
    Section: Command line profiler metrics
    ---------------------------------------------------------------------- --------------- ------------------------------
    dram__throughput.avg.pct_of_peak_sustained_elapsed                                   %                           0.03
    fe__draw_count.avg.pct_of_peak_sustained_elapsed                                                              (!) n/a
    gpc__cycles_elapsed.avg.per_second                                       cycle/usecond                         764.50
    gr__cycles_active.sum.pct_of_peak_sustained_elapsed                                  %                            100
    gr__dispatch_count.avg.pct_of_peak_sustained_elapsed                                                          (!) n/a
    gr__dispatch_cycles_active_queue_async.avg.pct_of_peak_sustained_elaps                                        (!) n/a
    ed                                                                                                                   
    gr__dispatch_cycles_active_queue_sync.avg.pct_of_peak_sustained_elapse                                        (!) n/a
    d                                                                                                                    
    pcie__read_bytes.avg.pct_of_peak_sustained_elapsed                                   %                           0.02
    pcie__rx_requests_aperture_bar1_op_read.sum                                                                   (!) n/a
    pcie__rx_requests_aperture_bar1_op_write.sum                                                                  (!) n/a
    pcie__write_bytes.avg.pct_of_peak_sustained_elapsed                                  %                           0.30
    sm__cycles_active.avg.pct_of_peak_sustained_elapsed                                  %                           0.90
    sm__inst_executed_realtime.avg.pct_of_peak_sustained_elapsed                                                  (!) n/a
    sm__pipe_shared_cycles_active_realtime.avg.pct_of_peak_sustained_elaps               %                              0
    ed                                                                                                                   
    sm__pipe_tensor_cycles_active_realtime.avg.pct_of_peak_sustained_elaps                                        (!) n/a
    ed                                                                                                                   
    sys__cycles_elapsed.avg.per_second                                       cycle/usecond                         734.50
    tpc__warps_active_shader_cs_realtime.avg.pct_of_peak_sustained_elapsed               %                           0.01
    tpc__warps_active_shader_ps_realtime.avg.pct_of_peak_sustained_elapsed                                        (!) n/a
    tpc__warps_active_shader_vtg_realtime.avg.pct_of_peak_sustained_elapse                                        (!) n/a
    d                                                                                                                    
    tpc__warps_inactive_sm_active_realtime.avg.pct_of_peak_sustained_elaps                                        (!) n/a
    ed                                                                                                                   
    tpc__warps_inactive_sm_idle_realtime.avg.pct_of_peak_sustained_elapsed                                        (!) n/a
    ---------------------------------------------------------------------- --------------- ------------------------------

  render(vec3*, int, int, int, camera**, hitable**, curandStateXORWOW*), 2023-Feb-26 05:28:26, Context 1, Stream 7
    Section: Command line profiler metrics
    ---------------------------------------------------------------------- --------------- ------------------------------
    dram__throughput.avg.pct_of_peak_sustained_elapsed                                   %                           0.45
    fe__draw_count.avg.pct_of_peak_sustained_elapsed                                                              (!) n/a
    gpc__cycles_elapsed.avg.per_second                                       cycle/usecond                         764.91
    gr__cycles_active.sum.pct_of_peak_sustained_elapsed                                  %                            100
    gr__dispatch_count.avg.pct_of_peak_sustained_elapsed                                                          (!) n/a
    gr__dispatch_cycles_active_queue_async.avg.pct_of_peak_sustained_elaps                                        (!) n/a
    ed                                                                                                                   
    gr__dispatch_cycles_active_queue_sync.avg.pct_of_peak_sustained_elapse                                        (!) n/a
    d                                                                                                                    
    pcie__read_bytes.avg.pct_of_peak_sustained_elapsed                                   %                           0.00
    pcie__rx_requests_aperture_bar1_op_read.sum                                                                   (!) n/a
    pcie__rx_requests_aperture_bar1_op_write.sum                                                                  (!) n/a
    pcie__write_bytes.avg.pct_of_peak_sustained_elapsed                                  %                           0.00
    sm__cycles_active.avg.pct_of_peak_sustained_elapsed                                  %                          81.54
    sm__inst_executed_realtime.avg.pct_of_peak_sustained_elapsed                                                  (!) n/a
    sm__pipe_shared_cycles_active_realtime.avg.pct_of_peak_sustained_elaps               %                              0
    ed                                                                                                                   
    sm__pipe_tensor_cycles_active_realtime.avg.pct_of_peak_sustained_elaps                                        (!) n/a
    ed                                                                                                                   
    sys__cycles_elapsed.avg.per_second                                       cycle/usecond                         734.92
    tpc__warps_active_shader_cs_realtime.avg.pct_of_peak_sustained_elapsed               %                          30.04
    tpc__warps_active_shader_ps_realtime.avg.pct_of_peak_sustained_elapsed                                        (!) n/a
    tpc__warps_active_shader_vtg_realtime.avg.pct_of_peak_sustained_elapse                                        (!) n/a
    d                                                                                                                    
    tpc__warps_inactive_sm_active_realtime.avg.pct_of_peak_sustained_elaps                                        (!) n/a
    ed                                                                                                                   
    tpc__warps_inactive_sm_idle_realtime.avg.pct_of_peak_sustained_elapsed                                        (!) n/a
    ---------------------------------------------------------------------- --------------- ------------------------------

  delete_cam(camera**), 2023-Feb-26 05:28:26, Context 1, Stream 7
    Section: Command line profiler metrics
    ---------------------------------------------------------------------- --------------- ------------------------------
    dram__throughput.avg.pct_of_peak_sustained_elapsed                                   %                           0.02
    fe__draw_count.avg.pct_of_peak_sustained_elapsed                                                              (!) n/a
    gpc__cycles_elapsed.avg.per_second                                       cycle/usecond                         764.42
    gr__cycles_active.sum.pct_of_peak_sustained_elapsed                                  %                            100
    gr__dispatch_count.avg.pct_of_peak_sustained_elapsed                                                          (!) n/a
    gr__dispatch_cycles_active_queue_async.avg.pct_of_peak_sustained_elaps                                        (!) n/a
    ed                                                                                                                   
    gr__dispatch_cycles_active_queue_sync.avg.pct_of_peak_sustained_elapse                                        (!) n/a
    d                                                                                                                    
    pcie__read_bytes.avg.pct_of_peak_sustained_elapsed                                   %                              0
    pcie__rx_requests_aperture_bar1_op_read.sum                                                                   (!) n/a
    pcie__rx_requests_aperture_bar1_op_write.sum                                                                  (!) n/a
    pcie__write_bytes.avg.pct_of_peak_sustained_elapsed                                  %                           0.32
    sm__cycles_active.avg.pct_of_peak_sustained_elapsed                                  %                           0.90
    sm__inst_executed_realtime.avg.pct_of_peak_sustained_elapsed                                                  (!) n/a
    sm__pipe_shared_cycles_active_realtime.avg.pct_of_peak_sustained_elaps               %                              0
    ed                                                                                                                   
    sm__pipe_tensor_cycles_active_realtime.avg.pct_of_peak_sustained_elaps                                        (!) n/a
    ed                                                                                                                   
    sys__cycles_elapsed.avg.per_second                                       cycle/usecond                         734.46
    tpc__warps_active_shader_cs_realtime.avg.pct_of_peak_sustained_elapsed               %                           0.01
    tpc__warps_active_shader_ps_realtime.avg.pct_of_peak_sustained_elapsed                                        (!) n/a
    tpc__warps_active_shader_vtg_realtime.avg.pct_of_peak_sustained_elapse                                        (!) n/a
    d                                                                                                                    
    tpc__warps_inactive_sm_active_realtime.avg.pct_of_peak_sustained_elaps                                        (!) n/a
    ed                                                                                                                   
    tpc__warps_inactive_sm_idle_realtime.avg.pct_of_peak_sustained_elapsed                                        (!) n/a
    ---------------------------------------------------------------------- --------------- ------------------------------

  init_cam(camera**, unsigned int, unsigned int, unsigned int, unsigned int), 2023-Feb-26 05:28:26, Context 1, Stream 7
    Section: Command line profiler metrics
    ---------------------------------------------------------------------- --------------- ------------------------------
    dram__throughput.avg.pct_of_peak_sustained_elapsed                                   %                           0.03
    fe__draw_count.avg.pct_of_peak_sustained_elapsed                                                              (!) n/a
    gpc__cycles_elapsed.avg.per_second                                       cycle/usecond                         764.29
    gr__cycles_active.sum.pct_of_peak_sustained_elapsed                                  %                            100
    gr__dispatch_count.avg.pct_of_peak_sustained_elapsed                                                          (!) n/a
    gr__dispatch_cycles_active_queue_async.avg.pct_of_peak_sustained_elaps                                        (!) n/a
    ed                                                                                                                   
    gr__dispatch_cycles_active_queue_sync.avg.pct_of_peak_sustained_elapse                                        (!) n/a
    d                                                                                                                    
    pcie__read_bytes.avg.pct_of_peak_sustained_elapsed                                   %                           0.02
    pcie__rx_requests_aperture_bar1_op_read.sum                                                                   (!) n/a
    pcie__rx_requests_aperture_bar1_op_write.sum                                                                  (!) n/a
    pcie__write_bytes.avg.pct_of_peak_sustained_elapsed                                  %                           0.27
    sm__cycles_active.avg.pct_of_peak_sustained_elapsed                                  %                           0.90
    sm__inst_executed_realtime.avg.pct_of_peak_sustained_elapsed                                                  (!) n/a
    sm__pipe_shared_cycles_active_realtime.avg.pct_of_peak_sustained_elaps               %                              0
    ed                                                                                                                   
    sm__pipe_tensor_cycles_active_realtime.avg.pct_of_peak_sustained_elaps                                        (!) n/a
    ed                                                                                                                   
    sys__cycles_elapsed.avg.per_second                                       cycle/usecond                         734.33
    tpc__warps_active_shader_cs_realtime.avg.pct_of_peak_sustained_elapsed               %                           0.01
    tpc__warps_active_shader_ps_realtime.avg.pct_of_peak_sustained_elapsed                                        (!) n/a
    tpc__warps_active_shader_vtg_realtime.avg.pct_of_peak_sustained_elapse                                        (!) n/a
    d                                                                                                                    
    tpc__warps_inactive_sm_active_realtime.avg.pct_of_peak_sustained_elaps                                        (!) n/a
    ed                                                                                                                   
    tpc__warps_inactive_sm_idle_realtime.avg.pct_of_peak_sustained_elapsed                                        (!) n/a
    ---------------------------------------------------------------------- --------------- ------------------------------

  render(vec3*, int, int, int, camera**, hitable**, curandStateXORWOW*), 2023-Feb-26 05:28:48, Context 1, Stream 7
    Section: Command line profiler metrics
    ---------------------------------------------------------------------- --------------- ------------------------------
    dram__throughput.avg.pct_of_peak_sustained_elapsed                                   %                           0.44
    fe__draw_count.avg.pct_of_peak_sustained_elapsed                                                              (!) n/a
    gpc__cycles_elapsed.avg.per_second                                       cycle/usecond                         764.87
    gr__cycles_active.sum.pct_of_peak_sustained_elapsed                                  %                            100
    gr__dispatch_count.avg.pct_of_peak_sustained_elapsed                                                          (!) n/a
    gr__dispatch_cycles_active_queue_async.avg.pct_of_peak_sustained_elaps                                        (!) n/a
    ed                                                                                                                   
    gr__dispatch_cycles_active_queue_sync.avg.pct_of_peak_sustained_elapse                                        (!) n/a
    d                                                                                                                    
    pcie__read_bytes.avg.pct_of_peak_sustained_elapsed                                   %                           0.00
    pcie__rx_requests_aperture_bar1_op_read.sum                                                                   (!) n/a
    pcie__rx_requests_aperture_bar1_op_write.sum                                                                  (!) n/a
    pcie__write_bytes.avg.pct_of_peak_sustained_elapsed                                  %                           0.00
    sm__cycles_active.avg.pct_of_peak_sustained_elapsed                                  %                          78.67
    sm__inst_executed_realtime.avg.pct_of_peak_sustained_elapsed                                                  (!) n/a
    sm__pipe_shared_cycles_active_realtime.avg.pct_of_peak_sustained_elaps               %                              0
    ed                                                                                                                   
    sm__pipe_tensor_cycles_active_realtime.avg.pct_of_peak_sustained_elaps                                        (!) n/a
    ed                                                                                                                   
    sys__cycles_elapsed.avg.per_second                                       cycle/usecond                         734.88
    tpc__warps_active_shader_cs_realtime.avg.pct_of_peak_sustained_elapsed               %                          29.16
    tpc__warps_active_shader_ps_realtime.avg.pct_of_peak_sustained_elapsed                                        (!) n/a
    tpc__warps_active_shader_vtg_realtime.avg.pct_of_peak_sustained_elapse                                        (!) n/a
    d                                                                                                                    
    tpc__warps_inactive_sm_active_realtime.avg.pct_of_peak_sustained_elaps                                        (!) n/a
    ed                                                                                                                   
    tpc__warps_inactive_sm_idle_realtime.avg.pct_of_peak_sustained_elapsed                                        (!) n/a
    ---------------------------------------------------------------------- --------------- ------------------------------

  delete_cam(camera**), 2023-Feb-26 05:28:48, Context 1, Stream 7
    Section: Command line profiler metrics
    ---------------------------------------------------------------------- --------------- ------------------------------
    dram__throughput.avg.pct_of_peak_sustained_elapsed                                   %                           0.02
    fe__draw_count.avg.pct_of_peak_sustained_elapsed                                                              (!) n/a
    gpc__cycles_elapsed.avg.per_second                                       cycle/usecond                         764.26
    gr__cycles_active.sum.pct_of_peak_sustained_elapsed                                  %                            100
    gr__dispatch_count.avg.pct_of_peak_sustained_elapsed                                                          (!) n/a
    gr__dispatch_cycles_active_queue_async.avg.pct_of_peak_sustained_elaps                                        (!) n/a
    ed                                                                                                                   
    gr__dispatch_cycles_active_queue_sync.avg.pct_of_peak_sustained_elapse                                        (!) n/a
    d                                                                                                                    
    pcie__read_bytes.avg.pct_of_peak_sustained_elapsed                                   %                              0
    pcie__rx_requests_aperture_bar1_op_read.sum                                                                   (!) n/a
    pcie__rx_requests_aperture_bar1_op_write.sum                                                                  (!) n/a
    pcie__write_bytes.avg.pct_of_peak_sustained_elapsed                                  %                           0.32
    sm__cycles_active.avg.pct_of_peak_sustained_elapsed                                  %                           0.90
    sm__inst_executed_realtime.avg.pct_of_peak_sustained_elapsed                                                  (!) n/a
    sm__pipe_shared_cycles_active_realtime.avg.pct_of_peak_sustained_elaps               %                              0
    ed                                                                                                                   
    sm__pipe_tensor_cycles_active_realtime.avg.pct_of_peak_sustained_elaps                                        (!) n/a
    ed                                                                                                                   
    sys__cycles_elapsed.avg.per_second                                       cycle/usecond                         734.29
    tpc__warps_active_shader_cs_realtime.avg.pct_of_peak_sustained_elapsed               %                           0.01
    tpc__warps_active_shader_ps_realtime.avg.pct_of_peak_sustained_elapsed                                        (!) n/a
    tpc__warps_active_shader_vtg_realtime.avg.pct_of_peak_sustained_elapse                                        (!) n/a
    d                                                                                                                    
    tpc__warps_inactive_sm_active_realtime.avg.pct_of_peak_sustained_elaps                                        (!) n/a
    ed                                                                                                                   
    tpc__warps_inactive_sm_idle_realtime.avg.pct_of_peak_sustained_elapsed                                        (!) n/a
    ---------------------------------------------------------------------- --------------- ------------------------------

  init_cam(camera**, unsigned int, unsigned int, unsigned int, unsigned int), 2023-Feb-26 05:28:48, Context 1, Stream 7
    Section: Command line profiler metrics
    ---------------------------------------------------------------------- --------------- ------------------------------
    dram__throughput.avg.pct_of_peak_sustained_elapsed                                   %                           0.03
    fe__draw_count.avg.pct_of_peak_sustained_elapsed                                                              (!) n/a
    gpc__cycles_elapsed.avg.per_second                                       cycle/usecond                         764.42
    gr__cycles_active.sum.pct_of_peak_sustained_elapsed                                  %                            100
    gr__dispatch_count.avg.pct_of_peak_sustained_elapsed                                                          (!) n/a
    gr__dispatch_cycles_active_queue_async.avg.pct_of_peak_sustained_elaps                                        (!) n/a
    ed                                                                                                                   
    gr__dispatch_cycles_active_queue_sync.avg.pct_of_peak_sustained_elapse                                        (!) n/a
    d                                                                                                                    
    pcie__read_bytes.avg.pct_of_peak_sustained_elapsed                                   %                           0.02
    pcie__rx_requests_aperture_bar1_op_read.sum                                                                   (!) n/a
    pcie__rx_requests_aperture_bar1_op_write.sum                                                                  (!) n/a
    pcie__write_bytes.avg.pct_of_peak_sustained_elapsed                                  %                           0.27
    sm__cycles_active.avg.pct_of_peak_sustained_elapsed                                  %                           0.90
    sm__inst_executed_realtime.avg.pct_of_peak_sustained_elapsed                                                  (!) n/a
    sm__pipe_shared_cycles_active_realtime.avg.pct_of_peak_sustained_elaps               %                              0
    ed                                                                                                                   
    sm__pipe_tensor_cycles_active_realtime.avg.pct_of_peak_sustained_elaps                                        (!) n/a
    ed                                                                                                                   
    sys__cycles_elapsed.avg.per_second                                       cycle/usecond                         734.43
    tpc__warps_active_shader_cs_realtime.avg.pct_of_peak_sustained_elapsed               %                           0.01
    tpc__warps_active_shader_ps_realtime.avg.pct_of_peak_sustained_elapsed                                        (!) n/a
    tpc__warps_active_shader_vtg_realtime.avg.pct_of_peak_sustained_elapse                                        (!) n/a
    d                                                                                                                    
    tpc__warps_inactive_sm_active_realtime.avg.pct_of_peak_sustained_elaps                                        (!) n/a
    ed                                                                                                                   
    tpc__warps_inactive_sm_idle_realtime.avg.pct_of_peak_sustained_elapsed                                        (!) n/a
    ---------------------------------------------------------------------- --------------- ------------------------------

  render(vec3*, int, int, int, camera**, hitable**, curandStateXORWOW*), 2023-Feb-26 05:29:10, Context 1, Stream 7
    Section: Command line profiler metrics
    ---------------------------------------------------------------------- --------------- ------------------------------
    dram__throughput.avg.pct_of_peak_sustained_elapsed                                   %                           0.43
    fe__draw_count.avg.pct_of_peak_sustained_elapsed                                                              (!) n/a
    gpc__cycles_elapsed.avg.per_second                                       cycle/usecond                         764.88
    gr__cycles_active.sum.pct_of_peak_sustained_elapsed                                  %                            100
    gr__dispatch_count.avg.pct_of_peak_sustained_elapsed                                                          (!) n/a
    gr__dispatch_cycles_active_queue_async.avg.pct_of_peak_sustained_elaps                                        (!) n/a
    ed                                                                                                                   
    gr__dispatch_cycles_active_queue_sync.avg.pct_of_peak_sustained_elapse                                        (!) n/a
    d                                                                                                                    
    pcie__read_bytes.avg.pct_of_peak_sustained_elapsed                                   %                           0.00
    pcie__rx_requests_aperture_bar1_op_read.sum                                                                   (!) n/a
    pcie__rx_requests_aperture_bar1_op_write.sum                                                                  (!) n/a
    pcie__write_bytes.avg.pct_of_peak_sustained_elapsed                                  %                           0.00
    sm__cycles_active.avg.pct_of_peak_sustained_elapsed                                  %                          78.15
    sm__inst_executed_realtime.avg.pct_of_peak_sustained_elapsed                                                  (!) n/a
    sm__pipe_shared_cycles_active_realtime.avg.pct_of_peak_sustained_elaps               %                              0
    ed                                                                                                                   
    sm__pipe_tensor_cycles_active_realtime.avg.pct_of_peak_sustained_elaps                                        (!) n/a
    ed                                                                                                                   
    sys__cycles_elapsed.avg.per_second                                       cycle/usecond                         734.88
    tpc__warps_active_shader_cs_realtime.avg.pct_of_peak_sustained_elapsed               %                          28.81
    tpc__warps_active_shader_ps_realtime.avg.pct_of_peak_sustained_elapsed                                        (!) n/a
    tpc__warps_active_shader_vtg_realtime.avg.pct_of_peak_sustained_elapse                                        (!) n/a
    d                                                                                                                    
    tpc__warps_inactive_sm_active_realtime.avg.pct_of_peak_sustained_elaps                                        (!) n/a
    ed                                                                                                                   
    tpc__warps_inactive_sm_idle_realtime.avg.pct_of_peak_sustained_elapsed                                        (!) n/a
    ---------------------------------------------------------------------- --------------- ------------------------------

  delete_cam(camera**), 2023-Feb-26 05:29:10, Context 1, Stream 7
    Section: Command line profiler metrics
    ---------------------------------------------------------------------- --------------- ------------------------------
    dram__throughput.avg.pct_of_peak_sustained_elapsed                                   %                           0.02
    fe__draw_count.avg.pct_of_peak_sustained_elapsed                                                              (!) n/a
    gpc__cycles_elapsed.avg.per_second                                       cycle/usecond                         764.64
    gr__cycles_active.sum.pct_of_peak_sustained_elapsed                                  %                            100
    gr__dispatch_count.avg.pct_of_peak_sustained_elapsed                                                          (!) n/a
    gr__dispatch_cycles_active_queue_async.avg.pct_of_peak_sustained_elaps                                        (!) n/a
    ed                                                                                                                   
    gr__dispatch_cycles_active_queue_sync.avg.pct_of_peak_sustained_elapse                                        (!) n/a
    d                                                                                                                    
    pcie__read_bytes.avg.pct_of_peak_sustained_elapsed                                   %                              0
    pcie__rx_requests_aperture_bar1_op_read.sum                                                                   (!) n/a
    pcie__rx_requests_aperture_bar1_op_write.sum                                                                  (!) n/a
    pcie__write_bytes.avg.pct_of_peak_sustained_elapsed                                  %                           0.32
    sm__cycles_active.avg.pct_of_peak_sustained_elapsed                                  %                           0.90
    sm__inst_executed_realtime.avg.pct_of_peak_sustained_elapsed                                                  (!) n/a
    sm__pipe_shared_cycles_active_realtime.avg.pct_of_peak_sustained_elaps               %                              0
    ed                                                                                                                   
    sm__pipe_tensor_cycles_active_realtime.avg.pct_of_peak_sustained_elaps                                        (!) n/a
    ed                                                                                                                   
    sys__cycles_elapsed.avg.per_second                                       cycle/usecond                         734.64
    tpc__warps_active_shader_cs_realtime.avg.pct_of_peak_sustained_elapsed               %                           0.01
    tpc__warps_active_shader_ps_realtime.avg.pct_of_peak_sustained_elapsed                                        (!) n/a
    tpc__warps_active_shader_vtg_realtime.avg.pct_of_peak_sustained_elapse                                        (!) n/a
    d                                                                                                                    
    tpc__warps_inactive_sm_active_realtime.avg.pct_of_peak_sustained_elaps                                        (!) n/a
    ed                                                                                                                   
    tpc__warps_inactive_sm_idle_realtime.avg.pct_of_peak_sustained_elapsed                                        (!) n/a
    ---------------------------------------------------------------------- --------------- ------------------------------

  init_cam(camera**, unsigned int, unsigned int, unsigned int, unsigned int), 2023-Feb-26 05:29:10, Context 1, Stream 7
    Section: Command line profiler metrics
    ---------------------------------------------------------------------- --------------- ------------------------------
    dram__throughput.avg.pct_of_peak_sustained_elapsed                                   %                           0.03
    fe__draw_count.avg.pct_of_peak_sustained_elapsed                                                              (!) n/a
    gpc__cycles_elapsed.avg.per_second                                       cycle/usecond                         764.43
    gr__cycles_active.sum.pct_of_peak_sustained_elapsed                                  %                            100
    gr__dispatch_count.avg.pct_of_peak_sustained_elapsed                                                          (!) n/a
    gr__dispatch_cycles_active_queue_async.avg.pct_of_peak_sustained_elaps                                        (!) n/a
    ed                                                                                                                   
    gr__dispatch_cycles_active_queue_sync.avg.pct_of_peak_sustained_elapse                                        (!) n/a
    d                                                                                                                    
    pcie__read_bytes.avg.pct_of_peak_sustained_elapsed                                   %                              0
    pcie__rx_requests_aperture_bar1_op_read.sum                                                                   (!) n/a
    pcie__rx_requests_aperture_bar1_op_write.sum                                                                  (!) n/a
    pcie__write_bytes.avg.pct_of_peak_sustained_elapsed                                  %                           0.27
    sm__cycles_active.avg.pct_of_peak_sustained_elapsed                                  %                           0.90
    sm__inst_executed_realtime.avg.pct_of_peak_sustained_elapsed                                                  (!) n/a
    sm__pipe_shared_cycles_active_realtime.avg.pct_of_peak_sustained_elaps               %                              0
    ed                                                                                                                   
    sm__pipe_tensor_cycles_active_realtime.avg.pct_of_peak_sustained_elaps                                        (!) n/a
    ed                                                                                                                   
    sys__cycles_elapsed.avg.per_second                                       cycle/usecond                         734.45
    tpc__warps_active_shader_cs_realtime.avg.pct_of_peak_sustained_elapsed               %                           0.01
    tpc__warps_active_shader_ps_realtime.avg.pct_of_peak_sustained_elapsed                                        (!) n/a
    tpc__warps_active_shader_vtg_realtime.avg.pct_of_peak_sustained_elapse                                        (!) n/a
    d                                                                                                                    
    tpc__warps_inactive_sm_active_realtime.avg.pct_of_peak_sustained_elaps                                        (!) n/a
    ed                                                                                                                   
    tpc__warps_inactive_sm_idle_realtime.avg.pct_of_peak_sustained_elapsed                                        (!) n/a
    ---------------------------------------------------------------------- --------------- ------------------------------

