wangpeng@rongtian-SYS-7049GP-TRT:~/backup6/GPU-rendering-programs/10-Cuda-ray-shadows-sample1$ nsys profile --stats=true  ./a.out 
Warning: LBR backtrace method is not supported on this platform. DWARF backtrace method will be used.
Collecting data...
Time per frame : 59.4555 seconds
Time per frame : 60.6305 seconds
Time per frame : 60.4817 seconds
Time per frame : 56.3712 seconds
Time per frame : 60.508 seconds
Time per frame : 57.0119 seconds
Time per frame : 58.8823 seconds
Time per frame : 56.4 seconds
Time per frame : 57.1648 seconds
Time per frame : 57.6292 seconds
^CSignal 2 (SIGINT) was forwarded to the target application process group 47289

The target application terminated with signal 2 (SIGINT)
Processing events...
Capturing symbol files...
Saving temporary "/tmp/nsys-report-7a23-9f6a-2220-c15c.qdstrm" file to disk...
Creating final output files...

Processing [==============================================================100%]
Saved report file to "/tmp/nsys-report-7a23-9f6a-2220-c15c.qdrep"
Exporting 116571 events: [================================================100%]

Exported successfully to
/tmp/nsys-report-7a23-9f6a-2220-c15c.sqlite

Generating CUDA API Statistics...
CUDA API Statistics (nanoseconds)




CUDA trace data was not collected.


Generating Operating System Runtime API Statistics...
Operating System Runtime API Statistics (nanoseconds)

Time(%)      Total Time       Calls         Average         Minimum         Maximum  Name                                                                            
-------  --------------  ----------  --------------  --------------  --------------  --------------------------------------------------------------------------------
   88.3   1191718441852       59671      19971484.3           30696       100247411  poll                                                                            
    8.3    111586323624       53145       2099658.0           17813        21195004  sem_timedwait                                                                   
    3.4     46382360903        1563      29675214.9            1034      1399670091  ioctl                                                                           
    0.0         4902504          64         76601.6            1229         4578059  fopen                                                                           
    0.0         2190855          81         27047.6            1162          624207  mmap                                                                            
    0.0         1383702          89         15547.2            5236           26853  open64                                                                          
    0.0          305028          24         12709.5            1159           79162  fread                                                                           
    0.0          160691           3         53563.7           50801           57666  fgets                                                                           
    0.0          147258           4         36814.5           30700           46013  pthread_create                                                                  
    0.0          100701          10         10070.1            6232           23632  putc                                                                            
    0.0           53808          10          5380.8            1648           27787  fwrite                                                                          
    0.0           48486          31          1564.1            1026            2488  fclose                                                                          
    0.0           36002          11          3272.9            2080            4989  write                                                                           
    0.0           28640          13          2203.1            1009            3054  read                                                                            
    0.0           28247           5          5649.4            3344            9057  open                                                                            
    0.0           27974           8          3496.8            1614            7953  munmap                                                                          
    0.0           17440          10          1744.0            1057            3205  fcntl                                                                           
    0.0           16012           1         16012.0           16012           16012  fflush                                                                          
    0.0            8279           2          4139.5            3420            4859  socket                                                                          
    0.0            6219           1          6219.0            6219            6219  connect                                                                         
    0.0            5244           1          5244.0            5244            5244  pipe2                                                                           
    0.0            1011           1          1011.0            1011            1011  bind                                                                            




Generating NVTX Push-Pop Range Statistics...
NVTX Push-Pop Range Statistics (nanoseconds)




Report file moved to "/home/wangpeng/backup6/GPU-rendering-programs/10-Cuda-ray-shadows-sample1/report1.qdrep"
Report file moved to "/home/wangpeng/backup6/GPU-rendering-programs/10-Cuda-ray-shadows-sample1/report1.sqlite"
