wangpeng@dacent:~/tools/Rodinia/cuda/nn$ LD_PRELOAD=/home/wangpeng/tools/gitlab-william/cpu-gpu-raytracing/MICPAT-new/tools/basic_block/basic_block.so  ./run 
/usr/share/modules/init/bash: line 36: eval: --: invalid option
eval: usage: eval [arg ...]
------------- NVBit (NVidia Binary Instrumentation Tool v1.0) Loaded --------------
NVBit core environment variables (mostly for nvbit-devs):
           NOINSPECT = 0 - if set, skips function inspection and instrumentation
            NVDISASM = nvdisasm - override default nvdisasm found in PATH
            NOBANNER = 0 - if set, does not print this banner
---------------------------------------------------------------------------------
        KERNEL_BEGIN = 0 - Beginning of the kernel launch interval where to apply instrumentation
          KERNEL_END = 4294967295 - End of the kernel launch interval where to apply instrumentation
    COUNT_WARP_LEVEL = 1 - Count warp level or thread level instructions
    EXCLUDE_PRED_OFF = 0 - Exclude predicated off instruction from count
        TOOL_VERBOSE = 0 - Enable verbosity inside the tool
----------------------------------------------------------------------------------------------------
inspecting euclid(latLong*, float*, int, float, float) - number basic blocks 11
1988 12 27  0 18 TONY       30.0  89.8  113   39 --> Distance=0.199997
1980 10 22 18  3 ISAAC      30.1  90.4  110  778 --> Distance=0.412312
1997 11 14 12 24 HELENE     30.5  89.8  134  529 --> Distance=0.538515
2003  8 27 12 10 TONY       29.9  89.4  160  286 --> Distance=0.608275
1974 12 22 18 24 JOYCE      30.6  89.9   80  593 --> Distance=0.608276

