Input image size : 1920 x 1440
grainRadius : 0.05
sigmaR : 0
sigmaFilter : 0.8
NmonteCarlo : 800
colour
xA : 0
yA : 0
xB : 1920
yB : 1440
mOut : 1440
nOut : 1920
randomizeSeed : 1
***************************
image size : 1920 x 1440
------------------
muR : 0.05
sigmaR : 0
zoom, s : 1
sigmaFilter : 0.8
NmonteCarlo : 800
xA : 0
yA : 0
xB : 1920
yB : 1440
randomizeSeed : 1
------------------
Output image size is 1920 x 1440
==PROF== Connected to process 3630 (/home/test/tools/backup6/GPU-rendering-programs/34-Film-grain-rendering-gpu-sample2/bin/film_grain_rendering_main)
blocks.x : 69
blocks.y : 52
blocks.z : 1
==PROF== Profiling "kernel" - 1: 0%....50%....100% - 13 passes
Time to generate:  372176.3 ms; Framerate: 0.00 images/sec
image size : 1920 x 1440
------------------
muR : 0.05
sigmaR : 0
zoom, s : 1
sigmaFilter : 0.8
NmonteCarlo : 800
xA : 0
yA : 0
xB : 1920
yB : 1440
randomizeSeed : 1
------------------
Output image size is 1920 x 1440
blocks.x : 69
blocks.y : 52
blocks.z : 1
==PROF== Profiling "kernel" - 2: 0%....50%....100% - 13 passes
Time to generate:  356844.8 ms; Framerate: 0.00 images/sec
image size : 1920 x 1440
------------------
muR : 0.05
sigmaR : 0
zoom, s : 1
sigmaFilter : 0.8
NmonteCarlo : 800
xA : 0
yA : 0
xB : 1920
yB : 1440
randomizeSeed : 1
------------------
Output image size is 1920 x 1440
blocks.x : 69
blocks.y : 52
blocks.z : 1
==PROF== Profiling "kernel" - 3: 0%....50%....100% - 13 passes
Time to generate:  368484.3 ms; Framerate: 0.00 images/sec
output file name : 22.png
time elapsed : 1098.42
***************************


==PROF== Disconnected from process 3630
[3630] film_grain_rendering_main@127.0.0.1
  kernel(float *, unsigned long, unsigned long, unsigned long, unsigned long, float, float, int, float, float, unsigned int, float, float, float, float), 2023-Mar-01 15:54:26, Context 1, Stream 7
    Section: Command line profiler metrics
    ---------------------------------------------------------------------- --------------- ------------------------------
    dram__bytes_read.sum                                                             Mbyte                          87.71
    dram__bytes_read.sum.per_second                                           Mbyte/second                           4.09
    dram__bytes_write.sum                                                            Mbyte                          13.01
    dram__bytes_write.sum.per_second                                          Kbyte/second                         606.09
    dram__sectors_read.sum                                                          sector                      2,740,817
    dram__sectors_write.sum                                                         sector                        406,483
    dram__throughput.avg.pct_of_peak_sustained_elapsed                                   %                           0.00
    fe__draw_count.avg.pct_of_peak_sustained_elapsed                                                              (!) n/a
    gpc__cycles_elapsed.avg.per_second                                       cycle/usecond                         585.02
    gr__cycles_active.sum.pct_of_peak_sustained_elapsed                                  %                            100
    gr__dispatch_count.avg.pct_of_peak_sustained_elapsed                                                          (!) n/a
    gr__dispatch_cycles_active_queue_async.avg.pct_of_peak_sustained_elaps                                        (!) n/a
    ed                                                                                                                   
    gr__dispatch_cycles_active_queue_sync.avg.pct_of_peak_sustained_elapse                                        (!) n/a
    d                                                                                                                    
    l1tex__f_tex2sm_cycles_active.avg.pct_of_peak_sustained_elapsed                      %                           2.15
    l1tex__lsu_writeback_active.avg.pct_of_peak_sustained_active                         %                           0.00
    l1tex__lsu_writeback_active.sum                                                  cycle                        356,868
    l1tex__t_bytes_pipe_lsu_mem_global_op_ld.sum.per_second                    byte/second                              0
    l1tex__t_bytes_pipe_lsu_mem_global_op_st.sum                                     Mbyte                          13.81
    l1tex__t_bytes_pipe_lsu_mem_global_op_st.sum.per_second                   Kbyte/second                         643.68
    l1tex__t_bytes_pipe_lsu_mem_local_op_ld.sum.per_second                     byte/second                              0
    l1tex__t_requests_pipe_lsu_mem_global_op_atom.sum                              request                              0
    l1tex__t_requests_pipe_lsu_mem_global_op_ld.sum                                request                              0
    l1tex__t_requests_pipe_lsu_mem_global_op_red.sum                               request                              0
    l1tex__t_requests_pipe_lsu_mem_global_op_st.sum                                request                         88,734
    l1tex__t_requests_pipe_lsu_mem_local_op_ld.sum                                 request                              0
    l1tex__t_requests_pipe_lsu_mem_local_op_st.sum                                 request                    141,974,400
    l1tex__t_requests_pipe_tex_mem_surface_op_atom.sum                             request                              0
    l1tex__t_requests_pipe_tex_mem_surface_op_ld.sum                               request                              0
    l1tex__t_requests_pipe_tex_mem_surface_op_red.sum                              request                              0
    l1tex__t_requests_pipe_tex_mem_surface_op_st.sum                               request                              0
    l1tex__t_requests_pipe_tex_mem_texture.sum                                     request                 10,776,626,031
    l1tex__t_sector_hit_rate.pct                                                         %                          99.74
    l1tex__t_sectors_pipe_lsu_mem_global_op.sum                                                                   (!) n/a
    l1tex__t_sectors_pipe_lsu_mem_global_op_ld.sum                                  sector                              0
    l1tex__t_sectors_pipe_lsu_mem_global_op_lookup_hit.sum                                                        (!) n/a
    l1tex__t_sectors_pipe_lsu_mem_local_op_ld.sum                                   sector                              0
    l1tex__t_sectors_pipe_lsu_mem_local_op_st.sum                                   sector                    554,077,545
    l1tex__t_sectors_pipe_lsu_mem_local_op_st.sum.per_second                sector/usecond                          25.82
    l1tex__t_set_accesses_pipe_lsu_mem_global_op_atom.sum                                                               0
    l1tex__t_set_accesses_pipe_lsu_mem_global_op_red.sum                                                                0
    l1tex__t_set_accesses_pipe_tex_mem_surface_op_atom.sum                                                              0
    l1tex__t_set_accesses_pipe_tex_mem_surface_op_red.sum                                                               0
    l1tex__tex_writeback_active.avg.pct_of_peak_sustained_active                         %                           2.15
    l1tex__texin_sm2tex_req_cycles_active.avg.pct_of_peak_sustained_elapse               %                           2.15
    d                                                                                                                    
    lts__t_bytes_equiv_l1sectormiss_pipe_lsu_mem_global_op_ld.sum                     byte                              0
    lts__t_bytes_equiv_l1sectormiss_pipe_lsu_mem_global_op_st.sum                    Mbyte                          10.40
    lts__t_bytes_equiv_l1sectormiss_pipe_lsu_mem_surface_op_st.sum                                                (!) n/a
    lts__t_bytes_equiv_l1sectormiss_pipe_tex_mem_surface_op_ld.sum                    byte                              0
    lts__t_sector_hit_rate.pct                                                           %                          99.83
    lts__t_sector_op_read_hit_rate.pct                                                   %                          98.40
    lts__t_sector_op_write_hit_rate.pct                                                  %                          99.98
    lts__t_sectors.avg.pct_of_peak_sustained_elapsed                                     %                           0.10
    lts__t_sectors_aperture_sysmem_op_read.sum                                      sector                              0
    lts__t_sectors_aperture_sysmem_op_read.sum.per_second                    sector/second                              0
    lts__t_sectors_aperture_sysmem_op_write.sum                                     sector                          1,287
    lts__t_sectors_aperture_sysmem_op_write.sum.per_second                   sector/second                          59.97
    lts__t_sectors_op_read.sum                                                      sector                     54,842,418
    lts__t_sectors_op_read.sum.per_second                                   sector/usecond                           2.56
    lts__t_sectors_op_write.sum                                                     sector                    554,586,048
    lts__t_sectors_op_write.sum.per_second                                  sector/usecond                          25.84
    lts__t_sectors_srcunit_l1_op_atom.sum                                           sector                              0
    lts__t_sectors_srcunit_l1_op_atom.sum.per_second                         sector/second                              0
    lts__t_sectors_srcunit_tex_op_read.sum                                          sector                     53,570,949
    lts__t_sectors_srcunit_tex_op_read.sum.per_second                       sector/usecond                           2.50
    pcie__read_bytes.avg.pct_of_peak_sustained_elapsed                                   %                           0.00
    pcie__rx_requests_aperture_bar1_op_read.sum                                                                   (!) n/a
    pcie__rx_requests_aperture_bar1_op_write.sum                                                                  (!) n/a
    pcie__write_bytes.avg.pct_of_peak_sustained_elapsed                                  %                           0.00
    sm__cycles_active.avg.pct_of_peak_sustained_elapsed                                  %                          99.71
    sm__inst_executed_realtime.avg.pct_of_peak_sustained_elapsed                                                  (!) n/a
    sm__mio2rf_writeback_active.avg.pct_of_peak_sustained_elapsed                        %                           0.25
    sm__pipe_shared_cycles_active_realtime.avg.pct_of_peak_sustained_elaps                                        (!) n/a
    ed                                                                                                                   
    sm__pipe_tensor_cycles_active.avg.pct_of_peak_sustained_active                       %                              0
    sm__pipe_tensor_cycles_active_realtime.avg.pct_of_peak_sustained_elaps                                        (!) n/a
    ed                                                                                                                   
    sm__warps_active.avg.pct_of_peak_sustained_active                                    %                          73.11
    smsp__average_inst_executed_per_warp.ratio                                   inst/warp                   1,602,078.96
    smsp__cycles_active.avg.pct_of_peak_sustained_elapsed                                %                          96.62
    smsp__inst_executed.avg.per_cycle_active                                    inst/cycle                           0.07
    smsp__inst_executed.sum                                                           inst                143,706,482,657
    smsp__inst_executed_op_global_atom.sum                                                                        (!) n/a
    smsp__inst_executed_op_global_ld.sum                                              inst                              0
    smsp__inst_executed_op_global_st.sum                                              inst                         88,734
    smsp__inst_executed_op_local_ld.sum                                               inst                              0
    smsp__inst_executed_op_shared_atom.sum                                            inst                              0
    smsp__inst_executed_op_shared_atom_dot_alu.sum                                    inst                              0
    smsp__inst_executed_op_shared_atom_dot_cas.sum                                    inst                              0
    smsp__inst_executed_op_shared_ld.avg.pct_of_peak_sustained_elapsed                   %                              0
    smsp__inst_executed_op_shared_ld.sum                                              inst                              0
    smsp__inst_executed_op_shared_ld.sum.per_second                            inst/second                              0
    smsp__inst_executed_op_shared_st.avg.pct_of_peak_sustained_elapsed                   %                              0
    smsp__inst_executed_op_shared_st.sum                                              inst                              0
    smsp__inst_executed_op_shared_st.sum.per_second                            inst/second                              0
    smsp__inst_executed_op_surface_atom.sum                                           inst                              0
    smsp__inst_executed_op_surface_ld.sum                                             inst                              0
    smsp__inst_executed_op_surface_red.sum                                            inst                              0
    smsp__inst_executed_op_surface_st.sum                                             inst                              0
    smsp__inst_executed_op_texture.sum                                                inst                  1,612,167,021
    smsp__inst_executed_pipe_adu.sum                                                  inst                    852,203,268
    smsp__inst_executed_pipe_cbu.sum                                                  inst                 11,884,841,376
    smsp__inst_executed_pipe_fp16.sum                                                 inst                              0
    smsp__inst_executed_pipe_fp64.avg.pct_of_peak_sustained_active                       %                          22.11
    smsp__inst_executed_pipe_lsu.avg.pct_of_peak_sustained_active                        %                           0.01
    smsp__inst_executed_pipe_tex.avg.pct_of_peak_sustained_active                        %                           0.17
    smsp__inst_issued.avg.per_cycle_active                                      inst/cycle                           0.07
    smsp__inst_issued.sum                                                             inst                144,201,972,877
    smsp__issue_active.avg.pct_of_peak_sustained_active                                  %                           7.43
    smsp__sass_thread_inst_executed_op_control_pred_on.sum                            inst                176,655,263,896
    smsp__sass_thread_inst_executed_op_dadd_pred_on.sum                               inst                 22,073,025,624
    smsp__sass_thread_inst_executed_op_dfma_pred_on.sum                               inst                134,702,114,436
    smsp__sass_thread_inst_executed_op_dmul_pred_on.sum                               inst                 64,075,298,436
    smsp__sass_thread_inst_executed_op_fadd_pred_on.sum                               inst                 30,982,403,152
    smsp__sass_thread_inst_executed_op_ffma_pred_on.sum                               inst                144,897,446,287
    smsp__sass_thread_inst_executed_op_fmul_pred_on.sum                               inst                 65,123,474,545
    smsp__sass_thread_inst_executed_op_fp16_pred_on.sum                               inst                              0
    smsp__sass_thread_inst_executed_op_fp32_pred_on.sum                               inst                351,420,586,113
    smsp__sass_thread_inst_executed_op_fp64_pred_on.sum                               inst                249,569,285,042
    smsp__sass_thread_inst_executed_op_hadd_pred_on.sum                               inst                              0
    smsp__sass_thread_inst_executed_op_hfma_pred_on.sum                               inst                              0
    smsp__sass_thread_inst_executed_op_hmul_pred_on.sum                               inst                              0
    smsp__sass_thread_inst_executed_op_integer_pred_on.sum                            inst                654,847,227,004
    smsp__sass_thread_inst_executed_op_inter_thread_communication_pred_on.            inst                              0
    sum                                                                                                                  
    smsp__sass_thread_inst_executed_op_memory_pred_on.sum                             inst                 64,127,545,401
    smsp__sass_thread_inst_executed_op_misc_pred_on.sum                               inst                131,032,529,304
    smsp__sass_thread_inst_executed_op_mufu_pred_on.sum                                                           (!) n/a
    smsp__thread_inst_executed_per_inst_executed.pct                                     %                          45.24
    smsp__thread_inst_executed_per_inst_executed.ratio                                                              14.48
    smsp__warp_issue_stalled_drain_miss_per_warp_active.pct                                                       (!) n/a
    smsp__warp_issue_stalled_imc_miss_per_warp_active.pct                                %                           0.00
    smsp__warp_issue_stalled_long_scoreboard_miss_per_warp_active.pct                                             (!) n/a
    smsp__warp_issue_stalled_misc_membar_per_warp_active.pct                                                      (!) n/a
    smsp__warp_issue_stalled_misc_mio_throttle_per_warp_active.pct                                                (!) n/a
    smsp__warp_issue_stalled_misc_miss_per_warp_active.pct                                                        (!) n/a
    smsp__warp_issue_stalled_misc_sleeping_per_warp_active.pct                                                    (!) n/a
    smsp__warp_issue_stalled_misc_tex_throttle_per_warp_active.pct                                                (!) n/a
    smsp__warp_issue_stalled_no_instruction_miss_per_warp_active.pct                                              (!) n/a
    smsp__warp_issue_stalled_short_scoreboard_miss_per_warp_active.pct                                            (!) n/a
    smsp__warps_eligible.sum.per_cycle_active                                         warp                          19.05
    sys__cycles_elapsed.avg.per_second                                       cycle/usecond                         855.03
    tpc__warps_active_shader_cs_realtime.avg.pct_of_peak_sustained_elapsed               %                          72.90
    tpc__warps_active_shader_ps_realtime.avg.pct_of_peak_sustained_elapsed                                        (!) n/a
    tpc__warps_active_shader_vtg_realtime.avg.pct_of_peak_sustained_elapse                                        (!) n/a
    d                                                                                                                    
    tpc__warps_inactive_sm_active_realtime.avg.pct_of_peak_sustained_elaps                                        (!) n/a
    ed                                                                                                                   
    tpc__warps_inactive_sm_idle_realtime.avg.pct_of_peak_sustained_elapsed                                        (!) n/a
    ---------------------------------------------------------------------- --------------- ------------------------------

  kernel(float *, unsigned long, unsigned long, unsigned long, unsigned long, float, float, int, float, float, unsigned int, float, float, float, float), 2023-Mar-01 16:00:23, Context 1, Stream 7
    Section: Command line profiler metrics
    ---------------------------------------------------------------------- --------------- ------------------------------
    dram__bytes_read.sum                                                             Mbyte                          87.47
    dram__bytes_read.sum.per_second                                           Mbyte/second                           4.27
    dram__bytes_write.sum                                                            Mbyte                          13.03
    dram__bytes_write.sum.per_second                                          Kbyte/second                         636.16
    dram__sectors_read.sum                                                          sector                      2,733,550
    dram__sectors_write.sum                                                         sector                        407,162
    dram__throughput.avg.pct_of_peak_sustained_elapsed                                   %                           0.00
    fe__draw_count.avg.pct_of_peak_sustained_elapsed                                                              (!) n/a
    gpc__cycles_elapsed.avg.per_second                                       cycle/usecond                         584.93
    gr__cycles_active.sum.pct_of_peak_sustained_elapsed                                  %                            100
    gr__dispatch_count.avg.pct_of_peak_sustained_elapsed                                                          (!) n/a
    gr__dispatch_cycles_active_queue_async.avg.pct_of_peak_sustained_elaps                                        (!) n/a
    ed                                                                                                                   
    gr__dispatch_cycles_active_queue_sync.avg.pct_of_peak_sustained_elapse                                        (!) n/a
    d                                                                                                                    
    l1tex__f_tex2sm_cycles_active.avg.pct_of_peak_sustained_elapsed                      %                           2.38
    l1tex__lsu_writeback_active.avg.pct_of_peak_sustained_active                         %                           0.00
    l1tex__lsu_writeback_active.sum                                                  cycle                        356,868
    l1tex__t_bytes_pipe_lsu_mem_global_op_ld.sum.per_second                    byte/second                              0
    l1tex__t_bytes_pipe_lsu_mem_global_op_st.sum                                     Mbyte                          13.81
    l1tex__t_bytes_pipe_lsu_mem_global_op_st.sum.per_second                   Kbyte/second                         674.49
    l1tex__t_bytes_pipe_lsu_mem_local_op_ld.sum.per_second                     byte/second                              0
    l1tex__t_requests_pipe_lsu_mem_global_op_atom.sum                              request                              0
    l1tex__t_requests_pipe_lsu_mem_global_op_ld.sum                                request                              0
    l1tex__t_requests_pipe_lsu_mem_global_op_red.sum                               request                              0
    l1tex__t_requests_pipe_lsu_mem_global_op_st.sum                                request                         88,734
    l1tex__t_requests_pipe_lsu_mem_local_op_ld.sum                                 request                              0
    l1tex__t_requests_pipe_lsu_mem_local_op_st.sum                                 request                    141,974,400
    l1tex__t_requests_pipe_tex_mem_surface_op_atom.sum                             request                              0
    l1tex__t_requests_pipe_tex_mem_surface_op_ld.sum                               request                              0
    l1tex__t_requests_pipe_tex_mem_surface_op_red.sum                              request                              0
    l1tex__t_requests_pipe_tex_mem_surface_op_st.sum                               request                              0
    l1tex__t_requests_pipe_tex_mem_texture.sum                                     request                 11,409,890,172
    l1tex__t_sector_hit_rate.pct                                                         %                          99.74
    l1tex__t_sectors_pipe_lsu_mem_global_op.sum                                                                   (!) n/a
    l1tex__t_sectors_pipe_lsu_mem_global_op_ld.sum                                  sector                              0
    l1tex__t_sectors_pipe_lsu_mem_global_op_lookup_hit.sum                                                        (!) n/a
    l1tex__t_sectors_pipe_lsu_mem_local_op_ld.sum                                   sector                              0
    l1tex__t_sectors_pipe_lsu_mem_local_op_st.sum                                   sector                    554,303,677
    l1tex__t_sectors_pipe_lsu_mem_local_op_st.sum.per_second                sector/usecond                          27.06
    l1tex__t_set_accesses_pipe_lsu_mem_global_op_atom.sum                                                               0
    l1tex__t_set_accesses_pipe_lsu_mem_global_op_red.sum                                                                0
    l1tex__t_set_accesses_pipe_tex_mem_surface_op_atom.sum                                                              0
    l1tex__t_set_accesses_pipe_tex_mem_surface_op_red.sum                                                               0
    l1tex__tex_writeback_active.avg.pct_of_peak_sustained_active                         %                           2.39
    l1tex__texin_sm2tex_req_cycles_active.avg.pct_of_peak_sustained_elapse               %                           2.38
    d                                                                                                                    
    lts__t_bytes_equiv_l1sectormiss_pipe_lsu_mem_global_op_ld.sum                     byte                              0
    lts__t_bytes_equiv_l1sectormiss_pipe_lsu_mem_global_op_st.sum                    Mbyte                          10.40
    lts__t_bytes_equiv_l1sectormiss_pipe_lsu_mem_surface_op_st.sum                                                (!) n/a
    lts__t_bytes_equiv_l1sectormiss_pipe_tex_mem_surface_op_ld.sum                    byte                              0
    lts__t_sector_hit_rate.pct                                                           %                          99.93
    lts__t_sector_op_read_hit_rate.pct                                                   %                          99.34
    lts__t_sector_op_write_hit_rate.pct                                                  %                          99.98
    lts__t_sectors.avg.pct_of_peak_sustained_elapsed                                     %                           0.11
    lts__t_sectors_aperture_sysmem_op_read.sum                                      sector                              0
    lts__t_sectors_aperture_sysmem_op_read.sum.per_second                    sector/second                              0
    lts__t_sectors_aperture_sysmem_op_write.sum                                     sector                          1,231
    lts__t_sectors_aperture_sysmem_op_write.sum.per_second                   sector/second                          60.10
    lts__t_sectors_op_read.sum                                                      sector                     59,908,551
    lts__t_sectors_op_read.sum.per_second                                   sector/usecond                           2.93
    lts__t_sectors_op_write.sum                                                     sector                    554,590,286
    lts__t_sectors_op_write.sum.per_second                                  sector/usecond                          27.08
    lts__t_sectors_srcunit_l1_op_atom.sum                                           sector                              0
    lts__t_sectors_srcunit_l1_op_atom.sum.per_second                         sector/second                              0
    lts__t_sectors_srcunit_tex_op_read.sum                                          sector                     58,630,355
    lts__t_sectors_srcunit_tex_op_read.sum.per_second                       sector/usecond                           2.86
    pcie__read_bytes.avg.pct_of_peak_sustained_elapsed                                   %                           0.00
    pcie__rx_requests_aperture_bar1_op_read.sum                                                                   (!) n/a
    pcie__rx_requests_aperture_bar1_op_write.sum                                                                  (!) n/a
    pcie__write_bytes.avg.pct_of_peak_sustained_elapsed                                  %                           0.00
    sm__cycles_active.avg.pct_of_peak_sustained_elapsed                                  %                          99.72
    sm__inst_executed_realtime.avg.pct_of_peak_sustained_elapsed                                                  (!) n/a
    sm__mio2rf_writeback_active.avg.pct_of_peak_sustained_elapsed                        %                           0.26
    sm__pipe_shared_cycles_active_realtime.avg.pct_of_peak_sustained_elaps                                        (!) n/a
    ed                                                                                                                   
    sm__pipe_tensor_cycles_active.avg.pct_of_peak_sustained_active                       %                              0
    sm__pipe_tensor_cycles_active_realtime.avg.pct_of_peak_sustained_elaps                                        (!) n/a
    ed                                                                                                                   
    sm__warps_active.avg.pct_of_peak_sustained_active                                    %                          73.10
    smsp__average_inst_executed_per_warp.ratio                                   inst/warp                   1,542,662.22
    smsp__cycles_active.avg.pct_of_peak_sustained_elapsed                                %                          96.61
    smsp__inst_executed.avg.per_cycle_active                                    inst/cycle                           0.07
    smsp__inst_executed.sum                                                           inst                138,376,801,308
    smsp__inst_executed_op_global_atom.sum                                                                        (!) n/a
    smsp__inst_executed_op_global_ld.sum                                              inst                              0
    smsp__inst_executed_op_global_st.sum                                              inst                         88,734
    smsp__inst_executed_op_local_ld.sum                                               inst                              0
    smsp__inst_executed_op_shared_atom.sum                                            inst                              0
    smsp__inst_executed_op_shared_atom_dot_alu.sum                                    inst                              0
    smsp__inst_executed_op_shared_atom_dot_cas.sum                                    inst                              0
    smsp__inst_executed_op_shared_ld.avg.pct_of_peak_sustained_elapsed                   %                              0
    smsp__inst_executed_op_shared_ld.sum                                              inst                              0
    smsp__inst_executed_op_shared_ld.sum.per_second                            inst/second                              0
    smsp__inst_executed_op_shared_st.avg.pct_of_peak_sustained_elapsed                   %                              0
    smsp__inst_executed_op_shared_st.sum                                              inst                              0
    smsp__inst_executed_op_shared_st.sum.per_second                            inst/second                              0
    smsp__inst_executed_op_surface_atom.sum                                           inst                              0
    smsp__inst_executed_op_surface_ld.sum                                             inst                              0
    smsp__inst_executed_op_surface_red.sum                                            inst                              0
    smsp__inst_executed_op_surface_st.sum                                             inst                              0
    smsp__inst_executed_op_texture.sum                                                inst                  1,653,273,459
    smsp__inst_executed_pipe_adu.sum                                                  inst                    852,203,268
    smsp__inst_executed_pipe_cbu.sum                                                  inst                 11,431,150,695
    smsp__inst_executed_pipe_fp16.sum                                                 inst                              0
    smsp__inst_executed_pipe_fp64.avg.pct_of_peak_sustained_active                       %                          22.09
    smsp__inst_executed_pipe_lsu.avg.pct_of_peak_sustained_active                        %                           0.02
    smsp__inst_executed_pipe_tex.avg.pct_of_peak_sustained_active                        %                           0.18
    smsp__inst_issued.avg.per_cycle_active                                      inst/cycle                           0.07
    smsp__inst_issued.sum                                                             inst                138,846,947,836
    smsp__issue_active.avg.pct_of_peak_sustained_active                                  %                           7.50
    smsp__sass_thread_inst_executed_op_control_pred_on.sum                            inst                180,735,929,976
    smsp__sass_thread_inst_executed_op_dadd_pred_on.sum                               inst                 20,582,753,610
    smsp__sass_thread_inst_executed_op_dfma_pred_on.sum                               inst                132,671,301,615
    smsp__sass_thread_inst_executed_op_dmul_pred_on.sum                               inst                 61,839,890,415
    smsp__sass_thread_inst_executed_op_fadd_pred_on.sum                               inst                 28,932,952,858
    smsp__sass_thread_inst_executed_op_ffma_pred_on.sum                               inst                138,311,641,251
    smsp__sass_thread_inst_executed_op_fmul_pred_on.sum                               inst                 64,358,978,280
    smsp__sass_thread_inst_executed_op_fp16_pred_on.sum                               inst                              0
    smsp__sass_thread_inst_executed_op_fp32_pred_on.sum                               inst                342,307,029,193
    smsp__sass_thread_inst_executed_op_fp64_pred_on.sum                               inst                245,142,908,125
    smsp__sass_thread_inst_executed_op_hadd_pred_on.sum                               inst                              0
    smsp__sass_thread_inst_executed_op_hfma_pred_on.sum                               inst                              0
    smsp__sass_thread_inst_executed_op_hmul_pred_on.sum                               inst                              0
    smsp__sass_thread_inst_executed_op_integer_pred_on.sum                            inst                680,380,510,873
    smsp__sass_thread_inst_executed_op_inter_thread_communication_pred_on.            inst                              0
    sum                                                                                                                  
    smsp__sass_thread_inst_executed_op_memory_pred_on.sum                             inst                 67,240,423,320
    smsp__sass_thread_inst_executed_op_misc_pred_on.sum                               inst                135,658,370,984
    smsp__sass_thread_inst_executed_op_mufu_pred_on.sum                                                           (!) n/a
    smsp__thread_inst_executed_per_inst_executed.pct                                     %                          47.63
    smsp__thread_inst_executed_per_inst_executed.ratio                                                              15.24
    smsp__warp_issue_stalled_drain_miss_per_warp_active.pct                                                       (!) n/a
    smsp__warp_issue_stalled_imc_miss_per_warp_active.pct                                %                           0.00
    smsp__warp_issue_stalled_long_scoreboard_miss_per_warp_active.pct                                             (!) n/a
    smsp__warp_issue_stalled_misc_membar_per_warp_active.pct                                                      (!) n/a
    smsp__warp_issue_stalled_misc_mio_throttle_per_warp_active.pct                                                (!) n/a
    smsp__warp_issue_stalled_misc_miss_per_warp_active.pct                                                        (!) n/a
    smsp__warp_issue_stalled_misc_sleeping_per_warp_active.pct                                                    (!) n/a
    smsp__warp_issue_stalled_misc_tex_throttle_per_warp_active.pct                                                (!) n/a
    smsp__warp_issue_stalled_no_instruction_miss_per_warp_active.pct                                              (!) n/a
    smsp__warp_issue_stalled_short_scoreboard_miss_per_warp_active.pct                                            (!) n/a
    smsp__warps_eligible.sum.per_cycle_active                                         warp                          19.11
    sys__cycles_elapsed.avg.per_second                                       cycle/usecond                         854.90
    tpc__warps_active_shader_cs_realtime.avg.pct_of_peak_sustained_elapsed               %                          72.90
    tpc__warps_active_shader_ps_realtime.avg.pct_of_peak_sustained_elapsed                                        (!) n/a
    tpc__warps_active_shader_vtg_realtime.avg.pct_of_peak_sustained_elapse                                        (!) n/a
    d                                                                                                                    
    tpc__warps_inactive_sm_active_realtime.avg.pct_of_peak_sustained_elaps                                        (!) n/a
    ed                                                                                                                   
    tpc__warps_inactive_sm_idle_realtime.avg.pct_of_peak_sustained_elapsed                                        (!) n/a
    ---------------------------------------------------------------------- --------------- ------------------------------

  kernel(float *, unsigned long, unsigned long, unsigned long, unsigned long, float, float, int, float, float, unsigned int, float, float, float, float), 2023-Mar-01 16:06:31, Context 1, Stream 7
    Section: Command line profiler metrics
    ---------------------------------------------------------------------- --------------- ------------------------------
    dram__bytes_read.sum                                                             Mbyte                          86.71
    dram__bytes_read.sum.per_second                                           Mbyte/second                           4.10
    dram__bytes_write.sum                                                            Mbyte                          12.99
    dram__bytes_write.sum.per_second                                          Kbyte/second                         613.87
    dram__sectors_read.sum                                                          sector                      2,709,838
    dram__sectors_write.sum                                                         sector                        406,065
    dram__throughput.avg.pct_of_peak_sustained_elapsed                                   %                           0.00
    fe__draw_count.avg.pct_of_peak_sustained_elapsed                                                              (!) n/a
    gpc__cycles_elapsed.avg.per_second                                       cycle/usecond                         585.02
    gr__cycles_active.sum.pct_of_peak_sustained_elapsed                                  %                            100
    gr__dispatch_count.avg.pct_of_peak_sustained_elapsed                                                          (!) n/a
    gr__dispatch_cycles_active_queue_async.avg.pct_of_peak_sustained_elaps                                        (!) n/a
    ed                                                                                                                   
    gr__dispatch_cycles_active_queue_sync.avg.pct_of_peak_sustained_elapse                                        (!) n/a
    d                                                                                                                    
    l1tex__f_tex2sm_cycles_active.avg.pct_of_peak_sustained_elapsed                      %                           2.25
    l1tex__lsu_writeback_active.avg.pct_of_peak_sustained_active                         %                           0.00
    l1tex__lsu_writeback_active.sum                                                  cycle                        356,868
    l1tex__t_bytes_pipe_lsu_mem_global_op_ld.sum.per_second                    byte/second                              0
    l1tex__t_bytes_pipe_lsu_mem_global_op_st.sum                                     Mbyte                          13.81
    l1tex__t_bytes_pipe_lsu_mem_global_op_st.sum.per_second                   Kbyte/second                         652.61
    l1tex__t_bytes_pipe_lsu_mem_local_op_ld.sum.per_second                     byte/second                              0
    l1tex__t_requests_pipe_lsu_mem_global_op_atom.sum                              request                              0
    l1tex__t_requests_pipe_lsu_mem_global_op_ld.sum                                request                              0
    l1tex__t_requests_pipe_lsu_mem_global_op_red.sum                               request                              0
    l1tex__t_requests_pipe_lsu_mem_global_op_st.sum                                request                         88,734
    l1tex__t_requests_pipe_lsu_mem_local_op_ld.sum                                 request                              0
    l1tex__t_requests_pipe_lsu_mem_local_op_st.sum                                 request                    141,974,400
    l1tex__t_requests_pipe_tex_mem_surface_op_atom.sum                             request                              0
    l1tex__t_requests_pipe_tex_mem_surface_op_ld.sum                               request                              0
    l1tex__t_requests_pipe_tex_mem_surface_op_red.sum                              request                              0
    l1tex__t_requests_pipe_tex_mem_surface_op_st.sum                               request                              0
    l1tex__t_requests_pipe_tex_mem_texture.sum                                     request                 11,129,293,767
    l1tex__t_sector_hit_rate.pct                                                         %                          99.74
    l1tex__t_sectors_pipe_lsu_mem_global_op.sum                                                                   (!) n/a
    l1tex__t_sectors_pipe_lsu_mem_global_op_ld.sum                                  sector                              0
    l1tex__t_sectors_pipe_lsu_mem_global_op_lookup_hit.sum                                                        (!) n/a
    l1tex__t_sectors_pipe_lsu_mem_local_op_ld.sum                                   sector                              0
    l1tex__t_sectors_pipe_lsu_mem_local_op_st.sum                                   sector                    553,976,010
    l1tex__t_sectors_pipe_lsu_mem_local_op_st.sum.per_second                sector/usecond                          26.17
    l1tex__t_set_accesses_pipe_lsu_mem_global_op_atom.sum                                                               0
    l1tex__t_set_accesses_pipe_lsu_mem_global_op_red.sum                                                                0
    l1tex__t_set_accesses_pipe_tex_mem_surface_op_atom.sum                                                              0
    l1tex__t_set_accesses_pipe_tex_mem_surface_op_red.sum                                                               0
    l1tex__tex_writeback_active.avg.pct_of_peak_sustained_active                         %                           2.25
    l1tex__texin_sm2tex_req_cycles_active.avg.pct_of_peak_sustained_elapse               %                           2.25
    d                                                                                                                    
    lts__t_bytes_equiv_l1sectormiss_pipe_lsu_mem_global_op_ld.sum                     byte                              0
    lts__t_bytes_equiv_l1sectormiss_pipe_lsu_mem_global_op_st.sum                    Mbyte                          10.42
    lts__t_bytes_equiv_l1sectormiss_pipe_lsu_mem_surface_op_st.sum                                                (!) n/a
    lts__t_bytes_equiv_l1sectormiss_pipe_tex_mem_surface_op_ld.sum                    byte                              0
    lts__t_sector_hit_rate.pct                                                           %                          99.77
    lts__t_sector_op_read_hit_rate.pct                                                   %                          96.58
    lts__t_sector_op_write_hit_rate.pct                                                  %                          99.98
    lts__t_sectors.avg.pct_of_peak_sustained_elapsed                                     %                           0.11
    lts__t_sectors_aperture_sysmem_op_read.sum                                      sector                              0
    lts__t_sectors_aperture_sysmem_op_read.sum.per_second                    sector/second                              0
    lts__t_sectors_aperture_sysmem_op_write.sum                                     sector                          1,271
    lts__t_sectors_aperture_sysmem_op_write.sum.per_second                   sector/second                          60.04
    lts__t_sectors_op_read.sum                                                      sector                     55,237,717
    lts__t_sectors_op_read.sum.per_second                                   sector/usecond                           2.61
    lts__t_sectors_op_write.sum                                                     sector                    554,587,337
    lts__t_sectors_op_write.sum.per_second                                  sector/usecond                          26.20
    lts__t_sectors_srcunit_l1_op_atom.sum                                           sector                              0
    lts__t_sectors_srcunit_l1_op_atom.sum.per_second                         sector/second                              0
    lts__t_sectors_srcunit_tex_op_read.sum                                          sector                     53,374,143
    lts__t_sectors_srcunit_tex_op_read.sum.per_second                       sector/usecond                           2.52
    pcie__read_bytes.avg.pct_of_peak_sustained_elapsed                                   %                           0.00
    pcie__rx_requests_aperture_bar1_op_read.sum                                                                   (!) n/a
    pcie__rx_requests_aperture_bar1_op_write.sum                                                                  (!) n/a
    pcie__write_bytes.avg.pct_of_peak_sustained_elapsed                                  %                           0.00
    sm__cycles_active.avg.pct_of_peak_sustained_elapsed                                  %                          99.71
    sm__inst_executed_realtime.avg.pct_of_peak_sustained_elapsed                                                  (!) n/a
    sm__mio2rf_writeback_active.avg.pct_of_peak_sustained_elapsed                        %                           0.25
    sm__pipe_shared_cycles_active_realtime.avg.pct_of_peak_sustained_elaps                                        (!) n/a
    ed                                                                                                                   
    sm__pipe_tensor_cycles_active.avg.pct_of_peak_sustained_active                       %                              0
    sm__pipe_tensor_cycles_active_realtime.avg.pct_of_peak_sustained_elaps                                        (!) n/a
    ed                                                                                                                   
    sm__warps_active.avg.pct_of_peak_sustained_active                                    %                          73.11
    smsp__average_inst_executed_per_warp.ratio                                   inst/warp                   1,587,430.32
    smsp__cycles_active.avg.pct_of_peak_sustained_elapsed                                %                          96.60
    smsp__inst_executed.avg.per_cycle_active                                    inst/cycle                           0.07
    smsp__inst_executed.sum                                                           inst                142,392,499,883
    smsp__inst_executed_op_global_atom.sum                                                                        (!) n/a
    smsp__inst_executed_op_global_ld.sum                                              inst                              0
    smsp__inst_executed_op_global_st.sum                                              inst                         88,734
    smsp__inst_executed_op_local_ld.sum                                               inst                              0
    smsp__inst_executed_op_shared_atom.sum                                            inst                              0
    smsp__inst_executed_op_shared_atom_dot_alu.sum                                    inst                              0
    smsp__inst_executed_op_shared_atom_dot_cas.sum                                    inst                              0
    smsp__inst_executed_op_shared_ld.avg.pct_of_peak_sustained_elapsed                   %                              0
    smsp__inst_executed_op_shared_ld.sum                                              inst                              0
    smsp__inst_executed_op_shared_ld.sum.per_second                            inst/second                              0
    smsp__inst_executed_op_shared_st.avg.pct_of_peak_sustained_elapsed                   %                              0
    smsp__inst_executed_op_shared_st.sum                                              inst                              0
    smsp__inst_executed_op_shared_st.sum.per_second                            inst/second                              0
    smsp__inst_executed_op_surface_atom.sum                                           inst                              0
    smsp__inst_executed_op_surface_ld.sum                                             inst                              0
    smsp__inst_executed_op_surface_red.sum                                            inst                              0
    smsp__inst_executed_op_surface_st.sum                                             inst                              0
    smsp__inst_executed_op_texture.sum                                                inst                  1,649,675,679
    smsp__inst_executed_pipe_adu.sum                                                  inst                    852,203,268
    smsp__inst_executed_pipe_cbu.sum                                                  inst                 11,776,063,327
    smsp__inst_executed_pipe_fp16.sum                                                 inst                              0
    smsp__inst_executed_pipe_fp64.avg.pct_of_peak_sustained_active                       %                          22.10
    smsp__inst_executed_pipe_lsu.avg.pct_of_peak_sustained_active                        %                           0.01
    smsp__inst_executed_pipe_tex.avg.pct_of_peak_sustained_active                        %                           0.17
    smsp__inst_issued.avg.per_cycle_active                                      inst/cycle                           0.07
    smsp__inst_issued.sum                                                             inst                142,915,415,269
    smsp__issue_active.avg.pct_of_peak_sustained_active                                  %                           7.47
    smsp__sass_thread_inst_executed_op_control_pred_on.sum                            inst                177,056,979,421
    smsp__sass_thread_inst_executed_op_dadd_pred_on.sum                               inst                 21,347,961,364
    smsp__sass_thread_inst_executed_op_dfma_pred_on.sum                               inst                133,633,871,646
    smsp__sass_thread_inst_executed_op_dmul_pred_on.sum                               inst                 62,987,702,046
    smsp__sass_thread_inst_executed_op_fadd_pred_on.sum                               inst                 29,939,527,376
    smsp__sass_thread_inst_executed_op_ffma_pred_on.sum                               inst                141,392,664,204
    smsp__sass_thread_inst_executed_op_fmul_pred_on.sum                               inst                 64,518,117,543
    smsp__sass_thread_inst_executed_op_fp16_pred_on.sum                               inst                              0
    smsp__sass_thread_inst_executed_op_fp32_pred_on.sum                               inst                345,846,018,308
    smsp__sass_thread_inst_executed_op_fp64_pred_on.sum                               inst                247,047,769,604
    smsp__sass_thread_inst_executed_op_hadd_pred_on.sum                               inst                              0
    smsp__sass_thread_inst_executed_op_hfma_pred_on.sum                               inst                              0
    smsp__sass_thread_inst_executed_op_hmul_pred_on.sum                               inst                              0
    smsp__sass_thread_inst_executed_op_integer_pred_on.sum                            inst                662,101,150,354
    smsp__sass_thread_inst_executed_op_inter_thread_communication_pred_on.            inst                              0
    sum                                                                                                                  
    smsp__sass_thread_inst_executed_op_memory_pred_on.sum                             inst                 65,210,425,599
    smsp__sass_thread_inst_executed_op_misc_pred_on.sum                               inst                132,298,920,804
    smsp__sass_thread_inst_executed_op_mufu_pred_on.sum                                                           (!) n/a
    smsp__thread_inst_executed_per_inst_executed.pct                                     %                          45.71
    smsp__thread_inst_executed_per_inst_executed.ratio                                                              14.63
    smsp__warp_issue_stalled_drain_miss_per_warp_active.pct                                                       (!) n/a
    smsp__warp_issue_stalled_imc_miss_per_warp_active.pct                                %                           0.00
    smsp__warp_issue_stalled_long_scoreboard_miss_per_warp_active.pct                                             (!) n/a
    smsp__warp_issue_stalled_misc_membar_per_warp_active.pct                                                      (!) n/a
    smsp__warp_issue_stalled_misc_mio_throttle_per_warp_active.pct                                                (!) n/a
    smsp__warp_issue_stalled_misc_miss_per_warp_active.pct                                                        (!) n/a
    smsp__warp_issue_stalled_misc_sleeping_per_warp_active.pct                                                    (!) n/a
    smsp__warp_issue_stalled_misc_tex_throttle_per_warp_active.pct                                                (!) n/a
    smsp__warp_issue_stalled_no_instruction_miss_per_warp_active.pct                                              (!) n/a
    smsp__warp_issue_stalled_short_scoreboard_miss_per_warp_active.pct                                            (!) n/a
    smsp__warps_eligible.sum.per_cycle_active                                         warp                          19.09
    sys__cycles_elapsed.avg.per_second                                       cycle/usecond                         855.03
    tpc__warps_active_shader_cs_realtime.avg.pct_of_peak_sustained_elapsed               %                          72.90
    tpc__warps_active_shader_ps_realtime.avg.pct_of_peak_sustained_elapsed                                        (!) n/a
    tpc__warps_active_shader_vtg_realtime.avg.pct_of_peak_sustained_elapse                                        (!) n/a
    d                                                                                                                    
    tpc__warps_inactive_sm_active_realtime.avg.pct_of_peak_sustained_elaps                                        (!) n/a
    ed                                                                                                                   
    tpc__warps_inactive_sm_idle_realtime.avg.pct_of_peak_sustained_elapsed                                        (!) n/a

