==PROF== Profiling "free_world" - 5: 0%....50%....100% - 13 passes
==PROF== Disconnected from process 102046
[102046] a.out@127.0.0.1
  rand_init(curandStateXORWOW*), 2023-Mar-22 20:54:12, Context 1, Stream 7
    Section: Command line profiler metrics
    ---------------------------------------------------------------------- --------------- ------------------------------
    dram__bytes_read.sum                                                              byte                            128
    dram__bytes_read.sum.per_second                                           Mbyte/second                          27.78
    dram__bytes_write.sum                                                             byte                              0
    dram__bytes_write.sum.per_second                                           byte/second                              0
    dram__sectors_read.sum                                                          sector                              4
    dram__sectors_write.sum                                                         sector                              0
    l1tex__f_tex2sm_cycles_active.avg.pct_of_peak_sustained_elapsed                      %                              0
    l1tex__lsu_writeback_active.avg.pct_of_peak_sustained_active                         %                           0.09
    l1tex__lsu_writeback_active.sum                                                  cycle                              1
    l1tex__t_bytes_pipe_lsu_mem_global_op_ld.sum.per_second                    byte/second                              0
    l1tex__t_bytes_pipe_lsu_mem_global_op_st.sum                                      byte                            192
    l1tex__t_bytes_pipe_lsu_mem_global_op_st.sum.per_second                   Mbyte/second                          41.67
    l1tex__t_bytes_pipe_lsu_mem_local_op_ld.sum.per_second                     byte/second                              0
    l1tex__t_requests_pipe_lsu_mem_global_op_atom.sum                              request                              0
    l1tex__t_requests_pipe_lsu_mem_global_op_ld.sum                                request                              0
    l1tex__t_requests_pipe_lsu_mem_global_op_red.sum                               request                              0
    l1tex__t_requests_pipe_lsu_mem_global_op_st.sum                                request                              6
    l1tex__t_requests_pipe_lsu_mem_local_op_ld.sum                                 request                              0
    l1tex__t_requests_pipe_lsu_mem_local_op_st.sum                                 request                              0
    l1tex__t_requests_pipe_tex_mem_surface_op_atom.sum                             request                              0
    l1tex__t_requests_pipe_tex_mem_surface_op_ld.sum                               request                              0
    l1tex__t_requests_pipe_tex_mem_surface_op_red.sum                              request                              0
    l1tex__t_requests_pipe_tex_mem_surface_op_st.sum                               request                              0
    l1tex__t_requests_pipe_tex_mem_texture.sum                                     request                              0
    l1tex__t_sector_hit_rate.pct                                                         %                          83.33
    l1tex__t_sectors_pipe_lsu_mem_global_op.sum                                                                   (!) n/a
    l1tex__t_sectors_pipe_lsu_mem_global_op_ld.sum                                  sector                              0
    l1tex__t_sectors_pipe_lsu_mem_global_op_lookup_hit.sum                                                        (!) n/a
    l1tex__t_sectors_pipe_lsu_mem_local_op_ld.sum                                   sector                              0
    l1tex__t_sectors_pipe_lsu_mem_local_op_st.sum                                   sector                              0
    l1tex__t_sectors_pipe_lsu_mem_local_op_st.sum.per_second                 sector/second                              0
    l1tex__t_set_accesses_pipe_lsu_mem_global_op_atom.sum                                                               0
    l1tex__t_set_accesses_pipe_lsu_mem_global_op_red.sum                                                                0
    l1tex__t_set_accesses_pipe_tex_mem_surface_op_atom.sum                                                              0
    l1tex__t_set_accesses_pipe_tex_mem_surface_op_red.sum                                                               0
    l1tex__tex_writeback_active.avg.pct_of_peak_sustained_active                         %                              0
    l1tex__texin_sm2tex_req_cycles_active.avg.pct_of_peak_sustained_elapse               %                           0.10
    d                                                                                                                    
    lts__t_bytes_equiv_l1sectormiss_pipe_lsu_mem_global_op_ld.sum                     byte                              0
    lts__t_bytes_equiv_l1sectormiss_pipe_lsu_mem_global_op_st.sum                     byte                             32
    lts__t_bytes_equiv_l1sectormiss_pipe_lsu_mem_surface_op_st.sum                                                (!) n/a
    lts__t_bytes_equiv_l1sectormiss_pipe_tex_mem_surface_op_ld.sum                    byte                              0
    lts__t_sector_hit_rate.pct                                                           %                          99.10
    lts__t_sector_op_read_hit_rate.pct                                                   %                           1.57
    lts__t_sector_op_write_hit_rate.pct                                                  %                            100
    lts__t_sectors.avg.pct_of_peak_sustained_elapsed                                     %                           0.57
    lts__t_sectors_aperture_sysmem_op_read.sum                                      sector                              0
    lts__t_sectors_aperture_sysmem_op_read.sum.per_second                    sector/second                              0
    lts__t_sectors_aperture_sysmem_op_write.sum                                     sector                              7
    lts__t_sectors_aperture_sysmem_op_write.sum.per_second                  sector/usecond                           1.52
    lts__t_sectors_op_read.sum                                                      sector                            702
    lts__t_sectors_op_read.sum.per_second                                   sector/usecond                         152.34
    lts__t_sectors_op_write.sum                                                     sector                             19
    lts__t_sectors_op_write.sum.per_second                                  sector/usecond                           4.12
    lts__t_sectors_srcunit_l1_op_atom.sum                                           sector                              0
    lts__t_sectors_srcunit_l1_op_atom.sum.per_second                         sector/second                              0
    lts__t_sectors_srcunit_tex_op_read.sum                                          sector                              0
    lts__t_sectors_srcunit_tex_op_read.sum.per_second                        sector/second                              0
    sm__mio2rf_writeback_active.avg.pct_of_peak_sustained_elapsed                        %                           0.00
    sm__pipe_tensor_cycles_active.avg.pct_of_peak_sustained_active                       %                              0
    sm__warps_active.avg.pct_of_peak_sustained_active                                    %                           1.56
    smsp__average_inst_executed_per_warp.ratio                                   inst/warp                             21
    smsp__cycles_active.avg.pct_of_peak_sustained_elapsed                                %                           0.09
    smsp__inst_executed.avg.per_cycle_active                                    inst/cycle                           0.02
    smsp__inst_executed.sum                                                           inst                             21
    smsp__inst_executed_op_global_atom.sum                                                                        (!) n/a
    smsp__inst_executed_op_global_ld.sum                                              inst                              0
    smsp__inst_executed_op_global_st.sum                                              inst                              6
    smsp__inst_executed_op_local_ld.sum                                               inst                              0
    smsp__inst_executed_op_shared_atom.sum                                            inst                              0
    smsp__inst_executed_op_shared_atom_dot_alu.sum                                    inst                              0
    smsp__inst_executed_op_shared_atom_dot_cas.sum                                    inst                              0
    smsp__inst_executed_op_shared_ld.avg.pct_of_peak_sustained_elapsed                   %                              0
    smsp__inst_executed_op_shared_ld.sum                                              inst                              0
    smsp__inst_executed_op_shared_ld.sum.per_second                            inst/second                              0
    smsp__inst_executed_op_shared_st.avg.pct_of_peak_sustained_elapsed                   %                              0
    smsp__inst_executed_op_shared_st.sum                                              inst                              0
    smsp__inst_executed_op_shared_st.sum.per_second                            inst/second                              0
    smsp__inst_executed_op_surface_atom.sum                                           inst                              0
    smsp__inst_executed_op_surface_ld.sum                                             inst                              0
    smsp__inst_executed_op_surface_red.sum                                            inst                              0
    smsp__inst_executed_op_surface_st.sum                                             inst                              0
    smsp__inst_executed_op_texture.sum                                                inst                              0
    smsp__inst_executed_pipe_adu.sum                                                  inst                              1
    smsp__inst_executed_pipe_cbu.sum                                                  inst                              2
    smsp__inst_executed_pipe_fp16.sum                                                 inst                              0
    smsp__inst_executed_pipe_fp64.avg.pct_of_peak_sustained_active                       %                              0
    smsp__inst_executed_pipe_lsu.avg.pct_of_peak_sustained_active                        %                           0.61
    smsp__inst_executed_pipe_tex.avg.pct_of_peak_sustained_active                        %                              0
    smsp__inst_issued.avg.per_cycle_active                                      inst/cycle                           0.03
    smsp__inst_issued.sum                                                             inst                             31
    smsp__issue_active.avg.pct_of_peak_sustained_active                                  %                           2.72
    smsp__sass_thread_inst_executed_op_control_pred_on.sum                            inst                              1
    smsp__sass_thread_inst_executed_op_dadd_pred_on.sum                               inst                              0
    smsp__sass_thread_inst_executed_op_dfma_pred_on.sum                               inst                              0
    smsp__sass_thread_inst_executed_op_dmul_pred_on.sum                               inst                              0
    smsp__sass_thread_inst_executed_op_fadd_pred_on.sum                               inst                              0
    smsp__sass_thread_inst_executed_op_ffma_pred_on.sum                               inst                              0
    smsp__sass_thread_inst_executed_op_fmul_pred_on.sum                               inst                              0
    smsp__sass_thread_inst_executed_op_fp16_pred_on.sum                               inst                              0
    smsp__sass_thread_inst_executed_op_fp32_pred_on.sum                               inst                              0
    smsp__sass_thread_inst_executed_op_fp64_pred_on.sum                               inst                              0
    smsp__sass_thread_inst_executed_op_hadd_pred_on.sum                               inst                              0
    smsp__sass_thread_inst_executed_op_hfma_pred_on.sum                               inst                              0
    smsp__sass_thread_inst_executed_op_hmul_pred_on.sum                               inst                              0
    smsp__sass_thread_inst_executed_op_integer_pred_on.sum                            inst                              6
    smsp__sass_thread_inst_executed_op_inter_thread_communication_pred_on.            inst                              0
    sum                                                                                                                  
    smsp__sass_thread_inst_executed_op_memory_pred_on.sum                             inst                              6
    smsp__sass_thread_inst_executed_op_misc_pred_on.sum                               inst                              6
    smsp__sass_thread_inst_executed_op_mufu_pred_on.sum                                                           (!) n/a
    smsp__thread_inst_executed_per_inst_executed.pct                                     %                           3.12
    smsp__thread_inst_executed_per_inst_executed.ratio                                                                  1
    smsp__warp_issue_stalled_drain_miss_per_warp_active.pct                                                       (!) n/a
    smsp__warp_issue_stalled_imc_miss_per_warp_active.pct                                %                          85.45
    smsp__warp_issue_stalled_long_scoreboard_miss_per_warp_active.pct                                             (!) n/a
    smsp__warp_issue_stalled_misc_membar_per_warp_active.pct                                                      (!) n/a
    smsp__warp_issue_stalled_misc_mio_throttle_per_warp_active.pct                                                (!) n/a
    smsp__warp_issue_stalled_misc_miss_per_warp_active.pct                                                        (!) n/a
    smsp__warp_issue_stalled_misc_sleeping_per_warp_active.pct                                                    (!) n/a
    smsp__warp_issue_stalled_misc_tex_throttle_per_warp_active.pct                                                (!) n/a
    smsp__warp_issue_stalled_no_instruction_miss_per_warp_active.pct                                              (!) n/a
    smsp__warp_issue_stalled_short_scoreboard_miss_per_warp_active.pct                                            (!) n/a
    smsp__warps_eligible.sum.per_cycle_active                                         warp                          11.75
    ---------------------------------------------------------------------- --------------- ------------------------------

  create_world(hitable**, hitable**, camera**, int, int, curandStateXORWOW*), 2023-Mar-22 20:54:14, Context 1, Stream 7
    Section: Command line profiler metrics
    ---------------------------------------------------------------------- --------------- ------------------------------
    dram__bytes_read.sum                                                             Kbyte                         212.61
    dram__bytes_read.sum.per_second                                           Mbyte/second                           5.10
    dram__bytes_write.sum                                                             byte                              0
    dram__bytes_write.sum.per_second                                           byte/second                              0
    dram__sectors_read.sum                                                          sector                          6,644
    dram__sectors_write.sum                                                         sector                              0
    l1tex__f_tex2sm_cycles_active.avg.pct_of_peak_sustained_elapsed                      %                              0
    l1tex__lsu_writeback_active.avg.pct_of_peak_sustained_active                         %                           0.62
    l1tex__lsu_writeback_active.sum                                                  cycle                        198,738
    l1tex__t_bytes_pipe_lsu_mem_global_op_ld.sum.per_second                   Mbyte/second                          82.50
    l1tex__t_bytes_pipe_lsu_mem_global_op_st.sum                                     Kbyte                         336.99
    l1tex__t_bytes_pipe_lsu_mem_global_op_st.sum.per_second                   Mbyte/second                           8.09
    l1tex__t_bytes_pipe_lsu_mem_local_op_ld.sum.per_second                    Mbyte/second                          55.71
    l1tex__t_requests_pipe_lsu_mem_global_op_atom.sum                              request                          7,921
    l1tex__t_requests_pipe_lsu_mem_global_op_ld.sum                                request                        107,454
    l1tex__t_requests_pipe_lsu_mem_global_op_red.sum                               request                            978
    l1tex__t_requests_pipe_lsu_mem_global_op_st.sum                                request                         10,531
    l1tex__t_requests_pipe_lsu_mem_local_op_ld.sum                                 request                         72,562
    l1tex__t_requests_pipe_lsu_mem_local_op_st.sum                                 request                         79,719
    l1tex__t_requests_pipe_tex_mem_surface_op_atom.sum                             request                              0
    l1tex__t_requests_pipe_tex_mem_surface_op_ld.sum                               request                              0
    l1tex__t_requests_pipe_tex_mem_surface_op_red.sum                              request                              0
    l1tex__t_requests_pipe_tex_mem_surface_op_st.sum                               request                              0
    l1tex__t_requests_pipe_tex_mem_texture.sum                                     request                              0
    l1tex__t_sector_hit_rate.pct                                                         %                          56.64
    l1tex__t_sectors_pipe_lsu_mem_global_op.sum                                                                   (!) n/a
    l1tex__t_sectors_pipe_lsu_mem_global_op_ld.sum                                  sector                        107,454
    l1tex__t_sectors_pipe_lsu_mem_global_op_lookup_hit.sum                                                        (!) n/a
    l1tex__t_sectors_pipe_lsu_mem_local_op_ld.sum                                   sector                         72,562
    l1tex__t_sectors_pipe_lsu_mem_local_op_st.sum                                   sector                         79,719
    l1tex__t_sectors_pipe_lsu_mem_local_op_st.sum.per_second                sector/usecond                           1.91
    l1tex__t_set_accesses_pipe_lsu_mem_global_op_atom.sum                                                           7,921
    l1tex__t_set_accesses_pipe_lsu_mem_global_op_red.sum                                                              978
    l1tex__t_set_accesses_pipe_tex_mem_surface_op_atom.sum                                                              0
    l1tex__t_set_accesses_pipe_tex_mem_surface_op_red.sum                                                               0
    l1tex__tex_writeback_active.avg.pct_of_peak_sustained_active                         %                              0
    l1tex__texin_sm2tex_req_cycles_active.avg.pct_of_peak_sustained_elapse               %                           0.00
    d                                                                                                                    
    lts__t_bytes_equiv_l1sectormiss_pipe_lsu_mem_global_op_ld.sum                    Mbyte                           3.44
    lts__t_bytes_equiv_l1sectormiss_pipe_lsu_mem_global_op_st.sum                    Kbyte                         147.20
    lts__t_bytes_equiv_l1sectormiss_pipe_lsu_mem_surface_op_st.sum                                                (!) n/a
    lts__t_bytes_equiv_l1sectormiss_pipe_tex_mem_surface_op_ld.sum                    byte                              0
    lts__t_sector_hit_rate.pct                                                           %                          81.19
    lts__t_sector_op_read_hit_rate.pct                                                   %                          63.25
    lts__t_sector_op_write_hit_rate.pct                                                  %                          99.42
    lts__t_sectors.avg.pct_of_peak_sustained_elapsed                                     %                           0.01
    lts__t_sectors_aperture_sysmem_op_read.sum                                      sector                              0
    lts__t_sectors_aperture_sysmem_op_read.sum.per_second                    sector/second                              0
    lts__t_sectors_aperture_sysmem_op_write.sum                                     sector                              9
    lts__t_sectors_aperture_sysmem_op_write.sum.per_second                   sector/second                         215.93
    lts__t_sectors_op_read.sum                                                      sector                        179,975
    lts__t_sectors_op_read.sum.per_second                                   sector/usecond                           4.32
    lts__t_sectors_op_write.sum                                                     sector                        135,300
    lts__t_sectors_op_write.sum.per_second                                  sector/usecond                           3.25
    lts__t_sectors_srcunit_l1_op_atom.sum                                           sector                              0
    lts__t_sectors_srcunit_l1_op_atom.sum.per_second                         sector/second                              0
    lts__t_sectors_srcunit_tex_op_read.sum                                          sector                        107,441
    lts__t_sectors_srcunit_tex_op_read.sum.per_second                       sector/usecond                           2.58
    sm__mio2rf_writeback_active.avg.pct_of_peak_sustained_elapsed                        %                           0.00
    sm__pipe_tensor_cycles_active.avg.pct_of_peak_sustained_active                       %                              0
    sm__warps_active.avg.pct_of_peak_sustained_active                                    %                           1.56
    smsp__average_inst_executed_per_warp.ratio                                   inst/warp                      1,659,923
    smsp__cycles_active.avg.pct_of_peak_sustained_elapsed                                %                           0.23
    smsp__inst_executed.avg.per_cycle_active                                    inst/cycle                           0.05
    smsp__inst_executed.sum                                                           inst                      1,659,923
    smsp__inst_executed_op_global_atom.sum                                                                        (!) n/a
    smsp__inst_executed_op_global_ld.sum                                              inst                            984
    smsp__inst_executed_op_global_st.sum                                              inst                            496
    smsp__inst_executed_op_local_ld.sum                                               inst                         69,573
    smsp__inst_executed_op_shared_atom.sum                                            inst                              0
    smsp__inst_executed_op_shared_atom_dot_alu.sum                                    inst                              0
    smsp__inst_executed_op_shared_atom_dot_cas.sum                                    inst                              0
    smsp__inst_executed_op_shared_ld.avg.pct_of_peak_sustained_elapsed                   %                              0
    smsp__inst_executed_op_shared_ld.sum                                              inst                              0
    smsp__inst_executed_op_shared_ld.sum.per_second                            inst/second                              0
    smsp__inst_executed_op_shared_st.avg.pct_of_peak_sustained_elapsed                   %                              0
    smsp__inst_executed_op_shared_st.sum                                              inst                              0
    smsp__inst_executed_op_shared_st.sum.per_second                            inst/second                              0
    smsp__inst_executed_op_surface_atom.sum                                           inst                              0
    smsp__inst_executed_op_surface_ld.sum                                             inst                              0
    smsp__inst_executed_op_surface_red.sum                                            inst                              0
    smsp__inst_executed_op_surface_st.sum                                             inst                              0
    smsp__inst_executed_op_texture.sum                                                inst                              0
    smsp__inst_executed_pipe_adu.sum                                                  inst                         27,355
    smsp__inst_executed_pipe_cbu.sum                                                  inst                        216,128
    smsp__inst_executed_pipe_fp16.sum                                                 inst                              0
    smsp__inst_executed_pipe_fp64.avg.pct_of_peak_sustained_active                       %                              0
    smsp__inst_executed_pipe_lsu.avg.pct_of_peak_sustained_active                        %                           0.89
    smsp__inst_executed_pipe_tex.avg.pct_of_peak_sustained_active                        %                              0
    smsp__inst_issued.avg.per_cycle_active                                      inst/cycle                           0.05
    smsp__inst_issued.sum                                                             inst                      1,669,928
    smsp__issue_active.avg.pct_of_peak_sustained_active                                  %                           5.24
    smsp__sass_thread_inst_executed_op_control_pred_on.sum                            inst                          5,870
    smsp__sass_thread_inst_executed_op_dadd_pred_on.sum                               inst                              0
    smsp__sass_thread_inst_executed_op_dfma_pred_on.sum                               inst                              0
    smsp__sass_thread_inst_executed_op_dmul_pred_on.sum                               inst                              0
    smsp__sass_thread_inst_executed_op_fadd_pred_on.sum                               inst                          1,214
    smsp__sass_thread_inst_executed_op_ffma_pred_on.sum                               inst                          4,133
    smsp__sass_thread_inst_executed_op_fmul_pred_on.sum                               inst                          1,493
    smsp__sass_thread_inst_executed_op_fp16_pred_on.sum                               inst                              0
    smsp__sass_thread_inst_executed_op_fp32_pred_on.sum                               inst                          7,511
    smsp__sass_thread_inst_executed_op_fp64_pred_on.sum                               inst                              0
    smsp__sass_thread_inst_executed_op_hadd_pred_on.sum                               inst                              0
    smsp__sass_thread_inst_executed_op_hfma_pred_on.sum                               inst                              0
    smsp__sass_thread_inst_executed_op_hmul_pred_on.sum                               inst                              0
    smsp__sass_thread_inst_executed_op_integer_pred_on.sum                            inst                         39,552
    smsp__sass_thread_inst_executed_op_inter_thread_communication_pred_on.            inst                              0
    sum                                                                                                                  
    smsp__sass_thread_inst_executed_op_memory_pred_on.sum                             inst                          4,037
    smsp__sass_thread_inst_executed_op_misc_pred_on.sum                               inst                          5,133
    smsp__sass_thread_inst_executed_op_mufu_pred_on.sum                                                           (!) n/a
    smsp__thread_inst_executed_per_inst_executed.pct                                     %                           3.12
    smsp__thread_inst_executed_per_inst_executed.ratio                                                                  1
    smsp__warp_issue_stalled_drain_miss_per_warp_active.pct                                                       (!) n/a
    smsp__warp_issue_stalled_imc_miss_per_warp_active.pct                                %                           0.00
    smsp__warp_issue_stalled_long_scoreboard_miss_per_warp_active.pct                                             (!) n/a
    smsp__warp_issue_stalled_misc_membar_per_warp_active.pct                                                      (!) n/a
    smsp__warp_issue_stalled_misc_mio_throttle_per_warp_active.pct                                                (!) n/a
    smsp__warp_issue_stalled_misc_miss_per_warp_active.pct                                                        (!) n/a
    smsp__warp_issue_stalled_misc_sleeping_per_warp_active.pct                                                    (!) n/a
    smsp__warp_issue_stalled_misc_tex_throttle_per_warp_active.pct                                                (!) n/a
    smsp__warp_issue_stalled_no_instruction_miss_per_warp_active.pct                                              (!) n/a
    smsp__warp_issue_stalled_short_scoreboard_miss_per_warp_active.pct                                            (!) n/a
    smsp__warps_eligible.sum.per_cycle_active                                         warp                          22.65
    ---------------------------------------------------------------------- --------------- ------------------------------

  render_init(int, int, curandStateXORWOW*), 2023-Mar-22 20:54:41, Context 1, Stream 7
    Section: Command line profiler metrics
    ---------------------------------------------------------------------- --------------- ------------------------------
    dram__bytes_read.sum                                                             Gbyte                         984.71
    dram__bytes_read.sum.per_second                                           Tbyte/second                           1.23
    dram__bytes_write.sum                                                            Gbyte                          31.71
    dram__bytes_write.sum.per_second                                          Gbyte/second                          39.66
    dram__sectors_read.sum                                                          sector                 30,772,313,508
    dram__sectors_write.sum                                                         sector                    990,814,220
    l1tex__f_tex2sm_cycles_active.avg.pct_of_peak_sustained_elapsed                      %                              0
    l1tex__lsu_writeback_active.avg.pct_of_peak_sustained_active                         %                          12.69
    l1tex__lsu_writeback_active.sum                                                  cycle                  8,195,055,187
    l1tex__t_bytes_pipe_lsu_mem_global_op_ld.sum.per_second                   Gbyte/second                          17.70
    l1tex__t_bytes_pipe_lsu_mem_global_op_st.sum                                     Mbyte                         335.92
    l1tex__t_bytes_pipe_lsu_mem_global_op_st.sum.per_second                   Mbyte/second                         420.17
    l1tex__t_bytes_pipe_lsu_mem_local_op_ld.sum.per_second                    Tbyte/second                           1.23
    l1tex__t_requests_pipe_lsu_mem_global_op_atom.sum                              request                              0
    l1tex__t_requests_pipe_lsu_mem_global_op_ld.sum                                request                    442,334,790
    l1tex__t_requests_pipe_lsu_mem_global_op_red.sum                               request                              0
    l1tex__t_requests_pipe_lsu_mem_global_op_st.sum                                request                        330,480
    l1tex__t_requests_pipe_lsu_mem_local_op_ld.sum                                 request                  7,752,572,973
    l1tex__t_requests_pipe_lsu_mem_local_op_st.sum                                 request                    504,597,480
    l1tex__t_requests_pipe_tex_mem_surface_op_atom.sum                             request                              0
    l1tex__t_requests_pipe_tex_mem_surface_op_ld.sum                               request                              0
    l1tex__t_requests_pipe_tex_mem_surface_op_red.sum                              request                              0
    l1tex__t_requests_pipe_tex_mem_surface_op_st.sum                               request                              0
    l1tex__t_requests_pipe_tex_mem_texture.sum                                     request                              0
    l1tex__t_sector_hit_rate.pct                                                         %                           4.95
    l1tex__t_sectors_pipe_lsu_mem_global_op.sum                                                                   (!) n/a
    l1tex__t_sectors_pipe_lsu_mem_global_op_ld.sum                                  sector                    442,334,790
    l1tex__t_sectors_pipe_lsu_mem_global_op_lookup_hit.sum                                                        (!) n/a
    l1tex__t_sectors_pipe_lsu_mem_local_op_ld.sum                                   sector                 30,776,592,875
    l1tex__t_sectors_pipe_lsu_mem_local_op_st.sum                                   sector                  1,999,024,563
    l1tex__t_sectors_pipe_lsu_mem_local_op_st.sum.per_second                sector/nsecond                           2.50
    l1tex__t_set_accesses_pipe_lsu_mem_global_op_atom.sum                                                               0
    l1tex__t_set_accesses_pipe_lsu_mem_global_op_red.sum                                                                0
    l1tex__t_set_accesses_pipe_tex_mem_surface_op_atom.sum                                                              0
    l1tex__t_set_accesses_pipe_tex_mem_surface_op_red.sum                                                               0
    l1tex__tex_writeback_active.avg.pct_of_peak_sustained_active                         %                              0
    l1tex__texin_sm2tex_req_cycles_active.avg.pct_of_peak_sustained_elapse               %                           0.00
    d                                                                                                                    
    lts__t_bytes_equiv_l1sectormiss_pipe_lsu_mem_global_op_ld.sum                    Mbyte                          44.67
    lts__t_bytes_equiv_l1sectormiss_pipe_lsu_mem_global_op_st.sum                    Mbyte                          75.54
    lts__t_bytes_equiv_l1sectormiss_pipe_lsu_mem_surface_op_st.sum                                                (!) n/a
    lts__t_bytes_equiv_l1sectormiss_pipe_tex_mem_surface_op_ld.sum                    byte                              0
    lts__t_sector_hit_rate.pct                                                           %                          28.96
    lts__t_sector_op_read_hit_rate.pct                                                   %                           0.10
    lts__t_sector_op_write_hit_rate.pct                                                  %                          99.79
    lts__t_sectors.avg.pct_of_peak_sustained_elapsed                                     %                          65.92
    lts__t_sectors_aperture_sysmem_op_read.sum                                      sector                              0
    lts__t_sectors_aperture_sysmem_op_read.sum.per_second                    sector/second                              0
    lts__t_sectors_aperture_sysmem_op_write.sum                                     sector                             55
    lts__t_sectors_aperture_sysmem_op_write.sum.per_second                   sector/second                          68.79
    lts__t_sectors_op_read.sum                                                      sector                 45,960,812,060
    lts__t_sectors_op_read.sum.per_second                                   sector/nsecond                          57.49
    lts__t_sectors_op_write.sum                                                     sector                  3,010,064,093
    lts__t_sectors_op_write.sum.per_second                                  sector/nsecond                           3.76
    lts__t_sectors_srcunit_l1_op_atom.sum                                           sector                              0
    lts__t_sectors_srcunit_l1_op_atom.sum.per_second                         sector/second                              0
    lts__t_sectors_srcunit_tex_op_read.sum                                          sector                 30,586,405,399
    lts__t_sectors_srcunit_tex_op_read.sum.per_second                       sector/nsecond                          38.26
    sm__mio2rf_writeback_active.avg.pct_of_peak_sustained_elapsed                        %                           6.19
    sm__pipe_tensor_cycles_active.avg.pct_of_peak_sustained_active                       %                              0
    sm__warps_active.avg.pct_of_peak_sustained_active                                    %                          94.62
    smsp__average_inst_executed_per_warp.ratio                                   inst/warp                     736,518.79
    smsp__cycles_active.avg.pct_of_peak_sustained_elapsed                                %                          97.53
    smsp__inst_executed.avg.per_cycle_active                                    inst/cycle                           0.11
    smsp__inst_executed.sum                                                           inst                 27,245,303,253
    smsp__inst_executed_op_global_atom.sum                                                                        (!) n/a
    smsp__inst_executed_op_global_ld.sum                                              inst                    494,376,000
    smsp__inst_executed_op_global_st.sum                                              inst                        330,480
    smsp__inst_executed_op_local_ld.sum                                               inst                  9,098,877,786
    smsp__inst_executed_op_shared_atom.sum                                            inst                              0
    smsp__inst_executed_op_shared_atom_dot_alu.sum                                    inst                              0
    smsp__inst_executed_op_shared_atom_dot_cas.sum                                    inst                              0
    smsp__inst_executed_op_shared_ld.avg.pct_of_peak_sustained_elapsed                   %                              0
    smsp__inst_executed_op_shared_ld.sum                                              inst                              0
    smsp__inst_executed_op_shared_ld.sum.per_second                            inst/second                              0
    smsp__inst_executed_op_shared_st.avg.pct_of_peak_sustained_elapsed                   %                              0
    smsp__inst_executed_op_shared_st.sum                                              inst                              0
    smsp__inst_executed_op_shared_st.sum.per_second                            inst/second                              0
    smsp__inst_executed_op_surface_atom.sum                                           inst                              0
    smsp__inst_executed_op_surface_ld.sum                                             inst                              0
    smsp__inst_executed_op_surface_red.sum                                            inst                              0
    smsp__inst_executed_op_surface_st.sum                                             inst                              0
    smsp__inst_executed_op_texture.sum                                                inst                              0
    smsp__inst_executed_pipe_adu.sum                                                  inst                        147,424
    smsp__inst_executed_pipe_cbu.sum                                                  inst                    157,093,797
    smsp__inst_executed_pipe_fp16.sum                                                 inst                              0
    smsp__inst_executed_pipe_fp64.avg.pct_of_peak_sustained_active                       %                              0
    smsp__inst_executed_pipe_lsu.avg.pct_of_peak_sustained_active                        %                           3.85
    smsp__inst_executed_pipe_tex.avg.pct_of_peak_sustained_active                        %                              0
    smsp__inst_issued.avg.per_cycle_active                                      inst/cycle                           0.11
    smsp__inst_issued.sum                                                             inst                 27,245,346,781
    smsp__issue_active.avg.pct_of_peak_sustained_active                                  %                          10.55
    smsp__sass_thread_inst_executed_op_control_pred_on.sum                            inst                  7,210,255,976
    smsp__sass_thread_inst_executed_op_dadd_pred_on.sum                               inst                              0
    smsp__sass_thread_inst_executed_op_dfma_pred_on.sum                               inst                              0
    smsp__sass_thread_inst_executed_op_dmul_pred_on.sum                               inst                              0
    smsp__sass_thread_inst_executed_op_fadd_pred_on.sum                               inst                              0
    smsp__sass_thread_inst_executed_op_ffma_pred_on.sum                               inst                              0
    smsp__sass_thread_inst_executed_op_fmul_pred_on.sum                               inst                              0
    smsp__sass_thread_inst_executed_op_fp16_pred_on.sum                               inst                              0
    smsp__sass_thread_inst_executed_op_fp32_pred_on.sum                               inst                              0
    smsp__sass_thread_inst_executed_op_fp64_pred_on.sum                               inst                              0
    smsp__sass_thread_inst_executed_op_hadd_pred_on.sum                               inst                              0
    smsp__sass_thread_inst_executed_op_hfma_pred_on.sum                               inst                              0
    smsp__sass_thread_inst_executed_op_hmul_pred_on.sum                               inst                              0
    smsp__sass_thread_inst_executed_op_integer_pred_on.sum                            inst                279,860,551,524
    smsp__sass_thread_inst_executed_op_inter_thread_communication_pred_on.            inst                              0
    sum                                                                                                                  
    smsp__sass_thread_inst_executed_op_memory_pred_on.sum                             inst                161,254,238,747
    smsp__sass_thread_inst_executed_op_misc_pred_on.sum                               inst                  1,778,361,952
    smsp__sass_thread_inst_executed_op_mufu_pred_on.sum                                                           (!) n/a
    smsp__thread_inst_executed_per_inst_executed.pct                                     %                          96.94
    smsp__thread_inst_executed_per_inst_executed.ratio                                                              31.02
    smsp__warp_issue_stalled_drain_miss_per_warp_active.pct                                                       (!) n/a
    smsp__warp_issue_stalled_imc_miss_per_warp_active.pct                                %                           0.00
    smsp__warp_issue_stalled_long_scoreboard_miss_per_warp_active.pct                                             (!) n/a
    smsp__warp_issue_stalled_misc_membar_per_warp_active.pct                                                      (!) n/a
    smsp__warp_issue_stalled_misc_mio_throttle_per_warp_active.pct                                                (!) n/a
    smsp__warp_issue_stalled_misc_miss_per_warp_active.pct                                                        (!) n/a
    smsp__warp_issue_stalled_misc_sleeping_per_warp_active.pct                                                    (!) n/a
    smsp__warp_issue_stalled_misc_tex_throttle_per_warp_active.pct                                                (!) n/a
    smsp__warp_issue_stalled_no_instruction_miss_per_warp_active.pct                                              (!) n/a
    smsp__warp_issue_stalled_short_scoreboard_miss_per_warp_active.pct                                            (!) n/a
    smsp__warps_eligible.sum.per_cycle_active                                         warp                         125.50
    ---------------------------------------------------------------------- --------------- ------------------------------

  render(vec3*, int, int, int, camera**, hitable**, curandStateXORWOW*), 2023-Mar-22 21:06:16, Context 1, Stream 7
    Section: Command line profiler metrics
    ---------------------------------------------------------------------- --------------- ------------------------------
    dram__bytes_read.sum                                                             Gbyte                          47.24
    dram__bytes_read.sum.per_second                                           Gbyte/second                           1.50
    dram__bytes_write.sum                                                            Gbyte                         211.17
    dram__bytes_write.sum.per_second                                          Gbyte/second                           6.69
    dram__sectors_read.sum                                                          sector                  1,476,265,968
    dram__sectors_write.sum                                                         sector                  6,599,114,368
    l1tex__f_tex2sm_cycles_active.avg.pct_of_peak_sustained_elapsed                      %                              0
    l1tex__lsu_writeback_active.avg.pct_of_peak_sustained_active                         %                          30.86
    l1tex__lsu_writeback_active.sum                                                  cycle                628,552,217,868
    l1tex__t_bytes_pipe_lsu_mem_global_op_ld.sum.per_second                   Gbyte/second                         138.00
    l1tex__t_bytes_pipe_lsu_mem_global_op_st.sum                                     Mbyte                         265.94
    l1tex__t_bytes_pipe_lsu_mem_global_op_st.sum.per_second                   Mbyte/second                           8.42
    l1tex__t_bytes_pipe_lsu_mem_local_op_ld.sum.per_second                    Tbyte/second                           1.18
    l1tex__t_requests_pipe_lsu_mem_global_op_atom.sum                              request                              0
    l1tex__t_requests_pipe_lsu_mem_global_op_ld.sum                                request                136,138,282,030
    l1tex__t_requests_pipe_lsu_mem_global_op_red.sum                               request                              0
    l1tex__t_requests_pipe_lsu_mem_global_op_st.sum                                request                        330,480
    l1tex__t_requests_pipe_lsu_mem_local_op_ld.sum                                 request                431,248,875,287
    l1tex__t_requests_pipe_lsu_mem_local_op_st.sum                                 request                315,054,141,178
    l1tex__t_requests_pipe_tex_mem_surface_op_atom.sum                             request                              0
    l1tex__t_requests_pipe_tex_mem_surface_op_ld.sum                               request                              0
    l1tex__t_requests_pipe_tex_mem_surface_op_red.sum                              request                              0
    l1tex__t_requests_pipe_tex_mem_surface_op_st.sum                               request                              0
    l1tex__t_requests_pipe_tex_mem_texture.sum                                     request                              0
    l1tex__t_sector_hit_rate.pct                                                         %                          97.76
    l1tex__t_sectors_pipe_lsu_mem_global_op.sum                                                                   (!) n/a
    l1tex__t_sectors_pipe_lsu_mem_global_op_ld.sum                                  sector                136,213,510,638
    l1tex__t_sectors_pipe_lsu_mem_global_op_lookup_hit.sum                                                        (!) n/a
    l1tex__t_sectors_pipe_lsu_mem_local_op_ld.sum                                   sector              1,160,216,502,852
    l1tex__t_sectors_pipe_lsu_mem_local_op_st.sum                                   sector                846,754,374,090
    l1tex__t_sectors_pipe_lsu_mem_local_op_st.sum.per_second                sector/nsecond                          26.81
    l1tex__t_set_accesses_pipe_lsu_mem_global_op_atom.sum                                                               0
    l1tex__t_set_accesses_pipe_lsu_mem_global_op_red.sum                                                                0
    l1tex__t_set_accesses_pipe_tex_mem_surface_op_atom.sum                                                              0
    l1tex__t_set_accesses_pipe_tex_mem_surface_op_red.sum                                                               0
    l1tex__tex_writeback_active.avg.pct_of_peak_sustained_active                         %                              0
    l1tex__texin_sm2tex_req_cycles_active.avg.pct_of_peak_sustained_elapse               %                           0.00
    d                                                                                                                    
    lts__t_bytes_equiv_l1sectormiss_pipe_lsu_mem_global_op_ld.sum                    Gbyte                          56.74
    lts__t_bytes_equiv_l1sectormiss_pipe_lsu_mem_global_op_st.sum                    Mbyte                          51.31
    lts__t_bytes_equiv_l1sectormiss_pipe_lsu_mem_surface_op_st.sum                                                (!) n/a
    lts__t_bytes_equiv_l1sectormiss_pipe_tex_mem_surface_op_ld.sum                    byte                              0
    lts__t_sector_hit_rate.pct                                                           %                          99.94
    lts__t_sector_op_read_hit_rate.pct                                                   %                          93.64
    lts__t_sector_op_write_hit_rate.pct                                                  %                         100.07
    lts__t_sectors.avg.pct_of_peak_sustained_elapsed                                     %                          35.73
    lts__t_sectors_aperture_sysmem_op_read.sum                                      sector                         29,560
    lts__t_sectors_aperture_sysmem_op_read.sum.per_second                    sector/second                         935.87
    lts__t_sectors_aperture_sysmem_op_write.sum                                     sector                         20,567
    lts__t_sectors_aperture_sysmem_op_write.sum.per_second                   sector/second                         651.15
    lts__t_sectors_op_read.sum                                                      sector                 29,489,667,371
    lts__t_sectors_op_read.sum.per_second                                   sector/usecond                         933.64
    lts__t_sectors_op_write.sum                                                     sector              1,272,981,736,199
    lts__t_sectors_op_write.sum.per_second                                  sector/nsecond                          40.30
    lts__t_sectors_srcunit_l1_op_atom.sum                                           sector                              0
    lts__t_sectors_srcunit_l1_op_atom.sum.per_second                         sector/second                              0
    lts__t_sectors_srcunit_tex_op_read.sum                                          sector                 28,569,421,774
    lts__t_sectors_srcunit_tex_op_read.sum.per_second                       sector/usecond                         904.51
    sm__mio2rf_writeback_active.avg.pct_of_peak_sustained_elapsed                        %                          13.07
    sm__pipe_tensor_cycles_active.avg.pct_of_peak_sustained_active                       %                              0
    sm__warps_active.avg.pct_of_peak_sustained_active                                    %                          42.44
    smsp__average_inst_executed_per_warp.ratio                                   inst/warp                  57,571,303.77
    smsp__cycles_active.avg.pct_of_peak_sustained_elapsed                                %                          76.31
    smsp__inst_executed.avg.per_cycle_active                                    inst/cycle                           0.27
    smsp__inst_executed.sum                                                           inst              2,129,677,668,892
    smsp__inst_executed_op_global_atom.sum                                                                        (!) n/a
    smsp__inst_executed_op_global_ld.sum                                              inst                     47,220,463
    smsp__inst_executed_op_global_st.sum                                              inst                        330,480
    smsp__inst_executed_op_local_ld.sum                                               inst                313,562,127,405
    smsp__inst_executed_op_shared_atom.sum                                            inst                              0
    smsp__inst_executed_op_shared_atom_dot_alu.sum                                    inst                              0
    smsp__inst_executed_op_shared_atom_dot_cas.sum                                    inst                              0
    smsp__inst_executed_op_shared_ld.avg.pct_of_peak_sustained_elapsed                   %                              0
    smsp__inst_executed_op_shared_ld.sum                                              inst                              0
    smsp__inst_executed_op_shared_ld.sum.per_second                            inst/second                              0
    smsp__inst_executed_op_shared_st.avg.pct_of_peak_sustained_elapsed                   %                              0
    smsp__inst_executed_op_shared_st.sum                                              inst                              0
    smsp__inst_executed_op_shared_st.sum.per_second                            inst/second                              0
    smsp__inst_executed_op_surface_atom.sum                                           inst                              0
    smsp__inst_executed_op_surface_ld.sum                                             inst                              0
    smsp__inst_executed_op_surface_red.sum                                            inst                              0
    smsp__inst_executed_op_surface_st.sum                                             inst                              0
    smsp__inst_executed_op_texture.sum                                                inst                              0
    smsp__inst_executed_pipe_adu.sum                                                  inst                 19,424,344,489
    smsp__inst_executed_pipe_cbu.sum                                                  inst                256,653,584,171
    smsp__inst_executed_pipe_fp16.sum                                                 inst                              0
    smsp__inst_executed_pipe_fp64.avg.pct_of_peak_sustained_active                       %                              0
    smsp__inst_executed_pipe_lsu.avg.pct_of_peak_sustained_active                        %                          11.03
    smsp__inst_executed_pipe_tex.avg.pct_of_peak_sustained_active                        %                              0
    smsp__inst_issued.avg.per_cycle_active                                      inst/cycle                           0.27
    smsp__inst_issued.sum                                                             inst              2,149,183,411,950
    smsp__issue_active.avg.pct_of_peak_sustained_active                                  %                          26.91
    smsp__sass_thread_inst_executed_op_control_pred_on.sum                            inst              2,994,303,461,583
    smsp__sass_thread_inst_executed_op_dadd_pred_on.sum                               inst                              0
    smsp__sass_thread_inst_executed_op_dfma_pred_on.sum                               inst                              0
    smsp__sass_thread_inst_executed_op_dmul_pred_on.sum                               inst                              0
    smsp__sass_thread_inst_executed_op_fadd_pred_on.sum                               inst                823,662,366,988
    smsp__sass_thread_inst_executed_op_ffma_pred_on.sum                               inst              2,197,643,961,384
    smsp__sass_thread_inst_executed_op_fmul_pred_on.sum                               inst              1,085,318,960,372
    smsp__sass_thread_inst_executed_op_fp16_pred_on.sum                               inst                              0
    smsp__sass_thread_inst_executed_op_fp32_pred_on.sum                               inst              4,384,807,332,028
    smsp__sass_thread_inst_executed_op_fp64_pred_on.sum                               inst                              0
    smsp__sass_thread_inst_executed_op_hadd_pred_on.sum                               inst                              0
    smsp__sass_thread_inst_executed_op_hfma_pred_on.sum                               inst                              0
    smsp__sass_thread_inst_executed_op_hmul_pred_on.sum                               inst                              0
    smsp__sass_thread_inst_executed_op_integer_pred_on.sum                            inst              4,635,127,041,404
    smsp__sass_thread_inst_executed_op_inter_thread_communication_pred_on.            inst                              0
    sum                                                                                                                  
    smsp__sass_thread_inst_executed_op_memory_pred_on.sum                             inst             12,484,987,333,714
    smsp__sass_thread_inst_executed_op_misc_pred_on.sum                               inst              3,544,461,614,605
    smsp__sass_thread_inst_executed_op_mufu_pred_on.sum                                                           (!) n/a
    smsp__thread_inst_executed_per_inst_executed.pct                                     %                          43.16
    smsp__thread_inst_executed_per_inst_executed.ratio                                                              13.81
    smsp__warp_issue_stalled_drain_miss_per_warp_active.pct                                                       (!) n/a
    smsp__warp_issue_stalled_imc_miss_per_warp_active.pct                                %                           0.00
    smsp__warp_issue_stalled_long_scoreboard_miss_per_warp_active.pct                                             (!) n/a
    smsp__warp_issue_stalled_misc_membar_per_warp_active.pct                                                      (!) n/a
    smsp__warp_issue_stalled_misc_mio_throttle_per_warp_active.pct                                                (!) n/a
    smsp__warp_issue_stalled_misc_miss_per_warp_active.pct                                                        (!) n/a
    smsp__warp_issue_stalled_misc_sleeping_per_warp_active.pct                                                    (!) n/a
    smsp__warp_issue_stalled_misc_tex_throttle_per_warp_active.pct                                                (!) n/a
    smsp__warp_issue_stalled_no_instruction_miss_per_warp_active.pct                                              (!) n/a
    smsp__warp_issue_stalled_short_scoreboard_miss_per_warp_active.pct                                            (!) n/a
    smsp__warps_eligible.sum.per_cycle_active                                         warp                         303.33
    ---------------------------------------------------------------------- --------------- ------------------------------

  free_world(hitable**, hitable**, camera**), 2023-Mar-22 21:06:19, Context 1, Stream 7
    Section: Command line profiler metrics
    ---------------------------------------------------------------------- --------------- ------------------------------
    dram__bytes_read.sum                                                             Kbyte                         122.11
    dram__bytes_read.sum.per_second                                           Mbyte/second                           3.17
    dram__bytes_write.sum                                                             byte                              0
    dram__bytes_write.sum.per_second                                           byte/second                              0
    dram__sectors_read.sum                                                          sector                          3,816
    dram__sectors_write.sum                                                         sector                              0
    l1tex__f_tex2sm_cycles_active.avg.pct_of_peak_sustained_elapsed                      %                              0
    l1tex__lsu_writeback_active.avg.pct_of_peak_sustained_active                         %                           0.60
    l1tex__lsu_writeback_active.sum                                                  cycle                        176,574
    l1tex__t_bytes_pipe_lsu_mem_global_op_ld.sum.per_second                   Mbyte/second                          94.38
    l1tex__t_bytes_pipe_lsu_mem_global_op_st.sum                                     Kbyte                           2.69
    l1tex__t_bytes_pipe_lsu_mem_global_op_st.sum.per_second                   Kbyte/second                          69.74
    l1tex__t_bytes_pipe_lsu_mem_local_op_ld.sum.per_second                    Mbyte/second                          37.52
    l1tex__t_requests_pipe_lsu_mem_global_op_atom.sum                              request                          6,930
    l1tex__t_requests_pipe_lsu_mem_global_op_ld.sum                                request                        113,688
    l1tex__t_requests_pipe_lsu_mem_global_op_red.sum                               request                            978
    l1tex__t_requests_pipe_lsu_mem_global_op_st.sum                                request                             84
    l1tex__t_requests_pipe_lsu_mem_local_op_ld.sum                                 request                         45,198
    l1tex__t_requests_pipe_lsu_mem_local_op_st.sum                                 request                         44,220
    l1tex__t_requests_pipe_tex_mem_surface_op_atom.sum                             request                              0
    l1tex__t_requests_pipe_tex_mem_surface_op_ld.sum                               request                              0
    l1tex__t_requests_pipe_tex_mem_surface_op_red.sum                              request                              0
    l1tex__t_requests_pipe_tex_mem_surface_op_st.sum                               request                              0
    l1tex__t_requests_pipe_tex_mem_texture.sum                                     request                              0
    l1tex__t_sector_hit_rate.pct                                                         %                          42.76
    l1tex__t_sectors_pipe_lsu_mem_global_op.sum                                                                   (!) n/a
    l1tex__t_sectors_pipe_lsu_mem_global_op_ld.sum                                  sector                        113,688
    l1tex__t_sectors_pipe_lsu_mem_global_op_lookup_hit.sum                                                        (!) n/a
    l1tex__t_sectors_pipe_lsu_mem_local_op_ld.sum                                   sector                         45,198
    l1tex__t_sectors_pipe_lsu_mem_local_op_st.sum                                   sector                         44,220
    l1tex__t_sectors_pipe_lsu_mem_local_op_st.sum.per_second                sector/usecond                           1.15
    l1tex__t_set_accesses_pipe_lsu_mem_global_op_atom.sum                                                           6,930
    l1tex__t_set_accesses_pipe_lsu_mem_global_op_red.sum                                                              978
    l1tex__t_set_accesses_pipe_tex_mem_surface_op_atom.sum                                                              0
    l1tex__t_set_accesses_pipe_tex_mem_surface_op_red.sum                                                               0
    l1tex__tex_writeback_active.avg.pct_of_peak_sustained_active                         %                              0
    l1tex__texin_sm2tex_req_cycles_active.avg.pct_of_peak_sustained_elapse               %                           0.00
    d                                                                                                                    
    lts__t_bytes_equiv_l1sectormiss_pipe_lsu_mem_global_op_ld.sum                    Mbyte                           3.61
    lts__t_bytes_equiv_l1sectormiss_pipe_lsu_mem_global_op_st.sum                    Kbyte                           1.34
    lts__t_bytes_equiv_l1sectormiss_pipe_lsu_mem_surface_op_st.sum                                                (!) n/a
    lts__t_bytes_equiv_l1sectormiss_pipe_tex_mem_surface_op_ld.sum                    byte                              0
    lts__t_sector_hit_rate.pct                                                           %                          77.72
    lts__t_sector_op_read_hit_rate.pct                                                   %                          71.08
    lts__t_sector_op_write_hit_rate.pct                                                  %                          83.44
    lts__t_sectors.avg.pct_of_peak_sustained_elapsed                                     %                           0.01
    lts__t_sectors_aperture_sysmem_op_read.sum                                      sector                              0
    lts__t_sectors_aperture_sysmem_op_read.sum.per_second                    sector/second                              0
    lts__t_sectors_aperture_sysmem_op_write.sum                                     sector                             11
    lts__t_sectors_aperture_sysmem_op_write.sum.per_second                   sector/second                         285.38
    lts__t_sectors_op_read.sum                                                      sector                        164,097
    lts__t_sectors_op_read.sum.per_second                                   sector/usecond                           4.26
    lts__t_sectors_op_write.sum                                                     sector                         88,627
    lts__t_sectors_op_write.sum.per_second                                  sector/usecond                           2.30
    lts__t_sectors_srcunit_l1_op_atom.sum                                           sector                              0
    lts__t_sectors_srcunit_l1_op_atom.sum.per_second                         sector/second                              0
    lts__t_sectors_srcunit_tex_op_read.sum                                          sector                        112,834
    lts__t_sectors_srcunit_tex_op_read.sum.per_second                       sector/usecond                           2.93
    sm__mio2rf_writeback_active.avg.pct_of_peak_sustained_elapsed                        %                           0.00
    sm__pipe_tensor_cycles_active.avg.pct_of_peak_sustained_active                       %                              0
    sm__warps_active.avg.pct_of_peak_sustained_active                                    %                           1.56
    smsp__average_inst_executed_per_warp.ratio                                   inst/warp                      1,278,265
    smsp__cycles_active.avg.pct_of_peak_sustained_elapsed                                %                           0.23
    smsp__inst_executed.avg.per_cycle_active                                    inst/cycle                           0.04
    smsp__inst_executed.sum                                                           inst                      1,278,265
    smsp__inst_executed_op_global_atom.sum                                                                        (!) n/a
    smsp__inst_executed_op_global_ld.sum                                              inst                          1,956
    smsp__inst_executed_op_global_st.sum                                              inst                              0
    smsp__inst_executed_op_local_ld.sum                                               inst                         43,200
    smsp__inst_executed_op_shared_atom.sum                                            inst                              0
    smsp__inst_executed_op_shared_atom_dot_alu.sum                                    inst                              0
    smsp__inst_executed_op_shared_atom_dot_cas.sum                                    inst                              0
    smsp__inst_executed_op_shared_ld.avg.pct_of_peak_sustained_elapsed                   %                              0
    smsp__inst_executed_op_shared_ld.sum                                              inst                              0
    smsp__inst_executed_op_shared_ld.sum.per_second                            inst/second                              0
    smsp__inst_executed_op_shared_st.avg.pct_of_peak_sustained_elapsed                   %                              0
    smsp__inst_executed_op_shared_st.sum                                              inst                              0
    smsp__inst_executed_op_shared_st.sum.per_second                            inst/second                              0
    smsp__inst_executed_op_surface_atom.sum                                           inst                              0
    smsp__inst_executed_op_surface_ld.sum                                             inst                              0
    smsp__inst_executed_op_surface_red.sum                                            inst                              0
    smsp__inst_executed_op_surface_st.sum                                             inst                              0
    smsp__inst_executed_op_texture.sum                                                inst                              0
    smsp__inst_executed_pipe_adu.sum                                                  inst                         26,260
    smsp__inst_executed_pipe_cbu.sum                                                  inst                        149,885
    smsp__inst_executed_pipe_fp16.sum                                                 inst                              0
    smsp__inst_executed_pipe_fp64.avg.pct_of_peak_sustained_active                       %                              0
    smsp__inst_executed_pipe_lsu.avg.pct_of_peak_sustained_active                        %                           0.74
    smsp__inst_executed_pipe_tex.avg.pct_of_peak_sustained_active                        %                              0
    smsp__inst_issued.avg.per_cycle_active                                      inst/cycle                           0.04
    smsp__inst_issued.sum                                                             inst                      1,284,193
    smsp__issue_active.avg.pct_of_peak_sustained_active                                  %                           4.36
    smsp__sass_thread_inst_executed_op_control_pred_on.sum                            inst                          1,039
    smsp__sass_thread_inst_executed_op_dadd_pred_on.sum                               inst                              0
    smsp__sass_thread_inst_executed_op_dfma_pred_on.sum                               inst                              0
    smsp__sass_thread_inst_executed_op_dmul_pred_on.sum                               inst                              0
    smsp__sass_thread_inst_executed_op_fadd_pred_on.sum                               inst                              0
    smsp__sass_thread_inst_executed_op_ffma_pred_on.sum                               inst                              0
    smsp__sass_thread_inst_executed_op_fmul_pred_on.sum                               inst                              0
    smsp__sass_thread_inst_executed_op_fp16_pred_on.sum                               inst                              0
    smsp__sass_thread_inst_executed_op_fp32_pred_on.sum                               inst                              0
    smsp__sass_thread_inst_executed_op_fp64_pred_on.sum                               inst                              0
    smsp__sass_thread_inst_executed_op_hadd_pred_on.sum                               inst                              0
    smsp__sass_thread_inst_executed_op_hfma_pred_on.sum                               inst                              0
    smsp__sass_thread_inst_executed_op_hmul_pred_on.sum                               inst                              0
    smsp__sass_thread_inst_executed_op_integer_pred_on.sum                            inst                            251
    smsp__sass_thread_inst_executed_op_inter_thread_communication_pred_on.            inst                              0
    sum                                                                                                                  
    smsp__sass_thread_inst_executed_op_memory_pred_on.sum                             inst                          1,466
    smsp__sass_thread_inst_executed_op_misc_pred_on.sum                               inst                          1,956
    smsp__sass_thread_inst_executed_op_mufu_pred_on.sum                                                           (!) n/a
    smsp__thread_inst_executed_per_inst_executed.pct                                     %                           3.12
    smsp__thread_inst_executed_per_inst_executed.ratio                                                                  1
    smsp__warp_issue_stalled_drain_miss_per_warp_active.pct                                                       (!) n/a
    smsp__warp_issue_stalled_imc_miss_per_warp_active.pct                                %                           0.00
    smsp__warp_issue_stalled_long_scoreboard_miss_per_warp_active.pct                                             (!) n/a
    smsp__warp_issue_stalled_misc_membar_per_warp_active.pct                                                      (!) n/a
    smsp__warp_issue_stalled_misc_mio_throttle_per_warp_active.pct                                                (!) n/a
    smsp__warp_issue_stalled_misc_miss_per_warp_active.pct                                                        (!) n/a
    smsp__warp_issue_stalled_misc_sleeping_per_warp_active.pct                                                    (!) n/a
    smsp__warp_issue_stalled_misc_tex_throttle_per_warp_active.pct                                                (!) n/a
    smsp__warp_issue_stalled_no_instruction_miss_per_warp_active.pct                                              (!) n/a
    smsp__warp_issue_stalled_short_scoreboard_miss_per_warp_active.pct                                            (!) n/a
    smsp__warps_eligible.sum.per_cycle_active                                         warp                          18.83
    ---------------------------------------------------------------------- --------------- ------------------------------

wangpeng@rongtian-SYS-7049GP-TRT:~/t4-render-data/GPU-rendering-re-run/89-Dielectrics-defocus-blur-sample3$ 

