==PROF== Profiling "create_scene" - 1: 0%....50%....100% - 1 pass
==PROF== Profiling "render" - 2: 0%....50%....100% - 1 pass
Rendering Image: 100x100
Tempo de Execução: 2.84275 segundos
==PROF== Profiling "free_scene" - 3: 0%....50%....100% - 1 pass
==PROF== Disconnected from process 1048
[1048] a.out@127.0.0.1
  create_scene(hitable**, hitable**, camera**, int, int), 2023-Mar-02 00:19:42, Context 1, Stream 7
    Section: Command line profiler metrics
    ---------------------------------------------------------------------- --------------- ------------------------------
    dram__throughput.avg.pct_of_peak_sustained_elapsed                                   %                           0.00
    fe__draw_count.avg.pct_of_peak_sustained_elapsed                                                              (!) n/a
    gpc__cycles_elapsed.avg.per_second                                       cycle/usecond                         765.00
    gr__cycles_active.sum.pct_of_peak_sustained_elapsed                                  %                            100
    gr__dispatch_count.avg.pct_of_peak_sustained_elapsed                                                          (!) n/a
    gr__dispatch_cycles_active_queue_async.avg.pct_of_peak_sustained_elaps                                        (!) n/a
    ed                                                                                                                   
    gr__dispatch_cycles_active_queue_sync.avg.pct_of_peak_sustained_elapse                                        (!) n/a
    d                                                                                                                    
    pcie__read_bytes.avg.pct_of_peak_sustained_elapsed                                   %                              0
    pcie__rx_requests_aperture_bar1_op_read.sum                                                                   (!) n/a
    pcie__rx_requests_aperture_bar1_op_write.sum                                                                  (!) n/a
    pcie__write_bytes.avg.pct_of_peak_sustained_elapsed                                  %                           0.00
    sm__cycles_active.avg.pct_of_peak_sustained_elapsed                                  %                           0.93
    sm__inst_executed_realtime.avg.pct_of_peak_sustained_elapsed                                                  (!) n/a
    sm__pipe_shared_cycles_active_realtime.avg.pct_of_peak_sustained_elaps               %                              0
    ed                                                                                                                   
    sm__pipe_tensor_cycles_active_realtime.avg.pct_of_peak_sustained_elaps                                        (!) n/a
    ed                                                                                                                   
    sys__cycles_elapsed.avg.per_second                                       cycle/usecond                         780.00
    tpc__warps_active_shader_cs_realtime.avg.pct_of_peak_sustained_elapsed               %                           0.01
    tpc__warps_active_shader_ps_realtime.avg.pct_of_peak_sustained_elapsed                                        (!) n/a
    tpc__warps_active_shader_vtg_realtime.avg.pct_of_peak_sustained_elapse                                        (!) n/a
    d                                                                                                                    
    tpc__warps_inactive_sm_active_realtime.avg.pct_of_peak_sustained_elaps                                        (!) n/a
    ed                                                                                                                   
    tpc__warps_inactive_sm_idle_realtime.avg.pct_of_peak_sustained_elapsed                                        (!) n/a
    ---------------------------------------------------------------------- --------------- ------------------------------

  render(vec3*, int, int, int, hitable**, camera**), 2023-Mar-02 00:19:44, Context 1, Stream 7
    Section: Command line profiler metrics
    ---------------------------------------------------------------------- --------------- ------------------------------
    dram__throughput.avg.pct_of_peak_sustained_elapsed                                   %                           0.00
    fe__draw_count.avg.pct_of_peak_sustained_elapsed                                                              (!) n/a
    gpc__cycles_elapsed.avg.per_second                                       cycle/usecond                         765.00
    gr__cycles_active.sum.pct_of_peak_sustained_elapsed                                  %                            100
    gr__dispatch_count.avg.pct_of_peak_sustained_elapsed                                                          (!) n/a
    gr__dispatch_cycles_active_queue_async.avg.pct_of_peak_sustained_elaps                                        (!) n/a
    ed                                                                                                                   
    gr__dispatch_cycles_active_queue_sync.avg.pct_of_peak_sustained_elapse                                        (!) n/a
    d                                                                                                                    
    pcie__read_bytes.avg.pct_of_peak_sustained_elapsed                                   %                           0.00
    pcie__rx_requests_aperture_bar1_op_read.sum                                                                   (!) n/a
    pcie__rx_requests_aperture_bar1_op_write.sum                                                                  (!) n/a
    pcie__write_bytes.avg.pct_of_peak_sustained_elapsed                                  %                           0.00
    sm__cycles_active.avg.pct_of_peak_sustained_elapsed                                  %                          24.68
    sm__inst_executed_realtime.avg.pct_of_peak_sustained_elapsed                                                  (!) n/a
    sm__pipe_shared_cycles_active_realtime.avg.pct_of_peak_sustained_elaps               %                              0
    ed                                                                                                                   
    sm__pipe_tensor_cycles_active_realtime.avg.pct_of_peak_sustained_elaps                                        (!) n/a
    ed                                                                                                                   
    sys__cycles_elapsed.avg.per_second                                       cycle/usecond                         780.00
    tpc__warps_active_shader_cs_realtime.avg.pct_of_peak_sustained_elapsed               %                           0.77
    tpc__warps_active_shader_ps_realtime.avg.pct_of_peak_sustained_elapsed                                        (!) n/a
    tpc__warps_active_shader_vtg_realtime.avg.pct_of_peak_sustained_elapse                                        (!) n/a
    d                                                                                                                    
    tpc__warps_inactive_sm_active_realtime.avg.pct_of_peak_sustained_elaps                                        (!) n/a
    ed                                                                                                                   
    tpc__warps_inactive_sm_idle_realtime.avg.pct_of_peak_sustained_elapsed                                        (!) n/a
    ---------------------------------------------------------------------- --------------- ------------------------------

  free_scene(hitable**, hitable**, camera**), 2023-Mar-02 00:19:45, Context 1, Stream 7
    Section: Command line profiler metrics
    ---------------------------------------------------------------------- --------------- ------------------------------
    dram__throughput.avg.pct_of_peak_sustained_elapsed                                   %                           0.00
    fe__draw_count.avg.pct_of_peak_sustained_elapsed                                                              (!) n/a
    gpc__cycles_elapsed.avg.per_second                                       cycle/usecond                         765.00
    gr__cycles_active.sum.pct_of_peak_sustained_elapsed                                  %                            100
    gr__dispatch_count.avg.pct_of_peak_sustained_elapsed                                                          (!) n/a
    gr__dispatch_cycles_active_queue_async.avg.pct_of_peak_sustained_elaps                                        (!) n/a
    ed                                                                                                                   
    gr__dispatch_cycles_active_queue_sync.avg.pct_of_peak_sustained_elapse                                        (!) n/a
    d                                                                                                                    
    pcie__read_bytes.avg.pct_of_peak_sustained_elapsed                                   %                           0.00
    pcie__rx_requests_aperture_bar1_op_read.sum                                                                   (!) n/a
    pcie__rx_requests_aperture_bar1_op_write.sum                                                                  (!) n/a
    pcie__write_bytes.avg.pct_of_peak_sustained_elapsed                                  %                           0.00
    sm__cycles_active.avg.pct_of_peak_sustained_elapsed                                  %                           0.93
    sm__inst_executed_realtime.avg.pct_of_peak_sustained_elapsed                                                  (!) n/a
    sm__pipe_shared_cycles_active_realtime.avg.pct_of_peak_sustained_elaps               %                              0
    ed                                                                                                                   
    sm__pipe_tensor_cycles_active_realtime.avg.pct_of_peak_sustained_elaps                                        (!) n/a
    ed                                                                                                                   
    sys__cycles_elapsed.avg.per_second                                       cycle/usecond                         780.00
    tpc__warps_active_shader_cs_realtime.avg.pct_of_peak_sustained_elapsed               %                           0.01
    tpc__warps_active_shader_ps_realtime.avg.pct_of_peak_sustained_elapsed                                        (!) n/a
    tpc__warps_active_shader_vtg_realtime.avg.pct_of_peak_sustained_elapse                                        (!) n/a
    d                                                                                                                    
    tpc__warps_inactive_sm_active_realtime.avg.pct_of_peak_sustained_elaps                                        (!) n/a
    ed                                                                                                                   
    tpc__warps_inactive_sm_idle_realtime.avg.pct_of_peak_sustained_elapsed                                        (!) n/a

