Replaying kernel "kernelClearImage(float, float, float, float)" (done)
Replaying kernel "kernelAdvanceHypnosis(void)" (done)
Replaying kernel "myKernelRenderCircles(void)" (done)
Clear:    8157.098 msents
Advance:  8121.840 ms
Render:   8242.540 ms
Copying image data from device
24553.76 ms
Replaying kernel "kernelClearImage(float, float, float, float)" (done)
Replaying kernel "kernelAdvanceHypnosis(void)" (done)
Replaying kernel "myKernelRenderCircles(void)" (done)
Clear:    8256.559 msents
Advance:  8188.437 ms
Render:   8252.410 ms
Copying image data from device
24729.48 ms
Replaying kernel "kernelClearImage(float, float, float, float)" (done)
Replaying kernel "kernelAdvanceHypnosis(void)" (done)
Replaying kernel "myKernelRenderCircles(void)" (done)
Clear:    8333.953 ms
Advance:  8229.386 ms
Render:   8296.959 ms
Copying image data from device
24892.77 ms
==47709== Profiling application: ./render -i hypnosis
==47709== Profiling result:
==47709== Metric result:
Invocations                               Metric Name                                                    Metric Description         Min         Max         Avg
Device "Tesla P100-PCIE-16GB (0)"
    Kernel: kernelAdvanceHypnosis(void)
       1601                             inst_per_warp                                                 Instructions per warp   10.250000   11.125000   10.687227
       1601                         branch_efficiency                                                     Branch Efficiency     100.00%     100.00%     100.00%
       1601                 warp_execution_efficiency                                             Warp Execution Efficiency      89.89%      97.33%      93.63%
       1601         warp_nonpred_execution_efficiency                              Warp Non-Predicated Execution Efficiency      88.90%      96.42%      92.66%
       1601                      inst_replay_overhead                                           Instruction Replay Overhead    0.179775    0.292683    0.187514
       1601      shared_load_transactions_per_request                           Shared Memory Load Transactions Per Request    0.000000    0.000000    0.000000
       1601     shared_store_transactions_per_request                          Shared Memory Store Transactions Per Request    0.000000    0.000000    0.000000
       1601       local_load_transactions_per_request                            Local Memory Load Transactions Per Request    0.000000    0.000000    0.000000
       1601      local_store_transactions_per_request                           Local Memory Store Transactions Per Request    0.000000    0.000000    0.000000
       1601              gld_transactions_per_request                                  Global Load Transactions Per Request   18.000000   18.000000   18.000000
       1601              gst_transactions_per_request                                 Global Store Transactions Per Request    2.000000    4.000000    3.240475
       1601                 shared_store_transactions                                             Shared Store Transactions           0           0           0
       1601                  shared_load_transactions                                              Shared Load Transactions           0           0           0
       1601                   local_load_transactions                                               Local Load Transactions           0           0           0
       1601                  local_store_transactions                                              Local Store Transactions           0           0           0
       1601                          gld_transactions                                              Global Load Transactions          18          18          18
       1601                          gst_transactions                                             Global Store Transactions           4           5           4
       1601                  sysmem_read_transactions                                       System Memory Read Transactions           0           0           0
       1601                 sysmem_write_transactions                                      System Memory Write Transactions           5           5           5
       1601                      l2_read_transactions                                                  L2 Read Transactions          20         116          28
       1601                     l2_write_transactions                                                 L2 Write Transactions          17          18          17
       1601                    dram_read_transactions                                       Device Memory Read Transactions           0          28           0
       1601                   dram_write_transactions                                      Device Memory Write Transactions           0          36           1
       1601                           global_hit_rate                                     Global Hit Rate in unified l1/tex       0.00%       0.00%       0.00%
       1601                            local_hit_rate                                                        Local Hit Rate       0.00%       0.00%       0.00%
       1601                  gld_requested_throughput                                      Requested Global Load Throughput  34.354MB/s  36.666MB/s  36.016MB/s
       1601                  gst_requested_throughput                                     Requested Global Store Throughput  34.354MB/s  36.666MB/s  36.016MB/s
       1601                            gld_throughput                                                Global Load Throughput  43.973MB/s  46.932MB/s  46.101MB/s
       1601                            gst_throughput                                               Global Store Throughput  44.244MB/s  57.755MB/s  51.629MB/s
       1601                     local_memory_overhead                                                 Local Memory Overhead       0.00%       0.00%       0.00%
       1601                        tex_cache_hit_rate                                                Unified Cache Hit Rate      40.00%      42.86%      41.49%
       1601                      l2_tex_read_hit_rate                                           L2 Hit Rate (Texture Reads)       0.00%     100.00%      99.88%
       1601                     l2_tex_write_hit_rate                                          L2 Hit Rate (Texture Writes)     100.00%     100.00%     100.00%
       1601                      dram_read_throughput                                         Device Memory Read Throughput  0.00000B/s  321.84MB/s  7.9474MB/s
       1601                     dram_write_throughput                                        Device Memory Write Throughput  0.00000B/s  419.65MB/s  12.727MB/s
       1601                      tex_cache_throughput                                              Unified Cache Throughput  43.973MB/s  46.932MB/s  46.101MB/s
       1601                    l2_tex_read_throughput                                         L2 Throughput (Texture Reads)  43.973MB/s  46.932MB/s  46.101MB/s
       1601                   l2_tex_write_throughput                                        L2 Throughput (Texture Writes)  44.244MB/s  57.755MB/s  51.629MB/s
       1601                        l2_read_throughput                                                 L2 Throughput (Reads)  219.87MB/s  1.3021GB/s  330.19MB/s
       1601                       l2_write_throughput                                                L2 Throughput (Writes)  188.04MB/s  207.92MB/s  201.46MB/s
       1601                    sysmem_read_throughput                                         System Memory Read Throughput  0.00000B/s  0.00000B/s  0.00000B/s
       1601                   sysmem_write_throughput                                        System Memory Write Throughput  54.967MB/s  58.665MB/s  57.626MB/s
       1601                     local_load_throughput                                          Local Memory Load Throughput  0.00000B/s  0.00000B/s  0.00000B/s
       1601                    local_store_throughput                                         Local Memory Store Throughput  0.00000B/s  0.00000B/s  0.00000B/s
       1601                    shared_load_throughput                                         Shared Memory Load Throughput  0.00000B/s  0.00000B/s  0.00000B/s
       1601                   shared_store_throughput                                        Shared Memory Store Throughput  0.00000B/s  0.00000B/s  0.00000B/s
       1601                            gld_efficiency                                         Global Memory Load Efficiency      78.12%      78.12%      78.12%
       1601                            gst_efficiency                                        Global Memory Store Efficiency      62.50%      78.12%      70.63%
       1601                    tex_cache_transactions                                            Unified Cache Transactions           4           4           4
       1601                             flop_count_dp                           Floating Point Operations(Double Precision)           0           0           0
       1601                         flop_count_dp_add                       Floating Point Operations(Double Precision Add)           0           0           0
       1601                         flop_count_dp_fma                       Floating Point Operations(Double Precision FMA)           0           0           0
       1601                         flop_count_dp_mul                       Floating Point Operations(Double Precision Mul)           0           0           0
       1601                             flop_count_sp                           Floating Point Operations(Single Precision)          24          25          24
       1601                         flop_count_sp_add                       Floating Point Operations(Single Precision Add)          24          25          24
       1601                         flop_count_sp_fma                       Floating Point Operations(Single Precision FMA)           0           0           0
       1601                         flop_count_sp_mul                        Floating Point Operation(Single Precision Mul)           0           0           0
       1601                     flop_count_sp_special                   Floating Point Operations(Single Precision Special)           0           0           0
       1601                             inst_executed                                                 Instructions Executed          82          89          85
       1601                               inst_issued                                                   Instructions Issued          98         106         101
       1601                          dram_utilization                                             Device Memory Utilization    Idle (0)     Low (1)    Idle (0)
       1601                        sysmem_utilization                                             System Memory Utilization     Low (1)     Low (1)     Low (1)
       1601                          stall_inst_fetch                              Issue Stall Reasons (Instructions Fetch)       5.96%      57.48%      16.89%
       1601                     stall_exec_dependency                            Issue Stall Reasons (Execution Dependency)       6.38%      14.04%      12.27%
       1601                   stall_memory_dependency                                    Issue Stall Reasons (Data Request)       2.35%       6.57%       4.66%
       1601                             stall_texture                                         Issue Stall Reasons (Texture)       0.00%       0.00%       0.00%
       1601                                stall_sync                                 Issue Stall Reasons (Synchronization)       0.00%       0.00%       0.00%
       1601                               stall_other                                           Issue Stall Reasons (Other)       1.96%       6.65%       3.89%
       1601          stall_constant_memory_dependency                              Issue Stall Reasons (Immediate constant)      31.27%      77.90%      62.16%
       1601                           stall_pipe_busy                                       Issue Stall Reasons (Pipe Busy)       0.01%       0.08%       0.04%
       1601                         shared_efficiency                                              Shared Memory Efficiency       0.00%       0.00%       0.00%
       1601                                inst_fp_32                                               FP Instructions(Single)          49          50          49
       1601                                inst_fp_64                                               FP Instructions(Double)           0           0           0
       1601                              inst_integer                                                  Integer Instructions        1099        1099        1099
       1601                          inst_bit_convert                                              Bit-Convert Instructions           0           0           0
       1601                              inst_control                                             Control-Flow Instructions         256         256         256
       1601                        inst_compute_ld_st                                               Load/Store Instructions          50          50          50
       1601                                 inst_misc                                                     Misc Instructions        1074        1079        1076
       1601           inst_inter_thread_communication                                             Inter-Thread Instructions           0           0           0
       1601                               issue_slots                                                           Issue Slots          98         106         101
       1601                                 cf_issued                                      Issued Control-Flow Instructions           9          10           9
       1601                               cf_executed                                    Executed Control-Flow Instructions           9          10           9
       1601                               ldst_issued                                        Issued Load/Store Instructions          24          25          24
       1601                             ldst_executed                                      Executed Load/Store Instructions          18          19          18
       1601                       atomic_transactions                                                   Atomic Transactions           0           0           0
       1601           atomic_transactions_per_request                                       Atomic Transactions Per Request    0.000000    0.000000    0.000000
       1601                      l2_atomic_throughput                                       L2 Throughput (Atomic requests)  0.00000B/s  0.00000B/s  0.00000B/s
       1601                    l2_atomic_transactions                                     L2 Transactions (Atomic requests)           0           0           0
       1601                  l2_tex_read_transactions                                       L2 Transactions (Texture Reads)           4           4           4
       1601                     stall_memory_throttle                                 Issue Stall Reasons (Memory Throttle)       0.00%       0.02%       0.01%
       1601                        stall_not_selected                                    Issue Stall Reasons (Not Selected)       0.03%       0.11%       0.09%
       1601                 l2_tex_write_transactions                                      L2 Transactions (Texture Writes)           4           5           4
       1601                             flop_count_hp                             Floating Point Operations(Half Precision)           0           0           0
       1601                         flop_count_hp_add                         Floating Point Operations(Half Precision Add)           0           0           0
       1601                         flop_count_hp_mul                          Floating Point Operation(Half Precision Mul)           0           0           0
       1601                         flop_count_hp_fma                         Floating Point Operations(Half Precision FMA)           0           0           0
       1601                                inst_fp_16                                                 HP Instructions(Half)           0           0           0
       1601                                       ipc                                                          Executed IPC    0.044345    0.096529    0.088076
       1601                                issued_ipc                                                            Issued IPC    0.052317    0.113883    0.104743
       1601                    issue_slot_utilization                                                Issue Slot Utilization       2.62%       5.69%       5.24%
       1601                             sm_efficiency                                               Multiprocessor Activity       0.17%       0.54%       0.32%
       1601                        achieved_occupancy                                                    Achieved Occupancy    0.081838    0.103070    0.086888
       1601                  eligible_warps_per_cycle                                       Eligible Warps Per Active Cycle    0.058159    0.119306    0.109989
       1601                        shared_utilization                                             Shared Memory Utilization    Idle (0)    Idle (0)    Idle (0)
       1601                            l2_utilization                                                  L2 Cache Utilization     Low (1)     Low (1)     Low (1)
       1601                           tex_utilization                                             Unified Cache Utilization     Low (1)     Low (1)     Low (1)
       1601                       ldst_fu_utilization                                  Load/Store Function Unit Utilization     Low (1)     Low (1)     Low (1)
       1601                         cf_fu_utilization                                Control-Flow Function Unit Utilization     Low (1)     Low (1)     Low (1)
       1601                        tex_fu_utilization                                     Texture Function Unit Utilization     Low (1)     Low (1)     Low (1)
       1601                    special_fu_utilization                                     Special Function Unit Utilization    Idle (0)    Idle (0)    Idle (0)
       1601             half_precision_fu_utilization                              Half-Precision Function Unit Utilization    Idle (0)    Idle (0)    Idle (0)
       1601           single_precision_fu_utilization                            Single-Precision Function Unit Utilization     Low (1)     Low (1)     Low (1)
       1601           double_precision_fu_utilization                            Double-Precision Function Unit Utilization    Idle (0)    Idle (0)    Idle (0)
       1601                        flop_hp_efficiency                                            FLOP Efficiency(Peak Half)       0.00%       0.00%       0.00%
       1601                        flop_sp_efficiency                                          FLOP Efficiency(Peak Single)       0.00%       0.00%       0.00%
       1601                        flop_dp_efficiency                                          FLOP Efficiency(Peak Double)       0.00%       0.00%       0.00%
       1601                   sysmem_read_utilization                                        System Memory Read Utilization    Idle (0)    Idle (0)    Idle (0)
       1601                  sysmem_write_utilization                                       System Memory Write Utilization     Low (1)     Low (1)     Low (1)
       1601               pcie_total_data_transmitted                                           PCIe Total Data Transmitted           0        1024         195
       1601                  pcie_total_data_received                                              PCIe Total Data Received           0         512          78
       1601                inst_executed_global_loads                              Warp level instructions for global loads           1           1           1
       1601                 inst_executed_local_loads                               Warp level instructions for local loads           0           0           0
       1601                inst_executed_shared_loads                              Warp level instructions for shared loads           0           0           0
       1601               inst_executed_surface_loads                             Warp level instructions for surface loads           0           0           0
       1601               inst_executed_global_stores                             Warp level instructions for global stores           1           2           1
       1601                inst_executed_local_stores                              Warp level instructions for local stores           0           0           0
       1601               inst_executed_shared_stores                             Warp level instructions for shared stores           0           0           0
       1601              inst_executed_surface_stores                            Warp level instructions for surface stores           0           0           0
       1601              inst_executed_global_atomics                  Warp level instructions for global atom and atom cas           0           0           0
       1601           inst_executed_global_reductions                         Warp level instructions for global reductions           0           0           0
       1601             inst_executed_surface_atomics                 Warp level instructions for surface atom and atom cas           0           0           0
       1601          inst_executed_surface_reductions                        Warp level instructions for surface reductions           0           0           0
       1601              inst_executed_shared_atomics                  Warp level shared instructions for atom and atom CAS           0           0           0
       1601                     inst_executed_tex_ops                                   Warp level instructions for texture           0           0           0
       1601                      l2_global_load_bytes       Bytes read from L2 for misses in Unified Cache for global loads         128         128         128
       1601                       l2_local_load_bytes        Bytes read from L2 for misses in Unified Cache for local loads           0           0           0
       1601                     l2_surface_load_bytes      Bytes read from L2 for misses in Unified Cache for surface loads           0           0           0
       1601                           dram_read_bytes                                Total bytes read from DRAM to L2 cache           0         896          22
       1601                          dram_write_bytes                             Total bytes written from L2 cache to DRAM           0        1152          35
       1601               l2_local_global_store_bytes   Bytes written to L2 from Unified Cache for local and global stores.         128         160         143
       1601                 l2_global_reduction_bytes          Bytes written to L2 from Unified cache for global reductions           0           0           0
       1601              l2_global_atomic_store_bytes             Bytes written to L2 from Unified cache for global atomics           0           0           0
       1601                    l2_surface_store_bytes            Bytes written to L2 from Unified Cache for surface stores.           0           0           0
       1601                l2_surface_reduction_bytes         Bytes written to L2 from Unified Cache for surface reductions           0           0           0
       1601             l2_surface_atomic_store_bytes    Bytes transferred between Unified Cache and L2 for surface atomics           0           0           0
       1601                      global_load_requests              Total number of global load requests from Multiprocessor           4           4           4
       1601                       local_load_requests               Total number of local load requests from Multiprocessor           0           0           0
       1601                     surface_load_requests             Total number of surface load requests from Multiprocessor           0           0           0
       1601                     global_store_requests             Total number of global store requests from Multiprocessor           4           5           4
       1601                      local_store_requests              Total number of local store requests from Multiprocessor           0           0           0
       1601                    surface_store_requests            Total number of surface store requests from Multiprocessor           0           0           0
       1601                    global_atomic_requests            Total number of global atomic requests from Multiprocessor           0           0           0
       1601                 global_reduction_requests         Total number of global reduction requests from Multiprocessor           0           0           0
       1601                   surface_atomic_requests           Total number of surface atomic requests from Multiprocessor           0           0           0
       1601                surface_reduction_requests        Total number of surface reduction requests from Multiprocessor           0           0           0
       1601                         sysmem_read_bytes                                              System Memory Read Bytes           0           0           0
       1601                        sysmem_write_bytes                                             System Memory Write Bytes         160         160         160
       1601                           l2_tex_hit_rate                                                     L2 Cache Hit Rate      55.56%     100.00%      99.94%
       1601                     texture_load_requests             Total number of texture Load requests from Multiprocessor           0           0           0
       1601                     unique_warps_launched                                              Number of warps launched           8           8           8
    Kernel: kernelClearImage(float, float, float, float)
       1601                             inst_per_warp                                                 Instructions per warp   30.000000   30.000000   30.000000
       1601                         branch_efficiency                                                     Branch Efficiency     100.00%     100.00%     100.00%
       1601                 warp_execution_efficiency                                             Warp Execution Efficiency     100.00%     100.00%     100.00%
       1601         warp_nonpred_execution_efficiency                              Warp Non-Predicated Execution Efficiency      96.67%      96.67%      96.67%
       1601                      inst_replay_overhead                                           Instruction Replay Overhead    0.009334    0.016163    0.011050
       1601      shared_load_transactions_per_request                           Shared Memory Load Transactions Per Request    0.000000    0.000000    0.000000
       1601     shared_store_transactions_per_request                          Shared Memory Store Transactions Per Request    0.000000    0.000000    0.000000
       1601       local_load_transactions_per_request                            Local Memory Load Transactions Per Request    0.000000    0.000000    0.000000
       1601      local_store_transactions_per_request                           Local Memory Store Transactions Per Request    0.000000    0.000000    0.000000
       1601              gld_transactions_per_request                                  Global Load Transactions Per Request    0.000000    0.000000    0.000000
       1601              gst_transactions_per_request                                 Global Store Transactions Per Request   16.000000   16.000000   16.000000
       1601                 shared_store_transactions                                             Shared Store Transactions           0           0           0
       1601                  shared_load_transactions                                              Shared Load Transactions           0           0           0
       1601                   local_load_transactions                                               Local Load Transactions           0           0           0
       1601                  local_store_transactions                                              Local Store Transactions           0           0           0
       1601                          gld_transactions                                              Global Load Transactions           2           2           2
       1601                          gst_transactions                                             Global Store Transactions      524288      524288      524288
       1601                  sysmem_read_transactions                                       System Memory Read Transactions           0           0           0
       1601                 sysmem_write_transactions                                      System Memory Write Transactions           5           5           5
       1601                      l2_read_transactions                                                  L2 Read Transactions         144         560         202
       1601                     l2_write_transactions                                                 L2 Write Transactions      524307      524541      524308
       1601                    dram_read_transactions                                       Device Memory Read Transactions          18         170          29
       1601                   dram_write_transactions                                      Device Memory Write Transactions      506967      514681      512217
       1601                           global_hit_rate                                     Global Hit Rate in unified l1/tex       0.00%       0.00%       0.00%
       1601                            local_hit_rate                                                        Local Hit Rate       0.00%       0.00%       0.00%
       1601                  gld_requested_throughput                                      Requested Global Load Throughput  0.00000B/s  0.00000B/s  0.00000B/s
       1601                  gst_requested_throughput                                     Requested Global Store Throughput  503.69GB/s  509.44GB/s  506.84GB/s
       1601                            gld_throughput                                                Global Load Throughput  0.00000B/s  0.00000B/s  0.00000B/s
       1601                            gst_throughput                                               Global Store Throughput  503.69GB/s  509.44GB/s  506.84GB/s
       1601                     local_memory_overhead                                                 Local Memory Overhead       0.00%       0.00%       0.00%
       1601                        tex_cache_hit_rate                                                Unified Cache Hit Rate       0.00%       0.00%       0.00%
       1601                      l2_tex_read_hit_rate                                           L2 Hit Rate (Texture Reads)       0.00%       0.00%       0.00%
       1601                     l2_tex_write_hit_rate                                          L2 Hit Rate (Texture Writes)       0.00%       0.00%       0.00%
       1601                      dram_read_throughput                                         Device Memory Read Throughput  17.728MB/s  167.92MB/s  29.151MB/s
       1601                     dram_write_throughput                                        Device Memory Write Throughput  489.31GB/s  497.87GB/s  495.17GB/s
       1601                      tex_cache_throughput                                              Unified Cache Throughput  0.00000B/s  0.00000B/s  0.00000B/s
       1601                    l2_tex_read_throughput                                         L2 Throughput (Texture Reads)  0.00000B/s  0.00000B/s  0.00000B/s
       1601                   l2_tex_write_throughput                                        L2 Throughput (Texture Writes)  503.69GB/s  509.44GB/s  506.84GB/s
       1601                        l2_read_throughput                                                 L2 Throughput (Reads)  141.66MB/s  554.54MB/s  200.82MB/s
       1601                       l2_write_throughput                                                L2 Throughput (Writes)  503.71GB/s  509.46GB/s  506.86GB/s
       1601                    sysmem_read_throughput                                         System Memory Read Throughput  0.00000B/s  0.00000B/s  0.00000B/s
       1601                   sysmem_write_throughput                                        System Memory Write Throughput  4.9189MB/s  4.9750MB/s  4.9495MB/s
       1601                     local_load_throughput                                          Local Memory Load Throughput  0.00000B/s  0.00000B/s  0.00000B/s
       1601                    local_store_throughput                                         Local Memory Store Throughput  0.00000B/s  0.00000B/s  0.00000B/s
       1601                    shared_load_throughput                                         Shared Memory Load Throughput  0.00000B/s  0.00000B/s  0.00000B/s
       1601                   shared_store_throughput                                        Shared Memory Store Throughput  0.00000B/s  0.00000B/s  0.00000B/s
       1601                            gld_efficiency                                         Global Memory Load Efficiency       0.00%       0.00%       0.00%
       1601                            gst_efficiency                                        Global Memory Store Efficiency     100.00%     100.00%     100.00%
       1601                    tex_cache_transactions                                            Unified Cache Transactions           0           0           0
       1601                             flop_count_dp                           Floating Point Operations(Double Precision)           0           0           0
       1601                         flop_count_dp_add                       Floating Point Operations(Double Precision Add)           0           0           0
       1601                         flop_count_dp_fma                       Floating Point Operations(Double Precision FMA)           0           0           0
       1601                         flop_count_dp_mul                       Floating Point Operations(Double Precision Mul)           0           0           0
       1601                             flop_count_sp                           Floating Point Operations(Single Precision)           0           0           0
       1601                         flop_count_sp_add                       Floating Point Operations(Single Precision Add)           0           0           0
       1601                         flop_count_sp_fma                       Floating Point Operations(Single Precision FMA)           0           0           0
       1601                         flop_count_sp_mul                        Floating Point Operation(Single Precision Mul)           0           0           0
       1601                     flop_count_sp_special                   Floating Point Operations(Single Precision Special)           0           0           0
       1601                             inst_executed                                                 Instructions Executed      983040      983040      983040
       1601                               inst_issued                                                   Instructions Issued      992216      998816      993948
       1601                          dram_utilization                                             Device Memory Utilization    High (8)    High (8)    High (8)
       1601                        sysmem_utilization                                             System Memory Utilization     Low (1)     Low (1)     Low (1)
       1601                          stall_inst_fetch                              Issue Stall Reasons (Instructions Fetch)       0.58%       2.64%       0.75%
       1601                     stall_exec_dependency                            Issue Stall Reasons (Execution Dependency)       3.55%       4.10%       3.72%
       1601                   stall_memory_dependency                                    Issue Stall Reasons (Data Request)       0.00%       0.00%       0.00%
       1601                             stall_texture                                         Issue Stall Reasons (Texture)       0.01%       0.15%       0.05%
       1601                                stall_sync                                 Issue Stall Reasons (Synchronization)       0.00%       0.00%       0.00%
       1601                               stall_other                                           Issue Stall Reasons (Other)       2.39%       3.89%       2.79%
       1601          stall_constant_memory_dependency                              Issue Stall Reasons (Immediate constant)       0.81%       3.91%       1.33%
       1601                           stall_pipe_busy                                       Issue Stall Reasons (Pipe Busy)       0.13%       0.15%       0.13%
       1601                         shared_efficiency                                              Shared Memory Efficiency       0.00%       0.00%       0.00%
       1601                                inst_fp_32                                               FP Instructions(Single)           0           0           0
       1601                                inst_fp_64                                               FP Instructions(Double)           0           0           0
       1601                              inst_integer                                                  Integer Instructions    15728640    15728640    15728640
       1601                          inst_bit_convert                                              Bit-Convert Instructions           0           0           0
       1601                              inst_control                                             Control-Flow Instructions     1048576     1048576     1048576
       1601                        inst_compute_ld_st                                               Load/Store Instructions     1048576     1048576     1048576
       1601                                 inst_misc                                                     Misc Instructions    12582912    12582912    12582912
       1601           inst_inter_thread_communication                                             Inter-Thread Instructions           0           0           0
       1601                               issue_slots                                                           Issue Slots      992216      998816      993948
       1601                                 cf_issued                                      Issued Control-Flow Instructions       65536       65536       65536
       1601                               cf_executed                                    Executed Control-Flow Instructions       65536       65536       65536
       1601                               ldst_issued                                        Issued Load/Store Instructions      655360      655360      655360
       1601                             ldst_executed                                      Executed Load/Store Instructions      163840      163840      163840
       1601                       atomic_transactions                                                   Atomic Transactions           0           0           0
       1601           atomic_transactions_per_request                                       Atomic Transactions Per Request    0.000000    0.000000    0.000000
       1601                      l2_atomic_throughput                                       L2 Throughput (Atomic requests)  0.00000B/s  0.00000B/s  0.00000B/s
       1601                    l2_atomic_transactions                                     L2 Transactions (Atomic requests)           0           0           0
       1601                  l2_tex_read_transactions                                       L2 Transactions (Texture Reads)           0           0           0
       1601                     stall_memory_throttle                                 Issue Stall Reasons (Memory Throttle)      87.90%      91.56%      90.53%
       1601                        stall_not_selected                                    Issue Stall Reasons (Not Selected)       0.66%       0.80%       0.70%
       1601                 l2_tex_write_transactions                                      L2 Transactions (Texture Writes)      524288      524288      524288
       1601                             flop_count_hp                             Floating Point Operations(Half Precision)           0           0           0
       1601                         flop_count_hp_add                         Floating Point Operations(Half Precision Add)           0           0           0
       1601                         flop_count_hp_mul                          Floating Point Operation(Half Precision Mul)           0           0           0
       1601                         flop_count_hp_fma                         Floating Point Operations(Half Precision FMA)           0           0           0
       1601                                inst_fp_16                                                 HP Instructions(Half)           0           0           0
       1601                                       ipc                                                          Executed IPC    0.508239    0.566508    0.524623
       1601                                issued_ipc                                                            Issued IPC    0.514599    0.571233    0.530128
       1601                    issue_slot_utilization                                                Issue Slot Utilization      25.73%      28.56%      26.51%
       1601                             sm_efficiency                                               Multiprocessor Activity      76.99%      88.06%      85.66%
       1601                        achieved_occupancy                                                    Achieved Occupancy    0.779994    0.806456    0.793823
       1601                  eligible_warps_per_cycle                                       Eligible Warps Per Active Cycle    0.829568    0.957220    0.883055
       1601                        shared_utilization                                             Shared Memory Utilization    Idle (0)    Idle (0)    Idle (0)
       1601                            l2_utilization                                                  L2 Cache Utilization     Low (2)     Low (3)     Low (2)
       1601                           tex_utilization                                             Unified Cache Utilization    Idle (0)    Idle (0)    Idle (0)
       1601                       ldst_fu_utilization                                  Load/Store Function Unit Utilization     Low (1)     Low (1)     Low (1)
       1601                         cf_fu_utilization                                Control-Flow Function Unit Utilization     Low (1)     Low (1)     Low (1)
       1601                        tex_fu_utilization                                     Texture Function Unit Utilization     Low (3)     Mid (4)     Low (3)
       1601                    special_fu_utilization                                     Special Function Unit Utilization    Idle (0)    Idle (0)    Idle (0)
       1601             half_precision_fu_utilization                              Half-Precision Function Unit Utilization    Idle (0)    Idle (0)    Idle (0)
       1601           single_precision_fu_utilization                            Single-Precision Function Unit Utilization    Idle (0)    Idle (0)    Idle (0)
       1601           double_precision_fu_utilization                            Double-Precision Function Unit Utilization    Idle (0)    Idle (0)    Idle (0)
       1601                        flop_hp_efficiency                                            FLOP Efficiency(Peak Half)       0.00%       0.00%       0.00%
       1601                        flop_sp_efficiency                                          FLOP Efficiency(Peak Single)       0.00%       0.00%       0.00%
       1601                        flop_dp_efficiency                                          FLOP Efficiency(Peak Double)       0.00%       0.00%       0.00%
       1601                   sysmem_read_utilization                                        System Memory Read Utilization    Idle (0)    Idle (0)    Idle (0)
       1601                  sysmem_write_utilization                                       System Memory Write Utilization     Low (1)     Low (1)     Low (1)
       1601               pcie_total_data_transmitted                                           PCIe Total Data Transmitted           0        3072         209
       1601                  pcie_total_data_received                                              PCIe Total Data Received           0        3072          83
       1601                inst_executed_global_loads                              Warp level instructions for global loads           0           0           0
       1601                 inst_executed_local_loads                               Warp level instructions for local loads           0           0           0
       1601                inst_executed_shared_loads                              Warp level instructions for shared loads           0           0           0
       1601               inst_executed_surface_loads                             Warp level instructions for surface loads           0           0           0
       1601               inst_executed_global_stores                             Warp level instructions for global stores       32768       32768       32768
       1601                inst_executed_local_stores                              Warp level instructions for local stores           0           0           0
       1601               inst_executed_shared_stores                             Warp level instructions for shared stores           0           0           0
       1601              inst_executed_surface_stores                            Warp level instructions for surface stores           0           0           0
       1601              inst_executed_global_atomics                  Warp level instructions for global atom and atom cas           0           0           0
       1601           inst_executed_global_reductions                         Warp level instructions for global reductions           0           0           0
       1601             inst_executed_surface_atomics                 Warp level instructions for surface atom and atom cas           0           0           0
       1601          inst_executed_surface_reductions                        Warp level instructions for surface reductions           0           0           0
       1601              inst_executed_shared_atomics                  Warp level shared instructions for atom and atom CAS           0           0           0
       1601                     inst_executed_tex_ops                                   Warp level instructions for texture           0           0           0
       1601                      l2_global_load_bytes       Bytes read from L2 for misses in Unified Cache for global loads           0           0           0
       1601                       l2_local_load_bytes        Bytes read from L2 for misses in Unified Cache for local loads           0           0           0
       1601                     l2_surface_load_bytes      Bytes read from L2 for misses in Unified Cache for surface loads           0           0           0
       1601                           dram_read_bytes                                Total bytes read from DRAM to L2 cache         576        5440         942
       1601                          dram_write_bytes                             Total bytes written from L2 cache to DRAM    16222944    16469792    16390959
       1601               l2_local_global_store_bytes   Bytes written to L2 from Unified Cache for local and global stores.    16777216    16777216    16777216
       1601                 l2_global_reduction_bytes          Bytes written to L2 from Unified cache for global reductions           0           0           0
       1601              l2_global_atomic_store_bytes             Bytes written to L2 from Unified cache for global atomics           0           0           0
       1601                    l2_surface_store_bytes            Bytes written to L2 from Unified Cache for surface stores.           0           0           0
       1601                l2_surface_reduction_bytes         Bytes written to L2 from Unified Cache for surface reductions           0           0           0
       1601             l2_surface_atomic_store_bytes    Bytes transferred between Unified Cache and L2 for surface atomics           0           0           0
       1601                      global_load_requests              Total number of global load requests from Multiprocessor           0           0           0
       1601                       local_load_requests               Total number of local load requests from Multiprocessor           0           0           0
       1601                     surface_load_requests             Total number of surface load requests from Multiprocessor           0           0           0
       1601                     global_store_requests             Total number of global store requests from Multiprocessor      524288      524288      524288
       1601                      local_store_requests              Total number of local store requests from Multiprocessor           0           0           0
       1601                    surface_store_requests            Total number of surface store requests from Multiprocessor           0           0           0
       1601                    global_atomic_requests            Total number of global atomic requests from Multiprocessor           0           0           0
       1601                 global_reduction_requests         Total number of global reduction requests from Multiprocessor           0           0           0
       1601                   surface_atomic_requests           Total number of surface atomic requests from Multiprocessor           0           0           0
       1601                surface_reduction_requests        Total number of surface reduction requests from Multiprocessor           0           0           0
       1601                         sysmem_read_bytes                                              System Memory Read Bytes           0           0           0
       1601                        sysmem_write_bytes                                             System Memory Write Bytes         160         160         160
       1601                           l2_tex_hit_rate                                                     L2 Cache Hit Rate       0.00%       0.00%       0.00%
       1601                     texture_load_requests             Total number of texture Load requests from Multiprocessor           0           0           0
       1601                     unique_warps_launched                                              Number of warps launched       32768       32768       32768
    Kernel: myKernelRenderCircles(void)
       1601                             inst_per_warp                                                 Instructions per warp  727.266968  751.999756  739.643565
       1601                         branch_efficiency                                                     Branch Efficiency      99.90%      99.90%      99.90%
       1601                 warp_execution_efficiency                                             Warp Execution Efficiency      98.58%      98.61%      98.60%
       1601         warp_nonpred_execution_efficiency                              Warp Non-Predicated Execution Efficiency      95.59%      95.65%      95.62%
       1601                      inst_replay_overhead                                           Instruction Replay Overhead    0.000096    0.000249    0.000149
       1601      shared_load_transactions_per_request                           Shared Memory Load Transactions Per Request    0.999466    0.999893    0.999602
       1601     shared_store_transactions_per_request                          Shared Memory Store Transactions Per Request    0.997425    0.999787    0.998296
       1601       local_load_transactions_per_request                            Local Memory Load Transactions Per Request    0.000000    0.000000    0.000000
       1601      local_store_transactions_per_request                           Local Memory Store Transactions Per Request    0.000000    0.000000    0.000000
       1601              gld_transactions_per_request                                  Global Load Transactions Per Request   16.709420   16.754702   16.732047
       1601              gst_transactions_per_request                                 Global Store Transactions Per Request   16.000000   16.000000   16.000000
       1601                 shared_store_transactions                                             Shared Store Transactions      673952      675512      674531
       1601                  shared_load_transactions                                              Shared Load Transactions     1332252     1348024     1340049
       1601                   local_load_transactions                                               Local Load Transactions           0           0           0
       1601                  local_store_transactions                                              Local Store Transactions           0           0           0
       1601                          gld_transactions                                              Global Load Transactions    25542946    26925826    26234817
       1601                          gst_transactions                                             Global Store Transactions      524288      524288      524288
       1601                  sysmem_read_transactions                                       System Memory Read Transactions           0           0           0
       1601                 sysmem_write_transactions                                      System Memory Write Transactions           5           5           5
       1601                      l2_read_transactions                                                  L2 Read Transactions      533986      537682      535025
       1601                     l2_write_transactions                                                 L2 Write Transactions      524306      524601      524307
       1601                    dram_read_transactions                                       Device Memory Read Transactions      524324      525148      524427
       1601                   dram_write_transactions                                      Device Memory Write Transactions      514969      523928      522110
       1601                           global_hit_rate                                     Global Hit Rate in unified l1/tex      73.86%      74.97%      74.42%
       1601                            local_hit_rate                                                        Local Hit Rate       0.00%       0.00%       0.00%
       1601                  gld_requested_throughput                                      Requested Global Load Throughput  71.088GB/s  75.251GB/s  74.370GB/s
       1601                  gst_requested_throughput                                     Requested Global Store Throughput  50.752GB/s  54.547GB/s  53.498GB/s
       1601                            gld_throughput                                                Global Load Throughput  206.75GB/s  216.59GB/s  213.24GB/s
       1601                            gst_throughput                                               Global Store Throughput  50.752GB/s  54.547GB/s  53.498GB/s
       1601                     local_memory_overhead                                                 Local Memory Overhead       0.00%       0.00%       0.00%
       1601                        tex_cache_hit_rate                                                Unified Cache Hit Rate      84.74%      85.48%      85.11%
       1601                      l2_tex_read_hit_rate                                           L2 Hit Rate (Texture Reads)       1.79%       1.97%       1.88%
       1601                     l2_tex_write_hit_rate                                          L2 Hit Rate (Texture Writes)     100.00%     100.00%     100.00%
       1601                      dram_read_throughput                                         Device Memory Read Throughput  50.755GB/s  54.568GB/s  53.512GB/s
       1601                     dram_write_throughput                                        Device Memory Write Throughput  50.678GB/s  54.403GB/s  53.276GB/s
       1601                      tex_cache_throughput                                              Unified Cache Throughput  651.61GB/s  683.42GB/s  669.24GB/s
       1601                    l2_tex_read_throughput                                         L2 Throughput (Texture Reads)  51.760GB/s  55.608GB/s  54.525GB/s
       1601                   l2_tex_write_throughput                                        L2 Throughput (Texture Writes)  50.752GB/s  54.547GB/s  53.498GB/s
       1601                        l2_read_throughput                                                 L2 Throughput (Reads)  51.773GB/s  55.774GB/s  54.594GB/s
       1601                       l2_write_throughput                                                L2 Throughput (Writes)  50.754GB/s  54.549GB/s  53.500GB/s
       1601                    sysmem_read_throughput                                         System Memory Read Throughput  0.00000B/s  0.00000B/s  0.00000B/s
       1601                   sysmem_write_throughput                                        System Memory Write Throughput  507.52KB/s  545.47KB/s  534.98KB/s
       1601                     local_load_throughput                                          Local Memory Load Throughput  0.00000B/s  0.00000B/s  0.00000B/s
       1601                    local_store_throughput                                         Local Memory Store Throughput  0.00000B/s  0.00000B/s  0.00000B/s
       1601                    shared_load_throughput                                         Shared Memory Load Throughput  521.96GB/s  554.56GB/s  546.95GB/s
       1601                   shared_store_throughput                                        Shared Memory Store Throughput  261.56GB/s  280.88GB/s  275.31GB/s
       1601                            gld_efficiency                                         Global Memory Load Efficiency      34.38%      35.38%      34.89%
       1601                            gst_efficiency                                        Global Memory Store Efficiency     100.00%     100.00%     100.00%
       1601                    tex_cache_transactions                                            Unified Cache Transactions     6385736     6731456     6558703
       1601                             flop_count_dp                           Floating Point Operations(Double Precision)           0           0           0
       1601                         flop_count_dp_add                       Floating Point Operations(Double Precision Add)           0           0           0
       1601                         flop_count_dp_fma                       Floating Point Operations(Double Precision FMA)           0           0           0
       1601                         flop_count_dp_mul                       Floating Point Operations(Double Precision Mul)           0           0           0
       1601                             flop_count_sp                           Floating Point Operations(Single Precision)   207871432   215536400   211706309
       1601                         flop_count_sp_add                       Floating Point Operations(Single Precision Add)    41399720    43237432    42319149
       1601                         flop_count_sp_fma                       Floating Point Operations(Single Precision FMA)    63101744    64881496    63992175
       1601                         flop_count_sp_mul                        Floating Point Operation(Single Precision Mul)    40268224    42535976    41402808
       1601                     flop_count_sp_special                   Floating Point Operations(Single Precision Special)     6225920     6225920     6225920
       1601                             inst_executed                                                 Instructions Executed    23831084    24641528    24236640
       1601                               inst_issued                                                   Instructions Issued    23833449    24647666    24240266
       1601                          dram_utilization                                             Device Memory Utilization     Low (2)     Low (2)     Low (2)
       1601                        sysmem_utilization                                             System Memory Utilization     Low (1)     Low (1)     Low (1)
       1601                          stall_inst_fetch                              Issue Stall Reasons (Instructions Fetch)       8.57%       9.23%       8.74%
       1601                     stall_exec_dependency                            Issue Stall Reasons (Execution Dependency)      16.26%      16.61%      16.40%
       1601                   stall_memory_dependency                                    Issue Stall Reasons (Data Request)      10.28%      11.44%      10.92%
       1601                             stall_texture                                         Issue Stall Reasons (Texture)       0.00%       0.00%       0.00%
       1601                                stall_sync                                 Issue Stall Reasons (Synchronization)      22.61%      23.40%      23.02%
       1601                               stall_other                                           Issue Stall Reasons (Other)      35.59%      36.62%      36.12%
       1601          stall_constant_memory_dependency                              Issue Stall Reasons (Immediate constant)       0.04%       0.27%       0.09%
       1601                           stall_pipe_busy                                       Issue Stall Reasons (Pipe Busy)       0.70%       0.72%       0.71%
       1601                         shared_efficiency                                              Shared Memory Efficiency      77.29%      77.93%      77.62%
       1601                                inst_fp_32                                               FP Instructions(Single)   163814616   170189560   167004078
       1601                                inst_fp_64                                               FP Instructions(Double)           0           0           0
       1601                              inst_integer                                                  Integer Instructions   280649828   292925092   286791490
       1601                          inst_bit_convert                                              Bit-Convert Instructions    10485760    10485760    10485760
       1601                              inst_control                                             Control-Flow Instructions    60387040    62279896    61334059
       1601                        inst_compute_ld_st                                               Load/Store Instructions   128329640   131574920   129953293
       1601                                 inst_misc                                                     Misc Instructions    85290640    86740416    86015980
       1601           inst_inter_thread_communication                                             Inter-Thread Instructions           0           0           0
       1601                               issue_slots                                                           Issue Slots    21911641    22650325    22280653
       1601                                 cf_issued                                      Issued Control-Flow Instructions     2695284     2770816     2733093
       1601                               cf_executed                                    Executed Control-Flow Instructions     2695284     2770816     2733093
       1601                               ldst_issued                                        Issued Load/Store Instructions     9639456    10000544     9820153
       1601                             ldst_executed                                      Executed Load/Store Instructions     5105924     5208184     5157126
       1601                       atomic_transactions                                                   Atomic Transactions           0           0           0
       1601           atomic_transactions_per_request                                       Atomic Transactions Per Request    0.000000    0.000000    0.000000
       1601                      l2_atomic_throughput                                       L2 Throughput (Atomic requests)  0.00000B/s  0.00000B/s  0.00000B/s
       1601                    l2_atomic_transactions                                     L2 Transactions (Atomic requests)           0           0           0
       1601                  l2_tex_read_transactions                                       L2 Transactions (Texture Reads)      533846      534933      534351
       1601                     stall_memory_throttle                                 Issue Stall Reasons (Memory Throttle)       0.87%       0.98%       0.91%
       1601                        stall_not_selected                                    Issue Stall Reasons (Not Selected)       3.03%       3.14%       3.08%
       1601                 l2_tex_write_transactions                                      L2 Transactions (Texture Writes)      524288      524288      524288
       1601                             flop_count_hp                             Floating Point Operations(Half Precision)           0           0           0
       1601                         flop_count_hp_add                         Floating Point Operations(Half Precision Add)           0           0           0
       1601                         flop_count_hp_mul                          Floating Point Operation(Half Precision Mul)           0           0           0
       1601                         flop_count_hp_fma                         Floating Point Operations(Half Precision FMA)           0           0           0
       1601                                inst_fp_16                                                 HP Instructions(Half)           0           0           0
       1601                                       ipc                                                          Executed IPC    1.276350    1.304132    1.290983
       1601                                issued_ipc                                                            Issued IPC    1.276607    1.304283    1.291034
       1601                    issue_slot_utilization                                                Issue Slot Utilization      58.68%      59.93%      59.33%
       1601                             sm_efficiency                                               Multiprocessor Activity      94.48%      96.61%      95.62%
       1601                        achieved_occupancy                                                    Achieved Occupancy    0.491763    0.492356    0.492083
       1601                  eligible_warps_per_cycle                                       Eligible Warps Per Active Cycle    2.089943    2.145168    2.117717
       1601                        shared_utilization                                             Shared Memory Utilization     Low (2)     Low (2)     Low (2)
       1601                            l2_utilization                                                  L2 Cache Utilization     Low (1)     Low (1)     Low (1)
       1601                           tex_utilization                                             Unified Cache Utilization     Mid (4)     Mid (4)     Mid (4)
       1601                       ldst_fu_utilization                                  Load/Store Function Unit Utilization     Low (2)     Low (2)     Low (2)
       1601                         cf_fu_utilization                                Control-Flow Function Unit Utilization     Low (1)     Low (1)     Low (1)
       1601                        tex_fu_utilization                                     Texture Function Unit Utilization     Mid (4)     Mid (4)     Mid (4)
       1601                    special_fu_utilization                                     Special Function Unit Utilization     Low (1)     Low (1)     Low (1)
       1601             half_precision_fu_utilization                              Half-Precision Function Unit Utilization    Idle (0)    Idle (0)    Idle (0)
       1601           single_precision_fu_utilization                            Single-Precision Function Unit Utilization     Low (3)     Low (3)     Low (3)
       1601           double_precision_fu_utilization                            Double-Precision Function Unit Utilization    Idle (0)    Idle (0)    Idle (0)
       1601                        flop_hp_efficiency                                            FLOP Efficiency(Peak Half)       0.00%       0.00%       0.00%
       1601                        flop_sp_efficiency                                          FLOP Efficiency(Peak Single)       8.25%       8.59%       8.42%
       1601                        flop_dp_efficiency                                          FLOP Efficiency(Peak Double)       0.00%       0.00%       0.00%
       1601                   sysmem_read_utilization                                        System Memory Read Utilization    Idle (0)    Idle (0)    Idle (0)
       1601                  sysmem_write_utilization                                       System Memory Write Utilization     Low (1)     Low (1)     Low (1)
       1601               pcie_total_data_transmitted                                           PCIe Total Data Transmitted           0        8704         289
       1601                  pcie_total_data_received                                              PCIe Total Data Received           0        9728          99
       1601                inst_executed_global_loads                              Warp level instructions for global loads     1524524     1611416     1567997
       1601                 inst_executed_local_loads                               Warp level instructions for local loads           0           0           0
       1601                inst_executed_shared_loads                              Warp level instructions for shared loads     1332908     1348208     1340583
       1601               inst_executed_surface_loads                             Warp level instructions for surface loads           0           0           0
       1601               inst_executed_global_stores                             Warp level instructions for global stores       32768       32768       32768
       1601                inst_executed_local_stores                              Warp level instructions for local stores           0           0           0
       1601               inst_executed_shared_stores                             Warp level instructions for shared stores      675628      675696      675682
       1601              inst_executed_surface_stores                            Warp level instructions for surface stores           0           0           0
       1601              inst_executed_global_atomics                  Warp level instructions for global atom and atom cas           0           0           0
       1601           inst_executed_global_reductions                         Warp level instructions for global reductions           0           0           0
       1601             inst_executed_surface_atomics                 Warp level instructions for surface atom and atom cas           0           0           0
       1601          inst_executed_surface_reductions                        Warp level instructions for surface reductions           0           0           0
       1601              inst_executed_shared_atomics                  Warp level shared instructions for atom and atom CAS           0           0           0
       1601                     inst_executed_tex_ops                                   Warp level instructions for texture           0           0           0
       1601                      l2_global_load_bytes       Bytes read from L2 for misses in Unified Cache for global loads    17083008    17117728    17099207
       1601                       l2_local_load_bytes        Bytes read from L2 for misses in Unified Cache for local loads           0           0           0
       1601                     l2_surface_load_bytes      Bytes read from L2 for misses in Unified Cache for surface loads           0           0           0
       1601                           dram_read_bytes                                Total bytes read from DRAM to L2 cache    16778368    16804736    16781676
       1601                          dram_write_bytes                             Total bytes written from L2 cache to DRAM    16479008    16765696    16707551
       1601               l2_local_global_store_bytes   Bytes written to L2 from Unified Cache for local and global stores.    16777216    16777216    16777216
       1601                 l2_global_reduction_bytes          Bytes written to L2 from Unified cache for global reductions           0           0           0
       1601              l2_global_atomic_store_bytes             Bytes written to L2 from Unified cache for global atomics           0           0           0
       1601                    l2_surface_store_bytes            Bytes written to L2 from Unified Cache for surface stores.           0           0           0
       1601                l2_surface_reduction_bytes         Bytes written to L2 from Unified Cache for surface reductions           0           0           0
       1601             l2_surface_atomic_store_bytes    Bytes transferred between Unified Cache and L2 for surface atomics           0           0           0
       1601                      global_load_requests              Total number of global load requests from Multiprocessor     5992520     6338240     6165487
       1601                       local_load_requests               Total number of local load requests from Multiprocessor           0           0           0
       1601                     surface_load_requests             Total number of surface load requests from Multiprocessor           0           0           0
       1601                     global_store_requests             Total number of global store requests from Multiprocessor      524288      524288      524288
       1601                      local_store_requests              Total number of local store requests from Multiprocessor           0           0           0
       1601                    surface_store_requests            Total number of surface store requests from Multiprocessor           0           0           0
       1601                    global_atomic_requests            Total number of global atomic requests from Multiprocessor           0           0           0
       1601                 global_reduction_requests         Total number of global reduction requests from Multiprocessor           0           0           0
       1601                   surface_atomic_requests           Total number of surface atomic requests from Multiprocessor           0           0           0
       1601                surface_reduction_requests        Total number of surface reduction requests from Multiprocessor           0           0           0
       1601                         sysmem_read_bytes                                              System Memory Read Bytes           0           0           0
       1601                        sysmem_write_bytes                                             System Memory Write Bytes         160         160         160
       1601                           l2_tex_hit_rate                                                     L2 Cache Hit Rate      50.44%      50.51%      50.47%
       1601                     texture_load_requests             Total number of texture Load requests from Multiprocessor           0           0           0
       1601                     unique_warps_launched                                              Number of warps launched       32768       32768       32768
wangpeng@dacent:~/tools/gitlab-william/t4-render-data/150-rendering-data/asst4/render$hypnosis
