==PROF== Profiling "free_scene" - 4: 0%....50%....100% - 13 passes
==PROF== Disconnected from process 73662
[73662] main@127.0.0.1
  populate_scene_balls(hitable_object**, hitable_list**, camera**, curandStateXORWOW*, float*), 2023-Nov-03 20:41:10, Context 1, Stream 7
    Section: Command line profiler metrics
    ---------------------------------------------------------------------- --------------- ------------------------------
    dram__bytes_read.sum                                                             Kbyte                          57.22
    dram__bytes_read.sum.per_second                                           Mbyte/second                          74.02
    dram__bytes_write.sum                                                             byte                              0
    dram__bytes_write.sum.per_second                                           byte/second                              0
    dram__sectors_read.sum                                                          sector                          1,788
    dram__sectors_write.sum                                                         sector                              0
    l1tex__f_tex2sm_cycles_active.avg.pct_of_peak_sustained_elapsed                      %                              0
    l1tex__lsu_writeback_active.avg.pct_of_peak_sustained_active                         %                           1.08
    l1tex__lsu_writeback_active.sum                                                  cycle                          6,238
    l1tex__t_bytes_pipe_lsu_mem_global_op_ld.sum.per_second                   Mbyte/second                          85.23
    l1tex__t_bytes_pipe_lsu_mem_global_op_st.sum                                     Kbyte                          41.70
    l1tex__t_bytes_pipe_lsu_mem_global_op_st.sum.per_second                   Mbyte/second                          53.94
    l1tex__t_bytes_pipe_lsu_mem_local_op_ld.sum.per_second                    Mbyte/second                         139.84
    l1tex__t_requests_pipe_lsu_mem_global_op_atom.sum                              request                            315
    l1tex__t_requests_pipe_lsu_mem_global_op_ld.sum                                request                          2,059
    l1tex__t_requests_pipe_lsu_mem_global_op_red.sum                               request                             44
    l1tex__t_requests_pipe_lsu_mem_global_op_st.sum                                request                          1,303
    l1tex__t_requests_pipe_lsu_mem_local_op_ld.sum                                 request                          3,378
    l1tex__t_requests_pipe_lsu_mem_local_op_st.sum                                 request                          4,204
    l1tex__t_requests_pipe_tex_mem_surface_op_atom.sum                             request                              0
    l1tex__t_requests_pipe_tex_mem_surface_op_ld.sum                               request                              0
    l1tex__t_requests_pipe_tex_mem_surface_op_red.sum                              request                              0
    l1tex__t_requests_pipe_tex_mem_surface_op_st.sum                               request                              0
    l1tex__t_requests_pipe_tex_mem_texture.sum                                     request                              0
    l1tex__t_sector_hit_rate.pct                                                         %                          82.69
    l1tex__t_sectors_pipe_lsu_mem_global_op.sum                                                                   (!) n/a
    l1tex__t_sectors_pipe_lsu_mem_global_op_ld.sum                                  sector                          2,059
    l1tex__t_sectors_pipe_lsu_mem_global_op_lookup_hit.sum                                                        (!) n/a
    l1tex__t_sectors_pipe_lsu_mem_local_op_ld.sum                                   sector                          3,378
    l1tex__t_sectors_pipe_lsu_mem_local_op_st.sum                                   sector                          4,204
    l1tex__t_sectors_pipe_lsu_mem_local_op_st.sum.per_second                sector/usecond                           5.44
    l1tex__t_set_accesses_pipe_lsu_mem_global_op_atom.sum                                                             315
    l1tex__t_set_accesses_pipe_lsu_mem_global_op_red.sum                                                               44
    l1tex__t_set_accesses_pipe_tex_mem_surface_op_atom.sum                                                              0
    l1tex__t_set_accesses_pipe_tex_mem_surface_op_red.sum                                                               0
    l1tex__tex_writeback_active.avg.pct_of_peak_sustained_active                         %                              0
    l1tex__texin_sm2tex_req_cycles_active.avg.pct_of_peak_sustained_elapse               %                           0.00
    d                                                                                                                    
    lts__t_bytes_equiv_l1sectormiss_pipe_lsu_mem_global_op_ld.sum                    Kbyte                          39.33
    lts__t_bytes_equiv_l1sectormiss_pipe_lsu_mem_global_op_st.sum                    Kbyte                           5.76
    lts__t_bytes_equiv_l1sectormiss_pipe_lsu_mem_surface_op_st.sum                                                (!) n/a
    lts__t_bytes_equiv_l1sectormiss_pipe_tex_mem_surface_op_ld.sum                    byte                              0
    lts__t_sector_hit_rate.pct                                                           %                          78.81
    lts__t_sector_op_read_hit_rate.pct                                                   %                           7.36
    lts__t_sector_op_write_hit_rate.pct                                                  %                          87.73
    lts__t_sectors.avg.pct_of_peak_sustained_elapsed                                     %                           0.02
    lts__t_sectors_aperture_sysmem_op_read.sum                                      sector                              0
    lts__t_sectors_aperture_sysmem_op_read.sum.per_second                    sector/second                              0
    lts__t_sectors_aperture_sysmem_op_write.sum                                     sector                              7
    lts__t_sectors_aperture_sysmem_op_write.sum.per_second                  sector/msecond                           9.06
    lts__t_sectors_op_read.sum                                                      sector                         22,513
    lts__t_sectors_op_read.sum.per_second                                   sector/usecond                          29.12
    lts__t_sectors_op_write.sum                                                     sector                          7,508
    lts__t_sectors_op_write.sum.per_second                                  sector/usecond                           9.71
    lts__t_sectors_srcunit_l1_op_atom.sum                                           sector                              0
    lts__t_sectors_srcunit_l1_op_atom.sum.per_second                         sector/second                              0
    lts__t_sectors_srcunit_tex_op_read.sum                                          sector                          1,229
    lts__t_sectors_srcunit_tex_op_read.sum.per_second                       sector/usecond                           1.59
    sm__mio2rf_writeback_active.avg.pct_of_peak_sustained_elapsed                        %                           0.01
    sm__pipe_tensor_cycles_active.avg.pct_of_peak_sustained_active                       %                              0
    sm__warps_active.avg.pct_of_peak_sustained_active                                    %                           1.56
    smsp__average_inst_executed_per_warp.ratio                                   inst/warp                         45,155
    smsp__cycles_active.avg.pct_of_peak_sustained_elapsed                                %                           0.23
    smsp__inst_executed.avg.per_cycle_active                                    inst/cycle                           0.08
    smsp__inst_executed.sum                                                           inst                         45,155
    smsp__inst_executed_op_global_atom.sum                                                                        (!) n/a
    smsp__inst_executed_op_global_ld.sum                                              inst                            357
    smsp__inst_executed_op_global_st.sum                                              inst                             52
    smsp__inst_executed_op_local_ld.sum                                               inst                          3,242
    smsp__inst_executed_op_shared_atom.sum                                            inst                              0
    smsp__inst_executed_op_shared_atom_dot_alu.sum                                    inst                              0
    smsp__inst_executed_op_shared_atom_dot_cas.sum                                    inst                              0
    smsp__inst_executed_op_shared_ld.avg.pct_of_peak_sustained_elapsed                   %                              0
    smsp__inst_executed_op_shared_ld.sum                                              inst                              0
    smsp__inst_executed_op_shared_ld.sum.per_second                            inst/second                              0
    smsp__inst_executed_op_shared_st.avg.pct_of_peak_sustained_elapsed                   %                              0
    smsp__inst_executed_op_shared_st.sum                                              inst                              0
    smsp__inst_executed_op_shared_st.sum.per_second                            inst/second                              0
    smsp__inst_executed_op_surface_atom.sum                                           inst                              0
    smsp__inst_executed_op_surface_ld.sum                                             inst                              0
    smsp__inst_executed_op_surface_red.sum                                            inst                              0
    smsp__inst_executed_op_surface_st.sum                                             inst                              0
    smsp__inst_executed_op_texture.sum                                                inst                              0
    smsp__inst_executed_pipe_adu.sum                                                  inst                            365
    smsp__inst_executed_pipe_cbu.sum                                                  inst                          7,486
    smsp__inst_executed_pipe_fp16.sum                                                 inst                              0
    smsp__inst_executed_pipe_fp64.avg.pct_of_peak_sustained_active                       %                              0
    smsp__inst_executed_pipe_lsu.avg.pct_of_peak_sustained_active                        %                           1.97
    smsp__inst_executed_pipe_tex.avg.pct_of_peak_sustained_active                        %                              0
    smsp__inst_issued.avg.per_cycle_active                                      inst/cycle                           0.08
    smsp__inst_issued.sum                                                             inst                         45,608
    smsp__issue_active.avg.pct_of_peak_sustained_active                                  %                           7.88
    smsp__sass_thread_inst_executed_op_control_pred_on.sum                            inst                            662
    smsp__sass_thread_inst_executed_op_dadd_pred_on.sum                               inst                              0
    smsp__sass_thread_inst_executed_op_dfma_pred_on.sum                               inst                              0
    smsp__sass_thread_inst_executed_op_dmul_pred_on.sum                               inst                              0
    smsp__sass_thread_inst_executed_op_fadd_pred_on.sum                               inst                            269
    smsp__sass_thread_inst_executed_op_ffma_pred_on.sum                               inst                             43
    smsp__sass_thread_inst_executed_op_fmul_pred_on.sum                               inst                             45
    smsp__sass_thread_inst_executed_op_fp16_pred_on.sum                               inst                              0
    smsp__sass_thread_inst_executed_op_fp32_pred_on.sum                               inst                            479
    smsp__sass_thread_inst_executed_op_fp64_pred_on.sum                               inst                              0
    smsp__sass_thread_inst_executed_op_hadd_pred_on.sum                               inst                              0
    smsp__sass_thread_inst_executed_op_hfma_pred_on.sum                               inst                              0
    smsp__sass_thread_inst_executed_op_hmul_pred_on.sum                               inst                              0
    smsp__sass_thread_inst_executed_op_integer_pred_on.sum                            inst                          2,188
    smsp__sass_thread_inst_executed_op_inter_thread_communication_pred_on.            inst                              0
    sum                                                                                                                  
    smsp__sass_thread_inst_executed_op_memory_pred_on.sum                             inst                          3,192
    smsp__sass_thread_inst_executed_op_misc_pred_on.sum                               inst                            453
    smsp__sass_thread_inst_executed_op_mufu_pred_on.sum                                                           (!) n/a
    smsp__thread_inst_executed_per_inst_executed.pct                                     %                           3.12
    smsp__thread_inst_executed_per_inst_executed.ratio                                                                  1
    smsp__warp_issue_stalled_drain_miss_per_warp_active.pct                                                       (!) n/a
    smsp__warp_issue_stalled_imc_miss_per_warp_active.pct                                %                           0.24
    smsp__warp_issue_stalled_long_scoreboard_miss_per_warp_active.pct                                             (!) n/a
    smsp__warp_issue_stalled_misc_membar_per_warp_active.pct                                                      (!) n/a
    smsp__warp_issue_stalled_misc_mio_throttle_per_warp_active.pct                                                (!) n/a
    smsp__warp_issue_stalled_misc_miss_per_warp_active.pct                                                        (!) n/a
    smsp__warp_issue_stalled_misc_sleeping_per_warp_active.pct                                                    (!) n/a
    smsp__warp_issue_stalled_misc_tex_throttle_per_warp_active.pct                                                (!) n/a
    smsp__warp_issue_stalled_no_instruction_miss_per_warp_active.pct                                              (!) n/a
    smsp__warp_issue_stalled_short_scoreboard_miss_per_warp_active.pct                                            (!) n/a
    smsp__warps_eligible.sum.per_cycle_active                                         warp                          34.04
    ---------------------------------------------------------------------- --------------- ------------------------------

  init_rand_state(curandStateXORWOW*, int, int), 2023-Nov-03 20:41:11, Context 1, Stream 7
    Section: Command line profiler metrics
    ---------------------------------------------------------------------- --------------- ------------------------------
    dram__bytes_read.sum                                                             Mbyte                          19.41
    dram__bytes_read.sum.per_second                                           Gbyte/second                         208.18
    dram__bytes_write.sum                                                            Mbyte                          24.34
    dram__bytes_write.sum.per_second                                          Gbyte/second                         261.15
    dram__sectors_read.sum                                                          sector                        606,440
    dram__sectors_write.sum                                                         sector                        760,720
    l1tex__f_tex2sm_cycles_active.avg.pct_of_peak_sustained_elapsed                      %                              0
    l1tex__lsu_writeback_active.avg.pct_of_peak_sustained_active                         %                           1.26
    l1tex__lsu_writeback_active.sum                                                  cycle                         90,902
    l1tex__t_bytes_pipe_lsu_mem_global_op_ld.sum.per_second                    byte/second                              0
    l1tex__t_bytes_pipe_lsu_mem_global_op_st.sum                                     Mbyte                         138.24
    l1tex__t_bytes_pipe_lsu_mem_global_op_st.sum.per_second                   Tbyte/second                           1.48
    l1tex__t_bytes_pipe_lsu_mem_local_op_ld.sum.per_second                     byte/second                              0
    l1tex__t_requests_pipe_lsu_mem_global_op_atom.sum                              request                              0
    l1tex__t_requests_pipe_lsu_mem_global_op_ld.sum                                request                              0
    l1tex__t_requests_pipe_lsu_mem_global_op_red.sum                               request                              0
    l1tex__t_requests_pipe_lsu_mem_global_op_st.sum                                request                        270,000
    l1tex__t_requests_pipe_lsu_mem_local_op_ld.sum                                 request                              0
    l1tex__t_requests_pipe_lsu_mem_local_op_st.sum                                 request                              0
    l1tex__t_requests_pipe_tex_mem_surface_op_atom.sum                             request                              0
    l1tex__t_requests_pipe_tex_mem_surface_op_ld.sum                               request                              0
    l1tex__t_requests_pipe_tex_mem_surface_op_red.sum                              request                              0
    l1tex__t_requests_pipe_tex_mem_surface_op_st.sum                               request                              0
    l1tex__t_requests_pipe_tex_mem_texture.sum                                     request                              0
    l1tex__t_sector_hit_rate.pct                                                         %                          83.76
    l1tex__t_sectors_pipe_lsu_mem_global_op.sum                                                                   (!) n/a
    l1tex__t_sectors_pipe_lsu_mem_global_op_ld.sum                                  sector                              0
    l1tex__t_sectors_pipe_lsu_mem_global_op_lookup_hit.sum                                                        (!) n/a
    l1tex__t_sectors_pipe_lsu_mem_local_op_ld.sum                                   sector                              0
    l1tex__t_sectors_pipe_lsu_mem_local_op_st.sum                                   sector                              0
    l1tex__t_sectors_pipe_lsu_mem_local_op_st.sum.per_second                 sector/second                              0
    l1tex__t_set_accesses_pipe_lsu_mem_global_op_atom.sum                                                               0
    l1tex__t_set_accesses_pipe_lsu_mem_global_op_red.sum                                                                0
    l1tex__t_set_accesses_pipe_tex_mem_surface_op_atom.sum                                                              0
    l1tex__t_set_accesses_pipe_tex_mem_surface_op_red.sum                                                               0
    l1tex__tex_writeback_active.avg.pct_of_peak_sustained_active                         %                              0
    l1tex__texin_sm2tex_req_cycles_active.avg.pct_of_peak_sustained_elapse               %                           0.00
    d                                                                                                                    
    lts__t_bytes_equiv_l1sectormiss_pipe_lsu_mem_global_op_ld.sum                     byte                              0
    lts__t_bytes_equiv_l1sectormiss_pipe_lsu_mem_global_op_st.sum                    Mbyte                          22.44
    lts__t_bytes_equiv_l1sectormiss_pipe_lsu_mem_surface_op_st.sum                                                (!) n/a
    lts__t_bytes_equiv_l1sectormiss_pipe_tex_mem_surface_op_ld.sum                    byte                              0
    lts__t_sector_hit_rate.pct                                                           %                          88.75
    lts__t_sector_op_read_hit_rate.pct                                                   %                          12.30
    lts__t_sector_op_write_hit_rate.pct                                                  %                          87.82
    lts__t_sectors.avg.pct_of_peak_sustained_elapsed                                     %                          48.00
    lts__t_sectors_aperture_sysmem_op_read.sum                                      sector                              0
    lts__t_sectors_aperture_sysmem_op_read.sum.per_second                    sector/second                              0
    lts__t_sectors_aperture_sysmem_op_write.sum                                     sector                              7
    lts__t_sectors_aperture_sysmem_op_write.sum.per_second                  sector/msecond                          75.09
    lts__t_sectors_op_read.sum                                                      sector                            870
    lts__t_sectors_op_read.sum.per_second                                   sector/usecond                           9.33
    lts__t_sectors_op_write.sum                                                     sector                      4,978,939
    lts__t_sectors_op_write.sum.per_second                                  sector/nsecond                          53.41
    lts__t_sectors_srcunit_l1_op_atom.sum                                           sector                              0
    lts__t_sectors_srcunit_l1_op_atom.sum.per_second                         sector/second                              0
    lts__t_sectors_srcunit_tex_op_read.sum                                          sector                              0
    lts__t_sectors_srcunit_tex_op_read.sum.per_second                        sector/second                              0
    sm__mio2rf_writeback_active.avg.pct_of_peak_sustained_elapsed                        %                           1.20
    sm__pipe_tensor_cycles_active.avg.pct_of_peak_sustained_active                       %                              0
    sm__warps_active.avg.pct_of_peak_sustained_active                                    %                          43.45
    smsp__average_inst_executed_per_warp.ratio                                   inst/warp                          35.74
    smsp__cycles_active.avg.pct_of_peak_sustained_elapsed                                %                          94.19
    smsp__inst_executed.avg.per_cycle_active                                    inst/cycle                           0.06
    smsp__inst_executed.sum                                                           inst                      1,624,510
    smsp__inst_executed_op_global_atom.sum                                                                        (!) n/a
    smsp__inst_executed_op_global_ld.sum                                              inst                              0
    smsp__inst_executed_op_global_st.sum                                              inst                        270,000
    smsp__inst_executed_op_local_ld.sum                                               inst                              0
    smsp__inst_executed_op_shared_atom.sum                                            inst                              0
    smsp__inst_executed_op_shared_atom_dot_alu.sum                                    inst                              0
    smsp__inst_executed_op_shared_atom_dot_cas.sum                                    inst                              0
    smsp__inst_executed_op_shared_ld.avg.pct_of_peak_sustained_elapsed                   %                              0
    smsp__inst_executed_op_shared_ld.sum                                              inst                              0
    smsp__inst_executed_op_shared_ld.sum.per_second                            inst/second                              0
    smsp__inst_executed_op_shared_st.avg.pct_of_peak_sustained_elapsed                   %                              0
    smsp__inst_executed_op_shared_st.sum                                              inst                              0
    smsp__inst_executed_op_shared_st.sum.per_second                            inst/second                              0
    smsp__inst_executed_op_surface_atom.sum                                           inst                              0
    smsp__inst_executed_op_surface_ld.sum                                             inst                              0
    smsp__inst_executed_op_surface_red.sum                                            inst                              0
    smsp__inst_executed_op_surface_st.sum                                             inst                              0
    smsp__inst_executed_op_texture.sum                                                inst                              0
    smsp__inst_executed_pipe_adu.sum                                                  inst                         90,902
    smsp__inst_executed_pipe_cbu.sum                                                  inst                         90,451
    smsp__inst_executed_pipe_fp16.sum                                                 inst                              0
    smsp__inst_executed_pipe_fp64.avg.pct_of_peak_sustained_active                       %                              0
    smsp__inst_executed_pipe_lsu.avg.pct_of_peak_sustained_active                        %                           1.26
    smsp__inst_executed_pipe_tex.avg.pct_of_peak_sustained_active                        %                              0
    smsp__inst_issued.avg.per_cycle_active                                      inst/cycle                           0.06
    smsp__inst_issued.sum                                                             inst                      1,627,510
    smsp__issue_active.avg.pct_of_peak_sustained_active                                  %                           5.68
    smsp__sass_thread_inst_executed_op_control_pred_on.sum                            inst                        727,216
    smsp__sass_thread_inst_executed_op_dadd_pred_on.sum                               inst                              0
    smsp__sass_thread_inst_executed_op_dfma_pred_on.sum                               inst                              0
    smsp__sass_thread_inst_executed_op_dmul_pred_on.sum                               inst                              0
    smsp__sass_thread_inst_executed_op_fadd_pred_on.sum                               inst                              0
    smsp__sass_thread_inst_executed_op_ffma_pred_on.sum                               inst                        720,000
    smsp__sass_thread_inst_executed_op_fmul_pred_on.sum                               inst                              0
    smsp__sass_thread_inst_executed_op_fp16_pred_on.sum                               inst                              0
    smsp__sass_thread_inst_executed_op_fp32_pred_on.sum                               inst                        720,000
    smsp__sass_thread_inst_executed_op_fp64_pred_on.sum                               inst                              0
    smsp__sass_thread_inst_executed_op_hadd_pred_on.sum                               inst                              0
    smsp__sass_thread_inst_executed_op_hfma_pred_on.sum                               inst                              0
    smsp__sass_thread_inst_executed_op_hmul_pred_on.sum                               inst                              0
    smsp__sass_thread_inst_executed_op_integer_pred_on.sum                            inst                     13,716,080
    smsp__sass_thread_inst_executed_op_inter_thread_communication_pred_on.            inst                              0
    sum                                                                                                                  
    smsp__sass_thread_inst_executed_op_memory_pred_on.sum                             inst                      4,320,000
    smsp__sass_thread_inst_executed_op_misc_pred_on.sum                               inst                      2,908,864
    smsp__sass_thread_inst_executed_op_mufu_pred_on.sum                                                           (!) n/a
    smsp__thread_inst_executed_per_inst_executed.pct                                     %                             50
    smsp__thread_inst_executed_per_inst_executed.ratio                                                                 16
    smsp__warp_issue_stalled_drain_miss_per_warp_active.pct                                                       (!) n/a
    smsp__warp_issue_stalled_imc_miss_per_warp_active.pct                                %                           0.17
    smsp__warp_issue_stalled_long_scoreboard_miss_per_warp_active.pct                                             (!) n/a
    smsp__warp_issue_stalled_misc_membar_per_warp_active.pct                                                      (!) n/a
    smsp__warp_issue_stalled_misc_mio_throttle_per_warp_active.pct                                                (!) n/a
    smsp__warp_issue_stalled_misc_miss_per_warp_active.pct                                                        (!) n/a
    smsp__warp_issue_stalled_misc_sleeping_per_warp_active.pct                                                    (!) n/a
    smsp__warp_issue_stalled_misc_tex_throttle_per_warp_active.pct                                                (!) n/a
    smsp__warp_issue_stalled_no_instruction_miss_per_warp_active.pct                                              (!) n/a
    smsp__warp_issue_stalled_short_scoreboard_miss_per_warp_active.pct                                            (!) n/a
    smsp__warps_eligible.sum.per_cycle_active                                         warp                          40.28
    ---------------------------------------------------------------------- --------------- ------------------------------

  render(vec3*, int, int, hitable_list**, camera**, curandStateXORWOW*), 2023-Nov-03 20:41:31, Context 1, Stream 7
    Section: Command line profiler metrics
    ---------------------------------------------------------------------- --------------- ------------------------------
    dram__bytes_read.sum                                                             Gbyte                          43.96
    dram__bytes_read.sum.per_second                                           Gbyte/second                          83.63
    dram__bytes_write.sum                                                            Gbyte                          95.04
    dram__bytes_write.sum.per_second                                          Gbyte/second                         180.83
    dram__sectors_read.sum                                                          sector                  1,373,690,476
    dram__sectors_write.sum                                                         sector                  2,970,096,432
    l1tex__f_tex2sm_cycles_active.avg.pct_of_peak_sustained_elapsed                      %                              0
    l1tex__lsu_writeback_active.avg.pct_of_peak_sustained_active                         %                          23.11
    l1tex__lsu_writeback_active.sum                                                  cycle                  7,820,919,355
    l1tex__t_bytes_pipe_lsu_mem_global_op_ld.sum.per_second                   Gbyte/second                         200.95
    l1tex__t_bytes_pipe_lsu_mem_global_op_st.sum                                     Mbyte                          34.56
    l1tex__t_bytes_pipe_lsu_mem_global_op_st.sum.per_second                   Mbyte/second                          65.75
    l1tex__t_bytes_pipe_lsu_mem_local_op_ld.sum.per_second                    Gbyte/second                         536.41
    l1tex__t_requests_pipe_lsu_mem_global_op_atom.sum                              request                              0
    l1tex__t_requests_pipe_lsu_mem_global_op_ld.sum                                request                  2,626,346,968
    l1tex__t_requests_pipe_lsu_mem_global_op_red.sum                               request                              0
    l1tex__t_requests_pipe_lsu_mem_global_op_st.sum                                request                        135,000
    l1tex__t_requests_pipe_lsu_mem_local_op_ld.sum                                 request                  5,163,799,282
    l1tex__t_requests_pipe_lsu_mem_local_op_st.sum                                 request                  4,710,769,155
    l1tex__t_requests_pipe_tex_mem_surface_op_atom.sum                             request                              0
    l1tex__t_requests_pipe_tex_mem_surface_op_ld.sum                               request                              0
    l1tex__t_requests_pipe_tex_mem_surface_op_red.sum                              request                              0
    l1tex__t_requests_pipe_tex_mem_surface_op_st.sum                               request                              0
    l1tex__t_requests_pipe_tex_mem_texture.sum                                     request                              0
    l1tex__t_sector_hit_rate.pct                                                         %                          75.99
    l1tex__t_sectors_pipe_lsu_mem_global_op.sum                                                                   (!) n/a
    l1tex__t_sectors_pipe_lsu_mem_global_op_ld.sum                                  sector                  3,300,583,774
    l1tex__t_sectors_pipe_lsu_mem_global_op_lookup_hit.sum                                                        (!) n/a
    l1tex__t_sectors_pipe_lsu_mem_local_op_ld.sum                                   sector                  8,810,606,787
    l1tex__t_sectors_pipe_lsu_mem_local_op_st.sum                                   sector                  8,055,631,636
    l1tex__t_sectors_pipe_lsu_mem_local_op_st.sum.per_second                sector/nsecond                          15.33
    l1tex__t_set_accesses_pipe_lsu_mem_global_op_atom.sum                                                               0
    l1tex__t_set_accesses_pipe_lsu_mem_global_op_red.sum                                                                0
    l1tex__t_set_accesses_pipe_tex_mem_surface_op_atom.sum                                                              0
    l1tex__t_set_accesses_pipe_tex_mem_surface_op_red.sum                                                               0
    l1tex__tex_writeback_active.avg.pct_of_peak_sustained_active                         %                              0
    l1tex__texin_sm2tex_req_cycles_active.avg.pct_of_peak_sustained_elapse               %                           0.00
    d                                                                                                                    
    lts__t_bytes_equiv_l1sectormiss_pipe_lsu_mem_global_op_ld.sum                    Gbyte                           1.44
    lts__t_bytes_equiv_l1sectormiss_pipe_lsu_mem_global_op_st.sum                    Mbyte                          11.31
    lts__t_bytes_equiv_l1sectormiss_pipe_lsu_mem_surface_op_st.sum                                                (!) n/a
    lts__t_bytes_equiv_l1sectormiss_pipe_tex_mem_surface_op_ld.sum                    byte                              0
    lts__t_sector_hit_rate.pct                                                           %                          89.56
    lts__t_sector_op_read_hit_rate.pct                                                   %                          49.30
    lts__t_sector_op_write_hit_rate.pct                                                  %                          95.57
    lts__t_sectors.avg.pct_of_peak_sustained_elapsed                                     %                          27.12
    lts__t_sectors_aperture_sysmem_op_read.sum                                      sector                              0
    lts__t_sectors_aperture_sysmem_op_read.sum.per_second                    sector/second                              0
    lts__t_sectors_aperture_sysmem_op_write.sum                                     sector                             36
    lts__t_sectors_aperture_sysmem_op_write.sum.per_second                   sector/second                          68.49
    lts__t_sectors_op_read.sum                                                      sector                  2,425,050,534
    lts__t_sectors_op_read.sum.per_second                                   sector/nsecond                           4.61
    lts__t_sectors_op_write.sum                                                     sector                 12,715,948,182
    lts__t_sectors_op_write.sum.per_second                                  sector/nsecond                          24.19
    lts__t_sectors_srcunit_l1_op_atom.sum                                           sector                              0
    lts__t_sectors_srcunit_l1_op_atom.sum.per_second                         sector/second                              0
    lts__t_sectors_srcunit_tex_op_read.sum                                          sector                  1,875,406,655
    lts__t_sectors_srcunit_tex_op_read.sum.per_second                       sector/nsecond                           3.57
    sm__mio2rf_writeback_active.avg.pct_of_peak_sustained_elapsed                        %                          10.31
    sm__pipe_tensor_cycles_active.avg.pct_of_peak_sustained_active                       %                              0
    sm__warps_active.avg.pct_of_peak_sustained_active                                    %                          36.57
    smsp__average_inst_executed_per_warp.ratio                                   inst/warp                   1,328,039.99
    smsp__cycles_active.avg.pct_of_peak_sustained_elapsed                                %                          77.75
    smsp__inst_executed.avg.per_cycle_active                                    inst/cycle                           0.46
    smsp__inst_executed.sum                                                           inst                 60,360,745,518
    smsp__inst_executed_op_global_atom.sum                                                                        (!) n/a
    smsp__inst_executed_op_global_ld.sum                                              inst                     18,632,431
    smsp__inst_executed_op_global_st.sum                                              inst                        135,000
    smsp__inst_executed_op_local_ld.sum                                               inst                  3,476,366,604
    smsp__inst_executed_op_shared_atom.sum                                            inst                              0
    smsp__inst_executed_op_shared_atom_dot_alu.sum                                    inst                              0
    smsp__inst_executed_op_shared_atom_dot_cas.sum                                    inst                              0
    smsp__inst_executed_op_shared_ld.avg.pct_of_peak_sustained_elapsed                   %                              0
    smsp__inst_executed_op_shared_ld.sum                                              inst                              0
    smsp__inst_executed_op_shared_ld.sum.per_second                            inst/second                              0
    smsp__inst_executed_op_shared_st.avg.pct_of_peak_sustained_elapsed                   %                              0
    smsp__inst_executed_op_shared_st.sum                                              inst                              0
    smsp__inst_executed_op_shared_st.sum.per_second                            inst/second                              0
    smsp__inst_executed_op_surface_atom.sum                                           inst                              0
    smsp__inst_executed_op_surface_ld.sum                                             inst                              0
    smsp__inst_executed_op_surface_red.sum                                            inst                              0
    smsp__inst_executed_op_surface_st.sum                                             inst                              0
    smsp__inst_executed_op_texture.sum                                                inst                              0
    smsp__inst_executed_pipe_adu.sum                                                  inst                    336,541,140
    smsp__inst_executed_pipe_cbu.sum                                                  inst                  6,733,371,734
    smsp__inst_executed_pipe_fp16.sum                                                 inst                              0
    smsp__inst_executed_pipe_fp64.avg.pct_of_peak_sustained_active                       %                           0.75
    smsp__inst_executed_pipe_lsu.avg.pct_of_peak_sustained_active                        %                           8.75
    smsp__inst_executed_pipe_tex.avg.pct_of_peak_sustained_active                        %                              0
    smsp__inst_issued.avg.per_cycle_active                                      inst/cycle                           0.46
    smsp__inst_issued.sum                                                             inst                 60,654,540,310
    smsp__issue_active.avg.pct_of_peak_sustained_active                                  %                          46.28
    smsp__sass_thread_inst_executed_op_control_pred_on.sum                            inst                 61,550,631,634
    smsp__sass_thread_inst_executed_op_dadd_pred_on.sum                               inst                    345,406,025
    smsp__sass_thread_inst_executed_op_dfma_pred_on.sum                               inst                  1,126,733,840
    smsp__sass_thread_inst_executed_op_dmul_pred_on.sum                               inst                    225,346,846
    smsp__sass_thread_inst_executed_op_fadd_pred_on.sum                               inst                 28,805,551,580
    smsp__sass_thread_inst_executed_op_ffma_pred_on.sum                               inst                 29,366,607,179
    smsp__sass_thread_inst_executed_op_fmul_pred_on.sum                               inst                 20,512,759,137
    smsp__sass_thread_inst_executed_op_fp16_pred_on.sum                               inst                              0
    smsp__sass_thread_inst_executed_op_fp32_pred_on.sum                               inst                117,248,526,296
    smsp__sass_thread_inst_executed_op_fp64_pred_on.sum                               inst                  1,697,486,789
    smsp__sass_thread_inst_executed_op_hadd_pred_on.sum                               inst                              0
    smsp__sass_thread_inst_executed_op_hfma_pred_on.sum                               inst                              0
    smsp__sass_thread_inst_executed_op_hmul_pred_on.sum                               inst                              0
    smsp__sass_thread_inst_executed_op_integer_pred_on.sum                            inst                156,928,469,509
    smsp__sass_thread_inst_executed_op_inter_thread_communication_pred_on.            inst                              0
    sum                                                                                                                  
    smsp__sass_thread_inst_executed_op_memory_pred_on.sum                             inst                102,722,183,857
    smsp__sass_thread_inst_executed_op_misc_pred_on.sum                               inst                 38,130,985,046
    smsp__sass_thread_inst_executed_op_mufu_pred_on.sum                                                           (!) n/a
    smsp__thread_inst_executed_per_inst_executed.pct                                     %                          26.12
    smsp__thread_inst_executed_per_inst_executed.ratio                                                               8.36
    smsp__warp_issue_stalled_drain_miss_per_warp_active.pct                                                       (!) n/a
    smsp__warp_issue_stalled_imc_miss_per_warp_active.pct                                %                           0.00
    smsp__warp_issue_stalled_long_scoreboard_miss_per_warp_active.pct                                             (!) n/a
    smsp__warp_issue_stalled_misc_membar_per_warp_active.pct                                                      (!) n/a
    smsp__warp_issue_stalled_misc_mio_throttle_per_warp_active.pct                                                (!) n/a
    smsp__warp_issue_stalled_misc_miss_per_warp_active.pct                                                        (!) n/a
    smsp__warp_issue_stalled_misc_sleeping_per_warp_active.pct                                                    (!) n/a
    smsp__warp_issue_stalled_misc_tex_throttle_per_warp_active.pct                                                (!) n/a
    smsp__warp_issue_stalled_no_instruction_miss_per_warp_active.pct                                              (!) n/a
    smsp__warp_issue_stalled_short_scoreboard_miss_per_warp_active.pct                                            (!) n/a
    smsp__warps_eligible.sum.per_cycle_active                                         warp                         308.90
    ---------------------------------------------------------------------- --------------- ------------------------------

  free_scene(hitable_object**, hitable_list**, camera**), 2023-Nov-03 20:41:31, Context 1, Stream 7
    Section: Command line profiler metrics
    ---------------------------------------------------------------------- --------------- ------------------------------
    dram__bytes_read.sum                                                             Kbyte                          47.36
    dram__bytes_read.sum.per_second                                           Mbyte/second                          30.04
    dram__bytes_write.sum                                                             byte                              0
    dram__bytes_write.sum.per_second                                           byte/second                              0
    dram__sectors_read.sum                                                          sector                          1,480
    dram__sectors_write.sum                                                         sector                              0
    l1tex__f_tex2sm_cycles_active.avg.pct_of_peak_sustained_elapsed                      %                              0
    l1tex__lsu_writeback_active.avg.pct_of_peak_sustained_active                         %                           0.90
    l1tex__lsu_writeback_active.sum                                                  cycle                         10,746
    l1tex__t_bytes_pipe_lsu_mem_global_op_ld.sum.per_second                   Mbyte/second                          43.35
    l1tex__t_bytes_pipe_lsu_mem_global_op_st.sum                                     Kbyte                         112.19
    l1tex__t_bytes_pipe_lsu_mem_global_op_st.sum.per_second                   Mbyte/second                          71.16
    l1tex__t_bytes_pipe_lsu_mem_local_op_ld.sum.per_second                    Mbyte/second                         163.95
    l1tex__t_requests_pipe_lsu_mem_global_op_atom.sum                              request                            206
    l1tex__t_requests_pipe_lsu_mem_global_op_ld.sum                                request                          2,136
    l1tex__t_requests_pipe_lsu_mem_global_op_red.sum                               request                             18
    l1tex__t_requests_pipe_lsu_mem_global_op_st.sum                                request                          3,506
    l1tex__t_requests_pipe_lsu_mem_local_op_ld.sum                                 request                          8,078
    l1tex__t_requests_pipe_lsu_mem_local_op_st.sum                                 request                          2,250
    l1tex__t_requests_pipe_tex_mem_surface_op_atom.sum                             request                              0
    l1tex__t_requests_pipe_tex_mem_surface_op_ld.sum                               request                              0
    l1tex__t_requests_pipe_tex_mem_surface_op_red.sum                              request                              0
    l1tex__t_requests_pipe_tex_mem_surface_op_st.sum                               request                              0
    l1tex__t_requests_pipe_tex_mem_texture.sum                                     request                              0
    l1tex__t_sector_hit_rate.pct                                                         %                          83.96
    l1tex__t_sectors_pipe_lsu_mem_global_op.sum                                                                   (!) n/a
    l1tex__t_sectors_pipe_lsu_mem_global_op_ld.sum                                  sector                          2,136
    l1tex__t_sectors_pipe_lsu_mem_global_op_lookup_hit.sum                                                        (!) n/a
    l1tex__t_sectors_pipe_lsu_mem_local_op_ld.sum                                   sector                          8,078
    l1tex__t_sectors_pipe_lsu_mem_local_op_st.sum                                   sector                          2,250
    l1tex__t_sectors_pipe_lsu_mem_local_op_st.sum.per_second                sector/usecond                           1.43
    l1tex__t_set_accesses_pipe_lsu_mem_global_op_atom.sum                                                             206
    l1tex__t_set_accesses_pipe_lsu_mem_global_op_red.sum                                                               18
    l1tex__t_set_accesses_pipe_tex_mem_surface_op_atom.sum                                                              0
    l1tex__t_set_accesses_pipe_tex_mem_surface_op_red.sum                                                               0
    l1tex__tex_writeback_active.avg.pct_of_peak_sustained_active                         %                              0
    l1tex__texin_sm2tex_req_cycles_active.avg.pct_of_peak_sustained_elapse               %                           0.00
    d                                                                                                                    
    lts__t_bytes_equiv_l1sectormiss_pipe_lsu_mem_global_op_ld.sum                    Kbyte                          68.13
    lts__t_bytes_equiv_l1sectormiss_pipe_lsu_mem_global_op_st.sum                    Kbyte                           3.26
    lts__t_bytes_equiv_l1sectormiss_pipe_lsu_mem_surface_op_st.sum                                                (!) n/a
    lts__t_bytes_equiv_l1sectormiss_pipe_tex_mem_surface_op_ld.sum                    byte                              0
    lts__t_sector_hit_rate.pct                                                           %                          95.61
    lts__t_sector_op_read_hit_rate.pct                                                   %                          10.26
    lts__t_sector_op_write_hit_rate.pct                                                  %                          67.53
    lts__t_sectors.avg.pct_of_peak_sustained_elapsed                                     %                           0.08
    lts__t_sectors_aperture_sysmem_op_read.sum                                      sector                             16
    lts__t_sectors_aperture_sysmem_op_read.sum.per_second                   sector/msecond                          10.15
    lts__t_sectors_aperture_sysmem_op_write.sum                                     sector                          6,871
    lts__t_sectors_aperture_sysmem_op_write.sum.per_second                  sector/usecond                           4.36
    lts__t_sectors_op_read.sum                                                      sector                         21,634
    lts__t_sectors_op_read.sum.per_second                                   sector/usecond                          13.72
    lts__t_sectors_op_write.sum                                                     sector                         10,444
    lts__t_sectors_op_write.sum.per_second                                  sector/usecond                           6.62
    lts__t_sectors_srcunit_l1_op_atom.sum                                           sector                              0
    lts__t_sectors_srcunit_l1_op_atom.sum.per_second                         sector/second                              0
    lts__t_sectors_srcunit_tex_op_read.sum                                          sector                          2,161
    lts__t_sectors_srcunit_tex_op_read.sum.per_second                       sector/usecond                           1.37
    sm__mio2rf_writeback_active.avg.pct_of_peak_sustained_elapsed                        %                           0.00
    sm__pipe_tensor_cycles_active.avg.pct_of_peak_sustained_active                       %                              0
    sm__warps_active.avg.pct_of_peak_sustained_active                                    %                           1.56
    smsp__average_inst_executed_per_warp.ratio                                   inst/warp                     106,941.00
    smsp__cycles_active.avg.pct_of_peak_sustained_elapsed                                %                           0.23
    smsp__inst_executed.avg.per_cycle_active                                    inst/cycle                           0.09
    smsp__inst_executed.sum                                                           inst                        106,941
    smsp__inst_executed_op_global_atom.sum                                                                        (!) n/a
    smsp__inst_executed_op_global_ld.sum                                              inst                             20
    smsp__inst_executed_op_global_st.sum                                              inst                             48
    smsp__inst_executed_op_local_ld.sum                                               inst                          7,898
    smsp__inst_executed_op_shared_atom.sum                                            inst                              0
    smsp__inst_executed_op_shared_atom_dot_alu.sum                                    inst                              0
    smsp__inst_executed_op_shared_atom_dot_cas.sum                                    inst                              0
    smsp__inst_executed_op_shared_ld.avg.pct_of_peak_sustained_elapsed                   %                           0.00
    smsp__inst_executed_op_shared_ld.sum                                              inst                            192
    smsp__inst_executed_op_shared_ld.sum.per_second                           inst/msecond                         121.78
    smsp__inst_executed_op_shared_st.avg.pct_of_peak_sustained_elapsed                   %                              0
    smsp__inst_executed_op_shared_st.sum                                              inst                              0
    smsp__inst_executed_op_shared_st.sum.per_second                            inst/second                              0
    smsp__inst_executed_op_surface_atom.sum                                           inst                              0
    smsp__inst_executed_op_surface_ld.sum                                             inst                              0
    smsp__inst_executed_op_surface_red.sum                                            inst                              0
    smsp__inst_executed_op_surface_st.sum                                             inst                              0
    smsp__inst_executed_op_texture.sum                                                inst                              0
    smsp__inst_executed_pipe_adu.sum                                                  inst                            131
    smsp__inst_executed_pipe_cbu.sum                                                  inst                          3,617
    smsp__inst_executed_pipe_fp16.sum                                                 inst                              0
    smsp__inst_executed_pipe_fp64.avg.pct_of_peak_sustained_active                       %                              0
    smsp__inst_executed_pipe_lsu.avg.pct_of_peak_sustained_active                        %                           1.67
    smsp__inst_executed_pipe_tex.avg.pct_of_peak_sustained_active                        %                           0.01
    smsp__inst_issued.avg.per_cycle_active                                      inst/cycle                           0.09
    smsp__inst_issued.sum                                                             inst                        107,171
    smsp__issue_active.avg.pct_of_peak_sustained_active                                  %                           9.04
    smsp__sass_thread_inst_executed_op_control_pred_on.sum                            inst                            112
    smsp__sass_thread_inst_executed_op_dadd_pred_on.sum                               inst                              0
    smsp__sass_thread_inst_executed_op_dfma_pred_on.sum                               inst                              0
    smsp__sass_thread_inst_executed_op_dmul_pred_on.sum                               inst                              0
    smsp__sass_thread_inst_executed_op_fadd_pred_on.sum                               inst                              0
    smsp__sass_thread_inst_executed_op_ffma_pred_on.sum                               inst                              0
    smsp__sass_thread_inst_executed_op_fmul_pred_on.sum                               inst                              0
    smsp__sass_thread_inst_executed_op_fp16_pred_on.sum                               inst                              0
    smsp__sass_thread_inst_executed_op_fp32_pred_on.sum                               inst                              0
    smsp__sass_thread_inst_executed_op_fp64_pred_on.sum                               inst                              0
    smsp__sass_thread_inst_executed_op_hadd_pred_on.sum                               inst                              0
    smsp__sass_thread_inst_executed_op_hfma_pred_on.sum                               inst                              0
    smsp__sass_thread_inst_executed_op_hmul_pred_on.sum                               inst                              0
    smsp__sass_thread_inst_executed_op_integer_pred_on.sum                            inst                            219
    smsp__sass_thread_inst_executed_op_inter_thread_communication_pred_on.            inst                              0
    sum                                                                                                                  
    smsp__sass_thread_inst_executed_op_memory_pred_on.sum                             inst                            232
    smsp__sass_thread_inst_executed_op_misc_pred_on.sum                               inst                            126
    smsp__sass_thread_inst_executed_op_mufu_pred_on.sum                                                           (!) n/a
    smsp__thread_inst_executed_per_inst_executed.pct                                     %                           3.12
    smsp__thread_inst_executed_per_inst_executed.ratio                                                                  1
    smsp__warp_issue_stalled_drain_miss_per_warp_active.pct                                                       (!) n/a
    smsp__warp_issue_stalled_imc_miss_per_warp_active.pct                                %                           0.11
    smsp__warp_issue_stalled_long_scoreboard_miss_per_warp_active.pct                                             (!) n/a
    smsp__warp_issue_stalled_misc_membar_per_warp_active.pct                                                      (!) n/a
    smsp__warp_issue_stalled_misc_mio_throttle_per_warp_active.pct                                                (!) n/a
    smsp__warp_issue_stalled_misc_miss_per_warp_active.pct                                                        (!) n/a
    smsp__warp_issue_stalled_misc_sleeping_per_warp_active.pct                                                    (!) n/a
    smsp__warp_issue_stalled_misc_tex_throttle_per_warp_active.pct                                                (!) n/a
    smsp__warp_issue_stalled_no_instruction_miss_per_warp_active.pct                                              (!) n/a
    smsp__warp_issue_stalled_short_scoreboard_miss_per_warp_active.pct                                            (!) n/a
    smsp__warps_eligible.sum.per_cycle_active                                         warp                          39.04
    ---------------------------------------------------------------------- --------------- ------------------------------


