Approximate memory needed: 15.815 MiB GPU, 5.722 MiB CPU
==PROF== Profiling "InitializeRNG" - 1: 0%....50%....100% - 13 passes
Calculating Buddhabrot.
Running for 10.000 seconds.
==PROF== Profiling "DrawBuddhabrot" - 2: 0%....50%....100% - 13 passes
==PROF== Profiling "DrawBuddhabrot" - 3: 0%....50%....100% - 13 passes
2 Buddhabrot passes took 14.992877 seconds.
Max value: 442, scale: 148.269231
Saving image.
Done! Output image saved: output.pgm
==PROF== Disconnected from process 31881
[31881] cudabrot@127.0.0.1
  InitializeRNG(unsigned long, curandStateXORWOW *), 2023-Mar-01 07:31:35, Context 1, Stream 7
    Section: Command line profiler metrics
    ---------------------------------------------------------------------- --------------- ------------------------------
    dram__bytes_read.sum                                                             Gbyte                           8.51
    dram__bytes_read.sum.per_second                                           Gbyte/second                         195.21
    dram__bytes_write.sum                                                            Gbyte                           2.16
    dram__bytes_write.sum.per_second                                          Gbyte/second                          49.52
    dram__sectors_read.sum                                                          sector                    266,005,837
    dram__sectors_write.sum                                                         sector                     67,472,326
    dram__throughput.avg.pct_of_peak_sustained_elapsed                                   %                          76.47
    fe__draw_count.avg.pct_of_peak_sustained_elapsed                                                              (!) n/a
    gpc__cycles_elapsed.avg.per_second                                       cycle/usecond                         585.53
    gr__cycles_active.sum.pct_of_peak_sustained_elapsed                                  %                            100
    gr__dispatch_count.avg.pct_of_peak_sustained_elapsed                                                          (!) n/a
    gr__dispatch_cycles_active_queue_async.avg.pct_of_peak_sustained_elaps                                        (!) n/a
    ed                                                                                                                   
    gr__dispatch_cycles_active_queue_sync.avg.pct_of_peak_sustained_elapse                                        (!) n/a
    d                                                                                                                    
    l1tex__f_tex2sm_cycles_active.avg.pct_of_peak_sustained_elapsed                      %                              0
    l1tex__lsu_writeback_active.avg.pct_of_peak_sustained_active                         %                          15.56
    l1tex__lsu_writeback_active.sum                                                  cycle                    151,445,504
    l1tex__t_bytes_pipe_lsu_mem_global_op_ld.sum.per_second                   Gbyte/second                          67.81
    l1tex__t_bytes_pipe_lsu_mem_global_op_st.sum                                     Mbyte                          75.50
    l1tex__t_bytes_pipe_lsu_mem_global_op_st.sum.per_second                   Gbyte/second                           1.73
    l1tex__t_bytes_pipe_lsu_mem_local_op_ld.sum.per_second                    Gbyte/second                         172.58
    l1tex__t_requests_pipe_lsu_mem_global_op_atom.sum                              request                              0
    l1tex__t_requests_pipe_lsu_mem_global_op_ld.sum                                request                     92,405,760
    l1tex__t_requests_pipe_lsu_mem_global_op_red.sum                               request                              0
    l1tex__t_requests_pipe_lsu_mem_global_op_st.sum                                request                         73,728
    l1tex__t_requests_pipe_lsu_mem_local_op_ld.sum                                 request                     59,023,360
    l1tex__t_requests_pipe_lsu_mem_local_op_st.sum                                 request                     62,586,880
    l1tex__t_requests_pipe_tex_mem_surface_op_atom.sum                             request                              0
    l1tex__t_requests_pipe_tex_mem_surface_op_ld.sum                               request                              0
    l1tex__t_requests_pipe_tex_mem_surface_op_red.sum                              request                              0
    l1tex__t_requests_pipe_tex_mem_surface_op_st.sum                               request                              0
    l1tex__t_requests_pipe_tex_mem_texture.sum                                     request                              0
    l1tex__t_sector_hit_rate.pct                                                         %                          52.05
    l1tex__t_sectors_pipe_lsu_mem_global_op.sum                                                                   (!) n/a
    l1tex__t_sectors_pipe_lsu_mem_global_op_ld.sum                                  sector                     92,405,760
    l1tex__t_sectors_pipe_lsu_mem_global_op_lookup_hit.sum                                                        (!) n/a
    l1tex__t_sectors_pipe_lsu_mem_local_op_ld.sum                                   sector                    235,170,944
    l1tex__t_sectors_pipe_lsu_mem_local_op_st.sum                                   sector                    249,542,358
    l1tex__t_sectors_pipe_lsu_mem_local_op_st.sum.per_second                sector/nsecond                           5.72
    l1tex__t_set_accesses_pipe_lsu_mem_global_op_atom.sum                                                               0
    l1tex__t_set_accesses_pipe_lsu_mem_global_op_red.sum                                                                0
    l1tex__t_set_accesses_pipe_tex_mem_surface_op_atom.sum                                                              0
    l1tex__t_set_accesses_pipe_tex_mem_surface_op_red.sum                                                               0
    l1tex__tex_writeback_active.avg.pct_of_peak_sustained_active                         %                              0
    l1tex__texin_sm2tex_req_cycles_active.avg.pct_of_peak_sustained_elapse               %                           0.00
    d                                                                                                                    
    lts__t_bytes_equiv_l1sectormiss_pipe_lsu_mem_global_op_ld.sum                    Mbyte                          36.34
    lts__t_bytes_equiv_l1sectormiss_pipe_lsu_mem_global_op_st.sum                    Mbyte                          17.06
    lts__t_bytes_equiv_l1sectormiss_pipe_lsu_mem_surface_op_st.sum                                                (!) n/a
    lts__t_bytes_equiv_l1sectormiss_pipe_tex_mem_surface_op_ld.sum                    byte                              0
    lts__t_sector_hit_rate.pct                                                           %                          56.13
    lts__t_sector_op_read_hit_rate.pct                                                   %                           2.78
    lts__t_sector_op_write_hit_rate.pct                                                  %                          99.38
    lts__t_sectors.avg.pct_of_peak_sustained_elapsed                                     %                          38.01
    lts__t_sectors_aperture_sysmem_op_read.sum                                      sector                              0
    lts__t_sectors_aperture_sysmem_op_read.sum.per_second                    sector/second                              0
    lts__t_sectors_aperture_sysmem_op_write.sum                                     sector                             10
    lts__t_sectors_aperture_sysmem_op_write.sum.per_second                   sector/second                         229.33
    lts__t_sectors_op_read.sum                                                      sector                    203,183,237
    lts__t_sectors_op_read.sum.per_second                                   sector/nsecond                           4.66
    lts__t_sectors_op_write.sum                                                     sector                    250,647,017
    lts__t_sectors_op_write.sum.per_second                                  sector/nsecond                           5.75
    lts__t_sectors_srcunit_l1_op_atom.sum                                           sector                              0
    lts__t_sectors_srcunit_l1_op_atom.sum.per_second                         sector/second                              0
    lts__t_sectors_srcunit_tex_op_read.sum                                          sector                    203,204,918
    lts__t_sectors_srcunit_tex_op_read.sum.per_second                       sector/nsecond                           4.66
    pcie__read_bytes.avg.pct_of_peak_sustained_elapsed                                   %                           0.00
    pcie__rx_requests_aperture_bar1_op_read.sum                                                                   (!) n/a
    pcie__rx_requests_aperture_bar1_op_write.sum                                                                  (!) n/a
    pcie__write_bytes.avg.pct_of_peak_sustained_elapsed                                  %                           0.00
    sm__cycles_active.avg.pct_of_peak_sustained_elapsed                                  %                          95.29
    sm__inst_executed_realtime.avg.pct_of_peak_sustained_elapsed                                                  (!) n/a
    sm__mio2rf_writeback_active.avg.pct_of_peak_sustained_elapsed                        %                           7.42
    sm__pipe_shared_cycles_active_realtime.avg.pct_of_peak_sustained_elaps                                        (!) n/a
    ed                                                                                                                   
    sm__pipe_tensor_cycles_active.avg.pct_of_peak_sustained_active                       %                              0
    sm__pipe_tensor_cycles_active_realtime.avg.pct_of_peak_sustained_elaps                                        (!) n/a
    ed                                                                                                                   
    sm__warps_active.avg.pct_of_peak_sustained_active                                    %                          92.88
    smsp__average_inst_executed_per_warp.ratio                                   inst/warp                      48,115.23
    smsp__cycles_active.avg.pct_of_peak_sustained_elapsed                                %                          94.99
    smsp__inst_executed.avg.per_cycle_active                                    inst/cycle                           0.10
    smsp__inst_executed.sum                                                           inst                    394,159,968
    smsp__inst_executed_op_global_atom.sum                                                                        (!) n/a
    smsp__inst_executed_op_global_ld.sum                                              inst                    104,038,400
    smsp__inst_executed_op_global_st.sum                                              inst                         73,728
    smsp__inst_executed_op_local_ld.sum                                               inst                     39,346,176
    smsp__inst_executed_op_shared_atom.sum                                            inst                              0
    smsp__inst_executed_op_shared_atom_dot_alu.sum                                    inst                              0
    smsp__inst_executed_op_shared_atom_dot_cas.sum                                    inst                              0
    smsp__inst_executed_op_shared_ld.avg.pct_of_peak_sustained_elapsed                   %                              0
    smsp__inst_executed_op_shared_ld.sum                                              inst                              0
    smsp__inst_executed_op_shared_ld.sum.per_second                            inst/second                              0
    smsp__inst_executed_op_shared_st.avg.pct_of_peak_sustained_elapsed                   %                              0
    smsp__inst_executed_op_shared_st.sum                                              inst                              0
    smsp__inst_executed_op_shared_st.sum.per_second                            inst/second                              0
    smsp__inst_executed_op_surface_atom.sum                                           inst                              0
    smsp__inst_executed_op_surface_ld.sum                                             inst                              0
    smsp__inst_executed_op_surface_red.sum                                            inst                              0
    smsp__inst_executed_op_surface_st.sum                                             inst                              0
    smsp__inst_executed_op_texture.sum                                                inst                              0
    smsp__inst_executed_pipe_adu.sum                                                  inst                         16,384
    smsp__inst_executed_pipe_cbu.sum                                                  inst                     39,825,924
    smsp__inst_executed_pipe_fp16.sum                                                 inst                              0
    smsp__inst_executed_pipe_fp64.avg.pct_of_peak_sustained_active                       %                              0
    smsp__inst_executed_pipe_lsu.avg.pct_of_peak_sustained_active                        %                           9.26
    smsp__inst_executed_pipe_tex.avg.pct_of_peak_sustained_active                        %                              0
    smsp__inst_issued.avg.per_cycle_active                                      inst/cycle                           0.10
    smsp__inst_issued.sum                                                             inst                    394,167,614
    smsp__issue_active.avg.pct_of_peak_sustained_active                                  %                          10.16
    smsp__sass_thread_inst_executed_op_control_pred_on.sum                            inst                    823,431,536
    smsp__sass_thread_inst_executed_op_dadd_pred_on.sum                               inst                              0
    smsp__sass_thread_inst_executed_op_dfma_pred_on.sum                               inst                              0
    smsp__sass_thread_inst_executed_op_dmul_pred_on.sum                               inst                              0
    smsp__sass_thread_inst_executed_op_fadd_pred_on.sum                               inst                              0
    smsp__sass_thread_inst_executed_op_ffma_pred_on.sum                               inst                              0
    smsp__sass_thread_inst_executed_op_fmul_pred_on.sum                               inst                              0
    smsp__sass_thread_inst_executed_op_fp16_pred_on.sum                               inst                              0
    smsp__sass_thread_inst_executed_op_fp32_pred_on.sum                               inst                              0
    smsp__sass_thread_inst_executed_op_fp64_pred_on.sum                               inst                              0
    smsp__sass_thread_inst_executed_op_hadd_pred_on.sum                               inst                              0
    smsp__sass_thread_inst_executed_op_hfma_pred_on.sum                               inst                              0
    smsp__sass_thread_inst_executed_op_hmul_pred_on.sum                               inst                              0
    smsp__sass_thread_inst_executed_op_integer_pred_on.sum                            inst                  2,476,433,241
    smsp__sass_thread_inst_executed_op_inter_thread_communication_pred_on.            inst                              0
    sum                                                                                                                  
    smsp__sass_thread_inst_executed_op_memory_pred_on.sum                             inst                  2,805,816,538
    smsp__sass_thread_inst_executed_op_misc_pred_on.sum                               inst                    336,931,499
    smsp__sass_thread_inst_executed_op_mufu_pred_on.sum                                                           (!) n/a
    smsp__thread_inst_executed_per_inst_executed.pct                                     %                          70.51
    smsp__thread_inst_executed_per_inst_executed.ratio                                                              22.56
    smsp__warp_issue_stalled_drain_miss_per_warp_active.pct                                                       (!) n/a
    smsp__warp_issue_stalled_imc_miss_per_warp_active.pct                                %                           0.00
    smsp__warp_issue_stalled_long_scoreboard_miss_per_warp_active.pct                                             (!) n/a
    smsp__warp_issue_stalled_misc_membar_per_warp_active.pct                                                      (!) n/a
    smsp__warp_issue_stalled_misc_mio_throttle_per_warp_active.pct                                                (!) n/a
    smsp__warp_issue_stalled_misc_miss_per_warp_active.pct                                                        (!) n/a
    smsp__warp_issue_stalled_misc_sleeping_per_warp_active.pct                                                    (!) n/a
    smsp__warp_issue_stalled_misc_tex_throttle_per_warp_active.pct                                                (!) n/a
    smsp__warp_issue_stalled_no_instruction_miss_per_warp_active.pct                                              (!) n/a
    smsp__warp_issue_stalled_short_scoreboard_miss_per_warp_active.pct                                            (!) n/a
    smsp__warps_eligible.sum.per_cycle_active                                         warp                          32.93
    sys__cycles_elapsed.avg.per_second                                       cycle/usecond                         855.78
    tpc__warps_active_shader_cs_realtime.avg.pct_of_peak_sustained_elapsed               %                          88.48
    tpc__warps_active_shader_ps_realtime.avg.pct_of_peak_sustained_elapsed                                        (!) n/a
    tpc__warps_active_shader_vtg_realtime.avg.pct_of_peak_sustained_elapse                                        (!) n/a
    d                                                                                                                    
    tpc__warps_inactive_sm_active_realtime.avg.pct_of_peak_sustained_elaps                                        (!) n/a
    ed                                                                                                                   
    tpc__warps_inactive_sm_idle_realtime.avg.pct_of_peak_sustained_elapsed                                        (!) n/a
    ---------------------------------------------------------------------- --------------- ------------------------------

  DrawBuddhabrot(FractalDimensions, unsigned int *, IterationControl, curandStateXORWOW *), 2023-Mar-01 07:31:42, Context 1, Stream 7
    Section: Command line profiler metrics
    ---------------------------------------------------------------------- --------------- ------------------------------
    dram__bytes_read.sum                                                             Mbyte                          65.24
    dram__bytes_read.sum.per_second                                           Mbyte/second                         153.81
    dram__bytes_write.sum                                                            Mbyte                         605.34
    dram__bytes_write.sum.per_second                                          Gbyte/second                           1.43
    dram__sectors_read.sum                                                          sector                      2,038,709
    dram__sectors_write.sum                                                         sector                     18,916,916
    dram__throughput.avg.pct_of_peak_sustained_elapsed                                   %                           0.50
    fe__draw_count.avg.pct_of_peak_sustained_elapsed                                                              (!) n/a
    gpc__cycles_elapsed.avg.per_second                                       cycle/usecond                         583.68
    gr__cycles_active.sum.pct_of_peak_sustained_elapsed                                  %                            100
    gr__dispatch_count.avg.pct_of_peak_sustained_elapsed                                                          (!) n/a
    gr__dispatch_cycles_active_queue_async.avg.pct_of_peak_sustained_elaps                                        (!) n/a
    ed                                                                                                                   
    gr__dispatch_cycles_active_queue_sync.avg.pct_of_peak_sustained_elapse                                        (!) n/a
    d                                                                                                                    
    l1tex__f_tex2sm_cycles_active.avg.pct_of_peak_sustained_elapsed                      %                              0
    l1tex__lsu_writeback_active.avg.pct_of_peak_sustained_active                         %                           0.15
    l1tex__lsu_writeback_active.sum                                                  cycle                     14,430,045
    l1tex__t_bytes_pipe_lsu_mem_global_op_ld.sum.per_second                   Gbyte/second                           3.64
    l1tex__t_bytes_pipe_lsu_mem_global_op_st.sum                                     Gbyte                           1.56
    l1tex__t_bytes_pipe_lsu_mem_global_op_st.sum.per_second                   Gbyte/second                           3.67
    l1tex__t_bytes_pipe_lsu_mem_local_op_ld.sum.per_second                     byte/second                              0
    l1tex__t_requests_pipe_lsu_mem_global_op_atom.sum                              request                              0
    l1tex__t_requests_pipe_lsu_mem_global_op_ld.sum                                request                      9,038,849
    l1tex__t_requests_pipe_lsu_mem_global_op_red.sum                               request                              0
    l1tex__t_requests_pipe_lsu_mem_global_op_st.sum                                request                      9,038,849
    l1tex__t_requests_pipe_lsu_mem_local_op_ld.sum                                 request                              0
    l1tex__t_requests_pipe_lsu_mem_local_op_st.sum                                 request                              0
    l1tex__t_requests_pipe_tex_mem_surface_op_atom.sum                             request                              0
    l1tex__t_requests_pipe_tex_mem_surface_op_ld.sum                               request                              0
    l1tex__t_requests_pipe_tex_mem_surface_op_red.sum                              request                              0
    l1tex__t_requests_pipe_tex_mem_surface_op_st.sum                               request                              0
    l1tex__t_requests_pipe_tex_mem_texture.sum                                     request                              0
    l1tex__t_sector_hit_rate.pct                                                         %                          77.59
    l1tex__t_sectors_pipe_lsu_mem_global_op.sum                                                                   (!) n/a
    l1tex__t_sectors_pipe_lsu_mem_global_op_ld.sum                                  sector                     48,257,432
    l1tex__t_sectors_pipe_lsu_mem_global_op_lookup_hit.sum                                                        (!) n/a
    l1tex__t_sectors_pipe_lsu_mem_local_op_ld.sum                                   sector                              0
    l1tex__t_sectors_pipe_lsu_mem_local_op_st.sum                                   sector                              0
    l1tex__t_sectors_pipe_lsu_mem_local_op_st.sum.per_second                 sector/second                              0
    l1tex__t_set_accesses_pipe_lsu_mem_global_op_atom.sum                                                               0
    l1tex__t_set_accesses_pipe_lsu_mem_global_op_red.sum                                                                0
    l1tex__t_set_accesses_pipe_tex_mem_surface_op_atom.sum                                                              0
    l1tex__t_set_accesses_pipe_tex_mem_surface_op_red.sum                                                               0
    l1tex__tex_writeback_active.avg.pct_of_peak_sustained_active                         %                              0
    l1tex__texin_sm2tex_req_cycles_active.avg.pct_of_peak_sustained_elapse               %                           0.00
    d                                                                                                                    
    lts__t_bytes_equiv_l1sectormiss_pipe_lsu_mem_global_op_ld.sum                    Mbyte                         693.93
    lts__t_bytes_equiv_l1sectormiss_pipe_lsu_mem_global_op_st.sum                    Kbyte                           6.50
    lts__t_bytes_equiv_l1sectormiss_pipe_lsu_mem_surface_op_st.sum                                                (!) n/a
    lts__t_bytes_equiv_l1sectormiss_pipe_tex_mem_surface_op_ld.sum                    byte                              0
    lts__t_sector_hit_rate.pct                                                           %                          98.52
    lts__t_sector_op_read_hit_rate.pct                                                   %                          96.17
    lts__t_sector_op_write_hit_rate.pct                                                  %                         100.00
    lts__t_sectors.avg.pct_of_peak_sustained_elapsed                                     %                           0.49
    lts__t_sectors_aperture_sysmem_op_read.sum                                      sector                              0
    lts__t_sectors_aperture_sysmem_op_read.sum.per_second                    sector/second                              0
    lts__t_sectors_aperture_sysmem_op_write.sum                                     sector                             34
    lts__t_sectors_aperture_sysmem_op_write.sum.per_second                   sector/second                          80.16
    lts__t_sectors_op_read.sum                                                      sector                     22,076,183
    lts__t_sectors_op_read.sum.per_second                                   sector/usecond                          52.05
    lts__t_sectors_op_write.sum                                                     sector                     35,182,033
    lts__t_sectors_op_write.sum.per_second                                  sector/usecond                          82.95
    lts__t_sectors_srcunit_l1_op_atom.sum                                           sector                              0
    lts__t_sectors_srcunit_l1_op_atom.sum.per_second                         sector/second                              0
    lts__t_sectors_srcunit_tex_op_read.sum                                          sector                     22,042,841
    lts__t_sectors_srcunit_tex_op_read.sum.per_second                       sector/usecond                          51.97
    pcie__read_bytes.avg.pct_of_peak_sustained_elapsed                                   %                           0.00
    pcie__rx_requests_aperture_bar1_op_read.sum                                                                   (!) n/a
    pcie__rx_requests_aperture_bar1_op_write.sum                                                                  (!) n/a
    pcie__write_bytes.avg.pct_of_peak_sustained_elapsed                                  %                           0.00
    sm__cycles_active.avg.pct_of_peak_sustained_elapsed                                  %                          97.67
    sm__inst_executed_realtime.avg.pct_of_peak_sustained_elapsed                                                  (!) n/a
    sm__mio2rf_writeback_active.avg.pct_of_peak_sustained_elapsed                        %                           0.06
    sm__pipe_shared_cycles_active_realtime.avg.pct_of_peak_sustained_elaps                                        (!) n/a
    ed                                                                                                                   
    sm__pipe_tensor_cycles_active.avg.pct_of_peak_sustained_active                       %                              0
    sm__pipe_tensor_cycles_active_realtime.avg.pct_of_peak_sustained_elaps                                        (!) n/a
    ed                                                                                                                   
    sm__warps_active.avg.pct_of_peak_sustained_active                                    %                          86.67
    smsp__average_inst_executed_per_warp.ratio                                   inst/warp                     124,817.68
    smsp__cycles_active.avg.pct_of_peak_sustained_elapsed                                %                          97.20
    smsp__inst_executed.avg.per_cycle_active                                    inst/cycle                           0.03
    smsp__inst_executed.sum                                                           inst                  1,022,506,411
    smsp__inst_executed_op_global_atom.sum                                                                        (!) n/a
    smsp__inst_executed_op_global_ld.sum                                              inst                      9,038,849
    smsp__inst_executed_op_global_st.sum                                              inst                      9,038,849
    smsp__inst_executed_op_local_ld.sum                                               inst                              0
    smsp__inst_executed_op_shared_atom.sum                                            inst                              0
    smsp__inst_executed_op_shared_atom_dot_alu.sum                                    inst                              0
    smsp__inst_executed_op_shared_atom_dot_cas.sum                                    inst                              0
    smsp__inst_executed_op_shared_ld.avg.pct_of_peak_sustained_elapsed                   %                              0
    smsp__inst_executed_op_shared_ld.sum                                              inst                              0
    smsp__inst_executed_op_shared_ld.sum.per_second                            inst/second                              0
    smsp__inst_executed_op_shared_st.avg.pct_of_peak_sustained_elapsed                   %                              0
    smsp__inst_executed_op_shared_st.sum                                              inst                              0
    smsp__inst_executed_op_shared_st.sum.per_second                            inst/second                              0
    smsp__inst_executed_op_surface_atom.sum                                           inst                              0
    smsp__inst_executed_op_surface_ld.sum                                             inst                              0
    smsp__inst_executed_op_surface_red.sum                                            inst                              0
    smsp__inst_executed_op_surface_st.sum                                             inst                              0
    smsp__inst_executed_op_texture.sum                                                inst                              0
    smsp__inst_executed_pipe_adu.sum                                                  inst                          8,192
    smsp__inst_executed_pipe_cbu.sum                                                  inst                     76,064,808
    smsp__inst_executed_pipe_fp16.sum                                                 inst                              0
    smsp__inst_executed_pipe_fp64.avg.pct_of_peak_sustained_active                       %                          22.06
    smsp__inst_executed_pipe_lsu.avg.pct_of_peak_sustained_active                        %                           0.09
    smsp__inst_executed_pipe_tex.avg.pct_of_peak_sustained_active                        %                              0
    smsp__inst_issued.avg.per_cycle_active                                      inst/cycle                           0.03
    smsp__inst_issued.sum                                                             inst                  1,022,930,081
    smsp__issue_active.avg.pct_of_peak_sustained_active                                  %                           2.66
    smsp__sass_thread_inst_executed_op_control_pred_on.sum                            inst                    341,935,714
    smsp__sass_thread_inst_executed_op_dadd_pred_on.sum                               inst                    398,377,792
    smsp__sass_thread_inst_executed_op_dfma_pred_on.sum                               inst                    715,734,105
    smsp__sass_thread_inst_executed_op_dmul_pred_on.sum                               inst                    398,377,792
    smsp__sass_thread_inst_executed_op_fadd_pred_on.sum                               inst                              0
    smsp__sass_thread_inst_executed_op_ffma_pred_on.sum                               inst                     18,782,462
    smsp__sass_thread_inst_executed_op_fmul_pred_on.sum                               inst                              0
    smsp__sass_thread_inst_executed_op_fp16_pred_on.sum                               inst                              0
    smsp__sass_thread_inst_executed_op_fp32_pred_on.sum                               inst                     56,347,386
    smsp__sass_thread_inst_executed_op_fp64_pred_on.sum                               inst                  1,721,186,322
    smsp__sass_thread_inst_executed_op_hadd_pred_on.sum                               inst                              0
    smsp__sass_thread_inst_executed_op_hfma_pred_on.sum                               inst                              0
    smsp__sass_thread_inst_executed_op_hmul_pred_on.sum                               inst                              0
    smsp__sass_thread_inst_executed_op_integer_pred_on.sum                            inst                  1,127,536,353
    smsp__sass_thread_inst_executed_op_inter_thread_communication_pred_on.            inst                              0
    sum                                                                                                                  
    smsp__sass_thread_inst_executed_op_memory_pred_on.sum                             inst                     97,213,976
    smsp__sass_thread_inst_executed_op_misc_pred_on.sum                               inst                     86,860,296
    smsp__sass_thread_inst_executed_op_mufu_pred_on.sum                                                           (!) n/a
    smsp__thread_inst_executed_per_inst_executed.pct                                     %                          11.26
    smsp__thread_inst_executed_per_inst_executed.ratio                                                               3.60
    smsp__warp_issue_stalled_drain_miss_per_warp_active.pct                                                       (!) n/a
    smsp__warp_issue_stalled_imc_miss_per_warp_active.pct                                %                           0.00
    smsp__warp_issue_stalled_long_scoreboard_miss_per_warp_active.pct                                             (!) n/a
    smsp__warp_issue_stalled_misc_membar_per_warp_active.pct                                                      (!) n/a
    smsp__warp_issue_stalled_misc_mio_throttle_per_warp_active.pct                                                (!) n/a
    smsp__warp_issue_stalled_misc_miss_per_warp_active.pct                                                        (!) n/a
    smsp__warp_issue_stalled_misc_sleeping_per_warp_active.pct                                                    (!) n/a
    smsp__warp_issue_stalled_misc_tex_throttle_per_warp_active.pct                                                (!) n/a
    smsp__warp_issue_stalled_no_instruction_miss_per_warp_active.pct                                              (!) n/a
    smsp__warp_issue_stalled_short_scoreboard_miss_per_warp_active.pct                                            (!) n/a
    smsp__warps_eligible.sum.per_cycle_active                                         warp                          11.50
    sys__cycles_elapsed.avg.per_second                                       cycle/usecond                         853.07
    tpc__warps_active_shader_cs_realtime.avg.pct_of_peak_sustained_elapsed               %                          85.00
    tpc__warps_active_shader_ps_realtime.avg.pct_of_peak_sustained_elapsed                                        (!) n/a
    tpc__warps_active_shader_vtg_realtime.avg.pct_of_peak_sustained_elapse                                        (!) n/a
    d                                                                                                                    
    tpc__warps_inactive_sm_active_realtime.avg.pct_of_peak_sustained_elaps                                        (!) n/a
    ed                                                                                                                   
    tpc__warps_inactive_sm_idle_realtime.avg.pct_of_peak_sustained_elapsed                                        (!) n/a
    ---------------------------------------------------------------------- --------------- ------------------------------

  DrawBuddhabrot(FractalDimensions, unsigned int *, IterationControl, curandStateXORWOW *), 2023-Mar-01 07:31:50, Context 1, Stream 7
    Section: Command line profiler metrics
    ---------------------------------------------------------------------- --------------- ------------------------------
    dram__bytes_read.sum                                                             Mbyte                          65.03
    dram__bytes_read.sum.per_second                                           Mbyte/second                         153.44
    dram__bytes_write.sum                                                            Mbyte                         605.92
    dram__bytes_write.sum.per_second                                          Gbyte/second                           1.43
    dram__sectors_read.sum                                                          sector                      2,032,065
    dram__sectors_write.sum                                                         sector                     18,934,968
    dram__throughput.avg.pct_of_peak_sustained_elapsed                                   %                           0.50
    fe__draw_count.avg.pct_of_peak_sustained_elapsed                                                              (!) n/a
    gpc__cycles_elapsed.avg.per_second                                       cycle/usecond                         584.43
    gr__cycles_active.sum.pct_of_peak_sustained_elapsed                                  %                            100
    gr__dispatch_count.avg.pct_of_peak_sustained_elapsed                                                          (!) n/a
    gr__dispatch_cycles_active_queue_async.avg.pct_of_peak_sustained_elaps                                        (!) n/a
    ed                                                                                                                   
    gr__dispatch_cycles_active_queue_sync.avg.pct_of_peak_sustained_elapse                                        (!) n/a
    d                                                                                                                    
    l1tex__f_tex2sm_cycles_active.avg.pct_of_peak_sustained_elapsed                      %                              0
    l1tex__lsu_writeback_active.avg.pct_of_peak_sustained_active                         %                           0.15
    l1tex__lsu_writeback_active.sum                                                  cycle                     14,433,098
    l1tex__t_bytes_pipe_lsu_mem_global_op_ld.sum.per_second                   Gbyte/second                           3.64
    l1tex__t_bytes_pipe_lsu_mem_global_op_st.sum                                     Gbyte                           1.56
    l1tex__t_bytes_pipe_lsu_mem_global_op_st.sum.per_second                   Gbyte/second                           3.67
    l1tex__t_bytes_pipe_lsu_mem_local_op_ld.sum.per_second                     byte/second                              0
    l1tex__t_requests_pipe_lsu_mem_global_op_atom.sum                              request                              0
    l1tex__t_requests_pipe_lsu_mem_global_op_ld.sum                                request                      9,041,548
    l1tex__t_requests_pipe_lsu_mem_global_op_red.sum                               request                              0
    l1tex__t_requests_pipe_lsu_mem_global_op_st.sum                                request                      9,041,548
    l1tex__t_requests_pipe_lsu_mem_local_op_ld.sum                                 request                              0
    l1tex__t_requests_pipe_lsu_mem_local_op_st.sum                                 request                              0
    l1tex__t_requests_pipe_tex_mem_surface_op_atom.sum                             request                              0
    l1tex__t_requests_pipe_tex_mem_surface_op_ld.sum                               request                              0
    l1tex__t_requests_pipe_tex_mem_surface_op_red.sum                              request                              0
    l1tex__t_requests_pipe_tex_mem_surface_op_st.sum                               request                              0
    l1tex__t_requests_pipe_tex_mem_texture.sum                                     request                              0
    l1tex__t_sector_hit_rate.pct                                                         %                          77.61
    l1tex__t_sectors_pipe_lsu_mem_global_op.sum                                                                   (!) n/a
    l1tex__t_sectors_pipe_lsu_mem_global_op_ld.sum                                  sector                     48,255,585
    l1tex__t_sectors_pipe_lsu_mem_global_op_lookup_hit.sum                                                        (!) n/a
    l1tex__t_sectors_pipe_lsu_mem_local_op_ld.sum                                   sector                              0
    l1tex__t_sectors_pipe_lsu_mem_local_op_st.sum                                   sector                              0
    l1tex__t_sectors_pipe_lsu_mem_local_op_st.sum.per_second                 sector/second                              0
    l1tex__t_set_accesses_pipe_lsu_mem_global_op_atom.sum                                                               0
    l1tex__t_set_accesses_pipe_lsu_mem_global_op_red.sum                                                                0
    l1tex__t_set_accesses_pipe_tex_mem_surface_op_atom.sum                                                              0
    l1tex__t_set_accesses_pipe_tex_mem_surface_op_red.sum                                                               0
    l1tex__tex_writeback_active.avg.pct_of_peak_sustained_active                         %                              0
    l1tex__texin_sm2tex_req_cycles_active.avg.pct_of_peak_sustained_elapse               %                           0.00
    d                                                                                                                    
    lts__t_bytes_equiv_l1sectormiss_pipe_lsu_mem_global_op_ld.sum                    Mbyte                         694.17
    lts__t_bytes_equiv_l1sectormiss_pipe_lsu_mem_global_op_st.sum                    Kbyte                           6.75
    lts__t_bytes_equiv_l1sectormiss_pipe_lsu_mem_surface_op_st.sum                                                (!) n/a
    lts__t_bytes_equiv_l1sectormiss_pipe_tex_mem_surface_op_ld.sum                    byte                              0
    lts__t_sector_hit_rate.pct                                                           %                          98.54
    lts__t_sector_op_read_hit_rate.pct                                                   %                          96.23
    lts__t_sector_op_write_hit_rate.pct                                                  %                         100.01
    lts__t_sectors.avg.pct_of_peak_sustained_elapsed                                     %                           0.49
    lts__t_sectors_aperture_sysmem_op_read.sum                                      sector                              0
    lts__t_sectors_aperture_sysmem_op_read.sum.per_second                    sector/second                              0
    lts__t_sectors_aperture_sysmem_op_write.sum                                     sector                             33
    lts__t_sectors_aperture_sysmem_op_write.sum.per_second                   sector/second                          77.87
    lts__t_sectors_op_read.sum                                                      sector                     22,072,102
    lts__t_sectors_op_read.sum.per_second                                   sector/usecond                          52.08
    lts__t_sectors_op_write.sum                                                     sector                     35,181,459
    lts__t_sectors_op_write.sum.per_second                                  sector/usecond                          83.02
    lts__t_sectors_srcunit_l1_op_atom.sum                                           sector                              0
    lts__t_sectors_srcunit_l1_op_atom.sum.per_second                         sector/second                              0
    lts__t_sectors_srcunit_tex_op_read.sum                                          sector                     22,045,959
    lts__t_sectors_srcunit_tex_op_read.sum.per_second                       sector/usecond                          52.02
    pcie__read_bytes.avg.pct_of_peak_sustained_elapsed                                   %                           0.00
    pcie__rx_requests_aperture_bar1_op_read.sum                                                                   (!) n/a
    pcie__rx_requests_aperture_bar1_op_write.sum                                                                  (!) n/a
    pcie__write_bytes.avg.pct_of_peak_sustained_elapsed                                  %                           0.00
    sm__cycles_active.avg.pct_of_peak_sustained_elapsed                                  %                          97.66
    sm__inst_executed_realtime.avg.pct_of_peak_sustained_elapsed                                                  (!) n/a
    sm__mio2rf_writeback_active.avg.pct_of_peak_sustained_elapsed                        %                           0.06
    sm__pipe_shared_cycles_active_realtime.avg.pct_of_peak_sustained_elaps                                        (!) n/a
    ed                                                                                                                   
    sm__pipe_tensor_cycles_active.avg.pct_of_peak_sustained_active                       %                              0
    sm__pipe_tensor_cycles_active_realtime.avg.pct_of_peak_sustained_elaps                                        (!) n/a
    ed                                                                                                                   
    sm__warps_active.avg.pct_of_peak_sustained_active                                    %                          86.74
    smsp__average_inst_executed_per_warp.ratio                                   inst/warp                     124,852.68
    smsp__cycles_active.avg.pct_of_peak_sustained_elapsed                                %                          97.25
    smsp__inst_executed.avg.per_cycle_active                                    inst/cycle                           0.03
    smsp__inst_executed.sum                                                           inst                  1,022,793,146
    smsp__inst_executed_op_global_atom.sum                                                                        (!) n/a
    smsp__inst_executed_op_global_ld.sum                                              inst                      9,041,548
    smsp__inst_executed_op_global_st.sum                                              inst                      9,041,548
    smsp__inst_executed_op_local_ld.sum                                               inst                              0
    smsp__inst_executed_op_shared_atom.sum                                            inst                              0
    smsp__inst_executed_op_shared_atom_dot_alu.sum                                    inst                              0
    smsp__inst_executed_op_shared_atom_dot_cas.sum                                    inst                              0
    smsp__inst_executed_op_shared_ld.avg.pct_of_peak_sustained_elapsed                   %                              0
    smsp__inst_executed_op_shared_ld.sum                                              inst                              0
    smsp__inst_executed_op_shared_ld.sum.per_second                            inst/second                              0
    smsp__inst_executed_op_shared_st.avg.pct_of_peak_sustained_elapsed                   %                              0
    smsp__inst_executed_op_shared_st.sum                                              inst                              0
    smsp__inst_executed_op_shared_st.sum.per_second                            inst/second                              0
    smsp__inst_executed_op_surface_atom.sum                                           inst                              0
    smsp__inst_executed_op_surface_ld.sum                                             inst                              0
    smsp__inst_executed_op_surface_red.sum                                            inst                              0
    smsp__inst_executed_op_surface_st.sum                                             inst                              0
    smsp__inst_executed_op_texture.sum                                                inst                              0
    smsp__inst_executed_pipe_adu.sum                                                  inst                          8,192
    smsp__inst_executed_pipe_cbu.sum                                                  inst                     76,088,773
    smsp__inst_executed_pipe_fp16.sum                                                 inst                              0
    smsp__inst_executed_pipe_fp64.avg.pct_of_peak_sustained_active                       %                          22.05
    smsp__inst_executed_pipe_lsu.avg.pct_of_peak_sustained_active                        %                           0.09
    smsp__inst_executed_pipe_tex.avg.pct_of_peak_sustained_active                        %                              0
    smsp__inst_issued.avg.per_cycle_active                                      inst/cycle                           0.03
    smsp__inst_issued.sum                                                             inst                  1,023,217,149
    smsp__issue_active.avg.pct_of_peak_sustained_active                                  %                           2.65
    smsp__sass_thread_inst_executed_op_control_pred_on.sum                            inst                    342,069,999
    smsp__sass_thread_inst_executed_op_dadd_pred_on.sum                               inst                    398,673,504
    smsp__sass_thread_inst_executed_op_dfma_pred_on.sum                               inst                    716,164,765
    smsp__sass_thread_inst_executed_op_dmul_pred_on.sum                               inst                    398,673,504
    smsp__sass_thread_inst_executed_op_fadd_pred_on.sum                               inst                              0
    smsp__sass_thread_inst_executed_op_ffma_pred_on.sum                               inst                     18,778,774
    smsp__sass_thread_inst_executed_op_fmul_pred_on.sum                               inst                              0
    smsp__sass_thread_inst_executed_op_fp16_pred_on.sum                               inst                              0
    smsp__sass_thread_inst_executed_op_fp32_pred_on.sum                               inst                     56,336,322
    smsp__sass_thread_inst_executed_op_fp64_pred_on.sum                               inst                  1,722,355,286
    smsp__sass_thread_inst_executed_op_hadd_pred_on.sum                               inst                              0
    smsp__sass_thread_inst_executed_op_hfma_pred_on.sum                               inst                              0
    smsp__sass_thread_inst_executed_op_hmul_pred_on.sum                               inst                              0
    smsp__sass_thread_inst_executed_op_integer_pred_on.sum                            inst                  1,127,818,997
    smsp__sass_thread_inst_executed_op_inter_thread_communication_pred_on.            inst                              0
    sum                                                                                                                  
    smsp__sass_thread_inst_executed_op_memory_pred_on.sum                             inst                     97,210,962
    smsp__sass_thread_inst_executed_op_misc_pred_on.sum                               inst                     86,851,510
    smsp__sass_thread_inst_executed_op_mufu_pred_on.sum                                                           (!) n/a
    smsp__thread_inst_executed_per_inst_executed.pct                                     %                          11.26
    smsp__thread_inst_executed_per_inst_executed.ratio                                                               3.60
    smsp__warp_issue_stalled_drain_miss_per_warp_active.pct                                                       (!) n/a
    smsp__warp_issue_stalled_imc_miss_per_warp_active.pct                                %                           0.00
    smsp__warp_issue_stalled_long_scoreboard_miss_per_warp_active.pct                                             (!) n/a
    smsp__warp_issue_stalled_misc_membar_per_warp_active.pct                                                      (!) n/a
    smsp__warp_issue_stalled_misc_mio_throttle_per_warp_active.pct                                                (!) n/a
    smsp__warp_issue_stalled_misc_miss_per_warp_active.pct                                                        (!) n/a
    smsp__warp_issue_stalled_misc_sleeping_per_warp_active.pct                                                    (!) n/a
    smsp__warp_issue_stalled_misc_tex_throttle_per_warp_active.pct                                                (!) n/a
    smsp__warp_issue_stalled_no_instruction_miss_per_warp_active.pct                                              (!) n/a
    smsp__warp_issue_stalled_short_scoreboard_miss_per_warp_active.pct                                            (!) n/a
    smsp__warps_eligible.sum.per_cycle_active                                         warp                          11.51
    sys__cycles_elapsed.avg.per_second                                       cycle/usecond                         854.16
    tpc__warps_active_shader_cs_realtime.avg.pct_of_peak_sustained_elapsed               %                          85.01
    tpc__warps_active_shader_ps_realtime.avg.pct_of_peak_sustained_elapsed                                        (!) n/a
    tpc__warps_active_shader_vtg_realtime.avg.pct_of_peak_sustained_elapse                                        (!) n/a
    d                                                                                                                    
    tpc__warps_inactive_sm_active_realtime.avg.pct_of_peak_sustained_elaps                                        (!) n/a
    ed                                                                                                                   
    tpc__warps_inactive_sm_idle_realtime.avg.pct_of_peak_sustained_elapsed                                        (!) n/a
    ---------------------------------------------------------------------- --------------- ------------------------------


