  create_scene(hitable **, hitable **, camera **, int, int), 2022-Dec-20 13:20:54, Context 1, Stream 7
    Section: Command line profiler metrics
    ---------------------------------------------------------------------- --------------- ------------------------------
    dram__bytes_read.sum                                                             Kbyte                         146.24
    dram__bytes_read.sum.per_second                                           Mbyte/second                           6.76
    dram__bytes_write.sum                                                            Kbyte                          34.69
    dram__bytes_write.sum.per_second                                          Mbyte/second                           1.60
    dram__sectors_read.sum                                                          sector                          4,570
    dram__sectors_write.sum                                                         sector                          1,084
    l1tex__f_tex2sm_cycles_active.avg.pct_of_peak_sustained_elapsed                      %                              0
    l1tex__lsu_writeback_active.avg.pct_of_peak_sustained_active                         %                           0.67
    l1tex__lsu_writeback_active.sum                                                  cycle                        198,636
    l1tex__t_bytes_pipe_lsu_mem_global_op_ld.sum.per_second                   Mbyte/second                         158.92
    l1tex__t_bytes_pipe_lsu_mem_global_op_st.sum                                     Kbyte                         336.54
    l1tex__t_bytes_pipe_lsu_mem_global_op_st.sum.per_second                   Mbyte/second                          15.56
    l1tex__t_bytes_pipe_lsu_mem_local_op_ld.sum.per_second                    Mbyte/second                         108.63
    l1tex__t_requests_pipe_lsu_mem_global_op_atom.sum                              request                          7,921
    l1tex__t_requests_pipe_lsu_mem_global_op_ld.sum                                request                        107,448
    l1tex__t_requests_pipe_lsu_mem_global_op_red.sum                               request                            978
    l1tex__t_requests_pipe_lsu_mem_global_op_st.sum                                request                         10,502
    l1tex__t_requests_pipe_lsu_mem_local_op_ld.sum                                 request                         73,444
    l1tex__t_requests_pipe_lsu_mem_local_op_st.sum                                 request                         79,623
    l1tex__t_requests_pipe_tex_mem_surface_op_atom.sum                             request                              0
    l1tex__t_requests_pipe_tex_mem_surface_op_ld.sum                               request                              0
    l1tex__t_requests_pipe_tex_mem_surface_op_red.sum                              request                              0
    l1tex__t_requests_pipe_tex_mem_surface_op_st.sum                               request                              0
    l1tex__t_requests_pipe_tex_mem_texture.sum                                     request                              0
    l1tex__t_sector_hit_rate.pct                                                         %                          56.76
    l1tex__t_sectors_pipe_lsu_mem_global_op.sum                                                                   (!) n/a
    l1tex__t_sectors_pipe_lsu_mem_global_op_ld.sum                                  sector                        107,448
    l1tex__t_sectors_pipe_lsu_mem_global_op_lookup_hit.sum                                                        (!) n/a
    l1tex__t_sectors_pipe_lsu_mem_local_op_ld.sum                                   sector                         73,444
    l1tex__t_sectors_pipe_lsu_mem_local_op_st.sum                                   sector                         79,623
    l1tex__t_sectors_pipe_lsu_mem_local_op_st.sum.per_second                sector/usecond                           3.68
    l1tex__t_set_accesses_pipe_lsu_mem_global_op_atom.sum                                                           7,921
    l1tex__t_set_accesses_pipe_lsu_mem_global_op_red.sum                                                              978
    l1tex__t_set_accesses_pipe_tex_mem_surface_op_atom.sum                                                              0
    l1tex__t_set_accesses_pipe_tex_mem_surface_op_red.sum                                                               0
    l1tex__tex_writeback_active.avg.pct_of_peak_sustained_active                         %                              0
    l1tex__texin_sm2tex_req_cycles_active.avg.pct_of_peak_sustained_elapse               %                           0.00
    d                                                                                                                    
    lts__t_bytes_equiv_l1sectormiss_pipe_lsu_mem_global_op_ld.sum                    Mbyte                           3.44
    lts__t_bytes_equiv_l1sectormiss_pipe_lsu_mem_global_op_st.sum                    Kbyte                         147.33
    lts__t_bytes_equiv_l1sectormiss_pipe_lsu_mem_surface_op_st.sum                                                (!) n/a
    lts__t_bytes_equiv_l1sectormiss_pipe_tex_mem_surface_op_ld.sum                    byte                              0
    lts__t_sector_hit_rate.pct                                                           %                          95.98
    lts__t_sector_op_read_hit_rate.pct                                                   %                          87.40
    lts__t_sector_op_write_hit_rate.pct                                                  %                         103.60
    lts__t_sectors.avg.pct_of_peak_sustained_elapsed                                     %                           0.02
    lts__t_sectors_aperture_sysmem_op_read.sum                                      sector                              0
    lts__t_sectors_aperture_sysmem_op_read.sum.per_second                    sector/second                              0
    lts__t_sectors_aperture_sysmem_op_write.sum                                     sector                              8
    lts__t_sectors_aperture_sysmem_op_write.sum.per_second                   sector/second                         369.77
    lts__t_sectors_op_read.sum                                                      sector                        136,920
    lts__t_sectors_op_read.sum.per_second                                   sector/usecond                           6.33
    lts__t_sectors_op_write.sum                                                     sector                         86,043
    lts__t_sectors_op_write.sum.per_second                                  sector/usecond                           3.98
    lts__t_sectors_srcunit_l1_op_atom.sum                                           sector                              0
    lts__t_sectors_srcunit_l1_op_atom.sum.per_second                         sector/second                              0
    lts__t_sectors_srcunit_tex_op_read.sum                                          sector                        107,439
    lts__t_sectors_srcunit_tex_op_read.sum.per_second                       sector/usecond                           4.97
    sm__mio2rf_writeback_active.avg.pct_of_peak_sustained_elapsed                        %                           0.01
    sm__pipe_tensor_cycles_active.avg.pct_of_peak_sustained_active                       %                              0
    sm__warps_active.avg.pct_of_peak_sustained_active                                    %                           3.12
    smsp__average_inst_executed_per_warp.ratio                                   inst/warp                      1,613,268
    smsp__cycles_active.avg.pct_of_peak_sustained_elapsed                                %                           0.37
    smsp__inst_executed.avg.per_cycle_active                                    inst/cycle                           0.05
    smsp__inst_executed.sum                                                           inst                      1,613,268
    smsp__inst_executed_op_global_atom.sum                                                                        (!) n/a
    smsp__inst_executed_op_global_ld.sum                                              inst                            978
    smsp__inst_executed_op_global_st.sum                                              inst                            490
    smsp__inst_executed_op_local_ld.sum                                               inst                         69,477
    smsp__inst_executed_op_shared_atom.sum                                            inst                              0
    smsp__inst_executed_op_shared_atom_dot_alu.sum                                    inst                              0
    smsp__inst_executed_op_shared_atom_dot_cas.sum                                    inst                              0
    smsp__inst_executed_op_shared_ld.avg.pct_of_peak_sustained_elapsed                   %                              0
    smsp__inst_executed_op_shared_ld.sum                                              inst                              0
    smsp__inst_executed_op_shared_ld.sum.per_second                            inst/second                              0
    smsp__inst_executed_op_shared_st.avg.pct_of_peak_sustained_elapsed                   %                              0
    smsp__inst_executed_op_shared_st.sum                                              inst                              0
    smsp__inst_executed_op_shared_st.sum.per_second                            inst/second                              0
    smsp__inst_executed_op_surface_atom.sum                                           inst                              0
    smsp__inst_executed_op_surface_ld.sum                                             inst                              0
    smsp__inst_executed_op_surface_red.sum                                            inst                              0
    smsp__inst_executed_op_surface_st.sum                                             inst                              0
    smsp__inst_executed_op_texture.sum                                                inst                              0
    smsp__inst_executed_pipe_adu.sum                                                  inst                         26,377
    smsp__inst_executed_pipe_cbu.sum                                                  inst                        251,433
    smsp__inst_executed_pipe_fp16.sum                                                 inst                              0
    smsp__inst_executed_pipe_fp64.avg.pct_of_peak_sustained_active                       %                              0
    smsp__inst_executed_pipe_lsu.avg.pct_of_peak_sustained_active                        %                           1.90
    smsp__inst_executed_pipe_tex.avg.pct_of_peak_sustained_active                        %                              0
    smsp__inst_issued.avg.per_cycle_active                                      inst/cycle                           0.05
    smsp__inst_issued.sum                                                             inst                      1,619,666
    smsp__issue_active.avg.pct_of_peak_sustained_active                                  %                           5.48
    smsp__sass_thread_inst_executed_op_control_pred_on.sum                            inst                          5,783
    smsp__sass_thread_inst_executed_op_dadd_pred_on.sum                               inst                              0
    smsp__sass_thread_inst_executed_op_dfma_pred_on.sum                               inst                              0
    smsp__sass_thread_inst_executed_op_dmul_pred_on.sum                               inst                              0
    smsp__sass_thread_inst_executed_op_fadd_pred_on.sum                               inst                          1,181
    smsp__sass_thread_inst_executed_op_ffma_pred_on.sum                               inst                          4,058
    smsp__sass_thread_inst_executed_op_fmul_pred_on.sum                               inst                          1,434
    smsp__sass_thread_inst_executed_op_fp16_pred_on.sum                               inst                              0
    smsp__sass_thread_inst_executed_op_fp32_pred_on.sum                               inst                          7,338
    smsp__sass_thread_inst_executed_op_fp64_pred_on.sum                               inst                              0
    smsp__sass_thread_inst_executed_op_hadd_pred_on.sum                               inst                              0
    smsp__sass_thread_inst_executed_op_hfma_pred_on.sum                               inst                              0
    smsp__sass_thread_inst_executed_op_hmul_pred_on.sum                               inst                              0
    smsp__sass_thread_inst_executed_op_integer_pred_on.sum                            inst                         37,337
    smsp__sass_thread_inst_executed_op_inter_thread_communication_pred_on.            inst                              0
    sum                                                                                                                  
    smsp__sass_thread_inst_executed_op_memory_pred_on.sum                             inst                          3,974
    smsp__sass_thread_inst_executed_op_misc_pred_on.sum                               inst                          7,777
    smsp__sass_thread_inst_executed_op_mufu_pred_on.sum                                                           (!) n/a
    smsp__thread_inst_executed_per_inst_executed.pct                                     %                           3.13
    smsp__thread_inst_executed_per_inst_executed.ratio                                                               1.00
    smsp__warp_issue_stalled_drain_miss_per_warp_active.pct                                                       (!) n/a
    smsp__warp_issue_stalled_imc_miss_per_warp_active.pct                                %                           0.00
    smsp__warp_issue_stalled_long_scoreboard_miss_per_warp_active.pct                                             (!) n/a
    smsp__warp_issue_stalled_misc_membar_per_warp_active.pct                                                      (!) n/a
    smsp__warp_issue_stalled_misc_mio_throttle_per_warp_active.pct                                                (!) n/a
    smsp__warp_issue_stalled_misc_miss_per_warp_active.pct                                                        (!) n/a
    smsp__warp_issue_stalled_misc_sleeping_per_warp_active.pct                                                    (!) n/a
    smsp__warp_issue_stalled_misc_tex_throttle_per_warp_active.pct                                                (!) n/a
    smsp__warp_issue_stalled_no_instruction_miss_per_warp_active.pct                                              (!) n/a
    smsp__warp_issue_stalled_short_scoreboard_miss_per_warp_active.pct                                            (!) n/a
    smsp__warps_eligible.sum.per_cycle_active                                         warp                          14.91
    ---------------------------------------------------------------------- --------------- ------------------------------
