te_scene(hitable**, hitable**, camera**, int, int), 2023-Jan-14 22:59:50, Context 1, Stream 7
    Section: Command line profiler metrics
    ---------------------------------------------------------------------- --------------- ------------------------------
    dram__bytes_read.sum                                                             Kbyte                          90.50
    dram__bytes_read.sum.per_second                                           Mbyte/second                           2.27
    dram__bytes_write.sum                                                             byte                              0
    dram__bytes_write.sum.per_second                                           byte/second                              0
    dram__sectors_read.sum                                                          sector                          2,828
    dram__sectors_write.sum                                                         sector                              0
    l1tex__f_tex2sm_cycles_active.avg.pct_of_peak_sustained_elapsed                      %                              0
    l1tex__lsu_writeback_active.avg.pct_of_peak_sustained_active                         %                           0.65
    l1tex__lsu_writeback_active.sum                                                  cycle                        198,732
    l1tex__t_bytes_pipe_lsu_mem_global_op_ld.sum.per_second                   Mbyte/second                          86.33
    l1tex__t_bytes_pipe_lsu_mem_global_op_st.sum                                     Kbyte                         336.77
    l1tex__t_bytes_pipe_lsu_mem_global_op_st.sum.per_second                   Mbyte/second                           8.46
    l1tex__t_bytes_pipe_lsu_mem_local_op_ld.sum.per_second                    Mbyte/second                          58.30
    l1tex__t_requests_pipe_lsu_mem_global_op_atom.sum                              request                          7,921
    l1tex__t_requests_pipe_lsu_mem_global_op_ld.sum                                request                        107,448
    l1tex__t_requests_pipe_lsu_mem_global_op_red.sum                               request                            978
    l1tex__t_requests_pipe_lsu_mem_global_op_st.sum                                request                         10,512
    l1tex__t_requests_pipe_lsu_mem_local_op_ld.sum                                 request                         72,562
    l1tex__t_requests_pipe_lsu_mem_local_op_st.sum                                 request                         79,719
    l1tex__t_requests_pipe_tex_mem_surface_op_atom.sum                             request                              0
    l1tex__t_requests_pipe_tex_mem_surface_op_ld.sum                               request                              0
    l1tex__t_requests_pipe_tex_mem_surface_op_red.sum                              request                              0
    l1tex__t_requests_pipe_tex_mem_surface_op_st.sum                               request                              0
    l1tex__t_requests_pipe_tex_mem_texture.sum                                     request                              0
    l1tex__t_sector_hit_rate.pct                                                         %                          56.64
    l1tex__t_sectors_pipe_lsu_mem_global_op.sum                                                                   (!) n/a
    l1tex__t_sectors_pipe_lsu_mem_global_op_ld.sum                                  sector                        107,448
    l1tex__t_sectors_pipe_lsu_mem_global_op_lookup_hit.sum                                                        (!) n/a
    l1tex__t_sectors_pipe_lsu_mem_local_op_ld.sum                                   sector                         72,562
    l1tex__t_sectors_pipe_lsu_mem_local_op_st.sum                                   sector                         79,719
    l1tex__t_sectors_pipe_lsu_mem_local_op_st.sum.per_second                sector/usecond                           2.00
    l1tex__t_set_accesses_pipe_lsu_mem_global_op_atom.sum                                                           7,921
    l1tex__t_set_accesses_pipe_lsu_mem_global_op_red.sum                                                              978
    l1tex__t_set_accesses_pipe_tex_mem_surface_op_atom.sum                                                              0
    l1tex__t_set_accesses_pipe_tex_mem_surface_op_red.sum                                                               0
    l1tex__tex_writeback_active.avg.pct_of_peak_sustained_active                         %                              0
    l1tex__texin_sm2tex_req_cycles_active.avg.pct_of_peak_sustained_elapse               %                           0.00
    d                                                                                                                    
    lts__t_bytes_equiv_l1sectormiss_pipe_lsu_mem_global_op_ld.sum                    Mbyte                           3.44
    lts__t_bytes_equiv_l1sectormiss_pipe_lsu_mem_global_op_st.sum                    Kbyte                         147.36
    lts__t_bytes_equiv_l1sectormiss_pipe_lsu_mem_surface_op_st.sum                                                (!) n/a
    lts__t_bytes_equiv_l1sectormiss_pipe_tex_mem_surface_op_ld.sum                    byte                              0
    lts__t_sector_hit_rate.pct                                                           %                          85.69
    lts__t_sector_op_read_hit_rate.pct                                                   %                          68.69
    lts__t_sector_op_write_hit_rate.pct                                                  %                          95.30
    lts__t_sectors.avg.pct_of_peak_sustained_elapsed                                     %                           0.01
    lts__t_sectors_aperture_sysmem_op_read.sum                                      sector                              0
    lts__t_sectors_aperture_sysmem_op_read.sum.per_second                    sector/second                              0
    lts__t_sectors_aperture_sysmem_op_write.sum                                     sector                              9
    lts__t_sectors_aperture_sysmem_op_write.sum.per_second                   sector/second                         225.98
    lts__t_sectors_op_read.sum                                                      sector                        162,405
    lts__t_sectors_op_read.sum.per_second                                   sector/usecond                           4.08
    lts__t_sectors_op_write.sum                                                     sector                        159,050
    lts__t_sectors_op_write.sum.per_second                                  sector/usecond                           3.99
    lts__t_sectors_srcunit_l1_op_atom.sum                                           sector                              0
    lts__t_sectors_srcunit_l1_op_atom.sum.per_second                         sector/second                              0
    lts__t_sectors_srcunit_tex_op_read.sum                                          sector                        107,439
    lts__t_sectors_srcunit_tex_op_read.sum.per_second                       sector/usecond                           2.70
    sm__mio2rf_writeback_active.avg.pct_of_peak_sustained_elapsed                        %                           0.00
    sm__pipe_tensor_cycles_active.avg.pct_of_peak_sustained_active                       %                              0
    sm__warps_active.avg.pct_of_peak_sustained_active                                    %                           1.56
    smsp__average_inst_executed_per_warp.ratio                                   inst/warp                      1,661,121
    smsp__cycles_active.avg.pct_of_peak_sustained_elapsed                                %                           0.23
    smsp__inst_executed.avg.per_cycle_active                                    inst/cycle                           0.05
    smsp__inst_executed.sum                                                           inst                      1,661,121
    smsp__inst_executed_op_global_atom.sum                                                                        (!) n/a
    smsp__inst_executed_op_global_ld.sum                                              inst                            978
    smsp__inst_executed_op_global_st.sum                                              inst                            490
    smsp__inst_executed_op_local_ld.sum                                               inst                         69,573
    smsp__inst_executed_op_shared_atom.sum                                            inst                              0
    smsp__inst_executed_op_shared_atom_dot_alu.sum                                    inst                              0
    smsp__inst_executed_op_shared_atom_dot_cas.sum                                    inst                              0
    smsp__inst_executed_op_shared_ld.avg.pct_of_peak_sustained_elapsed                   %                              0
    smsp__inst_executed_op_shared_ld.sum                                              inst                              0
    smsp__inst_executed_op_shared_ld.sum.per_second                            inst/second                              0
    smsp__inst_executed_op_shared_st.avg.pct_of_peak_sustained_elapsed                   %                              0
    smsp__inst_executed_op_shared_st.sum                                              inst                              0
    smsp__inst_executed_op_shared_st.sum.per_second                            inst/second                              0
    smsp__inst_executed_op_surface_atom.sum                                           inst                              0
    smsp__inst_executed_op_surface_ld.sum                                             inst                              0
    smsp__inst_executed_op_surface_red.sum                                            inst                              0
    smsp__inst_executed_op_surface_st.sum                                             inst                              0
    smsp__inst_executed_op_texture.sum                                                inst                              0
    smsp__inst_executed_pipe_adu.sum                                                  inst                         27,355
    smsp__inst_executed_pipe_cbu.sum                                                  inst                        216,122
    smsp__inst_executed_pipe_fp16.sum                                                 inst                              0
    smsp__inst_executed_pipe_fp64.avg.pct_of_peak_sustained_active                       %                              0
    smsp__inst_executed_pipe_lsu.avg.pct_of_peak_sustained_active                        %                           0.93
    smsp__inst_executed_pipe_tex.avg.pct_of_peak_sustained_active                        %                              0
    smsp__inst_issued.avg.per_cycle_active                                      inst/cycle                           0.05
    smsp__inst_issued.sum                                                             inst                      1,670,781
    smsp__issue_active.avg.pct_of_peak_sustained_active                                  %                           5.49
    smsp__sass_thread_inst_executed_op_control_pred_on.sum                            inst                          5,850
    smsp__sass_thread_inst_executed_op_dadd_pred_on.sum                               inst                              0
    smsp__sass_thread_inst_executed_op_dfma_pred_on.sum                               inst                              0
    smsp__sass_thread_inst_executed_op_dmul_pred_on.sum                               inst                              0
    smsp__sass_thread_inst_executed_op_fadd_pred_on.sum                               inst                          1,154
    smsp__sass_thread_inst_executed_op_ffma_pred_on.sum                               inst                          4,173
    smsp__sass_thread_inst_executed_op_fmul_pred_on.sum                               inst                          1,473
    smsp__sass_thread_inst_executed_op_fp16_pred_on.sum                               inst                              0
    smsp__sass_thread_inst_executed_op_fp32_pred_on.sum                               inst                          7,431
    smsp__sass_thread_inst_executed_op_fp64_pred_on.sum                               inst                              0
    smsp__sass_thread_inst_executed_op_hadd_pred_on.sum                               inst                              0
    smsp__sass_thread_inst_executed_op_hfma_pred_on.sum                               inst                              0
    smsp__sass_thread_inst_executed_op_hmul_pred_on.sum                               inst                              0
    smsp__sass_thread_inst_executed_op_integer_pred_on.sum                            inst                         41,217
    smsp__sass_thread_inst_executed_op_inter_thread_communication_pred_on.            inst                              0
    sum                                                                                                                  
    smsp__sass_thread_inst_executed_op_memory_pred_on.sum                             inst                          4,005
    smsp__sass_thread_inst_executed_op_misc_pred_on.sum                               inst                          4,686
    smsp__sass_thread_inst_executed_op_mufu_pred_on.sum                                                           (!) n/a
    smsp__thread_inst_executed_per_inst_executed.pct                                     %                           3.12
    smsp__thread_inst_executed_per_inst_executed.ratio                                                               1.00
    smsp__warp_issue_stalled_drain_miss_per_warp_active.pct                                                       (!) n/a
    smsp__warp_issue_stalled_imc_miss_per_warp_active.pct                                %                           0.00
    smsp__warp_issue_stalled_long_scoreboard_miss_per_warp_active.pct                                             (!) n/a
    smsp__warp_issue_stalled_misc_membar_per_warp_active.pct                                                      (!) n/a
    smsp__warp_issue_stalled_misc_mio_throttle_per_warp_active.pct                                                (!) n/a
    smsp__warp_issue_stalled_misc_miss_per_warp_active.pct                                                        (!) n/a
    smsp__warp_issue_stalled_misc_sleeping_per_warp_active.pct                                                    (!) n/a
    smsp__warp_issue_stalled_misc_tex_throttle_per_warp_active.pct                                                (!) n/a
    smsp__warp_issue_stalled_no_instruction_miss_per_warp_active.pct                                              (!) n/a
    smsp__warp_issue_stalled_short_scoreboard_miss_per_warp_active.pct                                            (!) n/a
    smsp__warps_eligible.sum.per_cycle_active                                         warp                          23.70
    ---------------------------------------------------------------------- --------------- ------------------------------

  render(vec3*, int, int, int, hitable**, camera**), 2023-Jan-14 22:59:50, Context 1, Stream 7
    Section: Command line profiler metrics
    ---------------------------------------------------------------------- --------------- ------------------------------
    dram__bytes_read.sum                                                                                          (!) n/a
    dram__bytes_read.sum.per_second                                                                               (!) n/a
    dram__bytes_write.sum                                                                                         (!) n/a
    dram__bytes_write.sum.per_second                                                                              (!) n/a
    dram__sectors_read.sum                                                                                        (!) n/a
    dram__sectors_write.sum                                                                                       (!) n/a
    l1tex__f_tex2sm_cycles_active.avg.pct_of_peak_sustained_elapsed                                               (!) n/a
    l1tex__lsu_writeback_active.avg.pct_of_peak_sustained_active                                                  (!) n/a
    l1tex__lsu_writeback_active.sum                                                                               (!) n/a
    l1tex__t_bytes_pipe_lsu_mem_global_op_ld.sum.per_second                                                       (!) n/a
    l1tex__t_bytes_pipe_lsu_mem_global_op_st.sum                                                                  (!) n/a
    l1tex__t_bytes_pipe_lsu_mem_global_op_st.sum.per_second                                                       (!) n/a
    l1tex__t_bytes_pipe_lsu_mem_local_op_ld.sum.per_second                                                        (!) n/a
    l1tex__t_requests_pipe_lsu_mem_global_op_atom.sum                                                             (!) n/a
    l1tex__t_requests_pipe_lsu_mem_global_op_ld.sum                                                               (!) n/a
    l1tex__t_requests_pipe_lsu_mem_global_op_red.sum                                                              (!) n/a
    l1tex__t_requests_pipe_lsu_mem_global_op_st.sum                                                               (!) n/a
    l1tex__t_requests_pipe_lsu_mem_local_op_ld.sum                                                                (!) n/a
    l1tex__t_requests_pipe_lsu_mem_local_op_st.sum                                                                (!) n/a
    l1tex__t_requests_pipe_tex_mem_surface_op_atom.sum                                                            (!) n/a
    l1tex__t_requests_pipe_tex_mem_surface_op_ld.sum                                                              (!) n/a
    l1tex__t_requests_pipe_tex_mem_surface_op_red.sum                                                             (!) n/a
    l1tex__t_requests_pipe_tex_mem_surface_op_st.sum                                                              (!) n/a
    l1tex__t_requests_pipe_tex_mem_texture.sum                                                                    (!) n/a
    l1tex__t_sector_hit_rate.pct                                                                                  (!) n/a
    l1tex__t_sectors_pipe_lsu_mem_global_op.sum                                                                   (!) n/a
    l1tex__t_sectors_pipe_lsu_mem_global_op_ld.sum                                                                (!) n/a
    l1tex__t_sectors_pipe_lsu_mem_global_op_lookup_hit.sum                                                        (!) n/a
    l1tex__t_sectors_pipe_lsu_mem_local_op_ld.sum                                                                 (!) n/a
    l1tex__t_sectors_pipe_lsu_mem_local_op_st.sum                                                                 (!) n/a
    l1tex__t_sectors_pipe_lsu_mem_local_op_st.sum.per_second                                                      (!) n/a
    l1tex__t_set_accesses_pipe_lsu_mem_global_op_atom.sum                                                         (!) n/a
    l1tex__t_set_accesses_pipe_lsu_mem_global_op_red.sum                                                          (!) n/a
    l1tex__t_set_accesses_pipe_tex_mem_surface_op_atom.sum                                                        (!) n/a
    l1tex__t_set_accesses_pipe_tex_mem_surface_op_red.sum                                                         (!) n/a
    l1tex__tex_writeback_active.avg.pct_of_peak_sustained_active                                                  (!) n/a
    l1tex__texin_sm2tex_req_cycles_active.avg.pct_of_peak_sustained_elapse                                        (!) n/a
    d                                                                                                                    
    lts__t_bytes_equiv_l1sectormiss_pipe_lsu_mem_global_op_ld.sum                                                 (!) n/a
    lts__t_bytes_equiv_l1sectormiss_pipe_lsu_mem_global_op_st.sum                                                 (!) n/a
    lts__t_bytes_equiv_l1sectormiss_pipe_lsu_mem_surface_op_st.sum                                                (!) n/a
    lts__t_bytes_equiv_l1sectormiss_pipe_tex_mem_surface_op_ld.sum                                                (!) n/a
    lts__t_sector_hit_rate.pct                                                                                    (!) n/a
    lts__t_sector_op_read_hit_rate.pct                                                                            (!) n/a
    lts__t_sector_op_write_hit_rate.pct                                                                           (!) n/a
    lts__t_sectors.avg.pct_of_peak_sustained_elapsed                                                              (!) n/a
    lts__t_sectors_aperture_sysmem_op_read.sum                                                                    (!) n/a
    lts__t_sectors_aperture_sysmem_op_read.sum.per_second                                                         (!) n/a
    lts__t_sectors_aperture_sysmem_op_write.sum                                                                   (!) n/a
    lts__t_sectors_aperture_sysmem_op_write.sum.per_second                                                        (!) n/a
    lts__t_sectors_op_read.sum                                                                                    (!) n/a
    lts__t_sectors_op_read.sum.per_second                                                                         (!) n/a
    lts__t_sectors_op_write.sum                                                                                   (!) n/a
    lts__t_sectors_op_write.sum.per_second                                                                        (!) n/a
    lts__t_sectors_srcunit_l1_op_atom.sum                                                                         (!) n/a
    lts__t_sectors_srcunit_l1_op_atom.sum.per_second                                                              (!) n/a
    lts__t_sectors_srcunit_tex_op_read.sum                                                                        (!) n/a
    lts__t_sectors_srcunit_tex_op_read.sum.per_second                                                             (!) n/a
    sm__mio2rf_writeback_active.avg.pct_of_peak_sustained_elapsed                                                 (!) n/a
    sm__pipe_tensor_cycles_active.avg.pct_of_peak_sustained_active                                                (!) n/a
    sm__warps_active.avg.pct_of_peak_sustained_active                                                             (!) n/a
    smsp__average_inst_executed_per_warp.ratio                                                                    (!) n/a
    smsp__cycles_active.avg.pct_of_peak_sustained_elapsed                                                         (!) n/a
    smsp__inst_executed.avg.per_cycle_active                                                                      (!) n/a
    smsp__inst_executed.sum                                                                                       (!) n/a
    smsp__inst_executed_op_global_atom.sum                                                                        (!) n/a
    smsp__inst_executed_op_global_ld.sum                                                                          (!) n/a
    smsp__inst_executed_op_global_st.sum                                                                          (!) n/a
    smsp__inst_executed_op_local_ld.sum                                                                           (!) n/a
    smsp__inst_executed_op_shared_atom.sum                                                                        (!) n/a
    smsp__inst_executed_op_shared_atom_dot_alu.sum                                                                (!) n/a
    smsp__inst_executed_op_shared_atom_dot_cas.sum                                                                (!) n/a
    smsp__inst_executed_op_shared_ld.avg.pct_of_peak_sustained_elapsed                                            (!) n/a
    smsp__inst_executed_op_shared_ld.sum                                                                          (!) n/a
    smsp__inst_executed_op_shared_ld.sum.per_second                                                               (!) n/a
    smsp__inst_executed_op_shared_st.avg.pct_of_peak_sustained_elapsed                                            (!) n/a
    smsp__inst_executed_op_shared_st.sum                                                                          (!) n/a
    smsp__inst_executed_op_shared_st.sum.per_second                                                               (!) n/a
    smsp__inst_executed_op_surface_atom.sum                                                                       (!) n/a
    smsp__inst_executed_op_surface_ld.sum                                                                         (!) n/a
    smsp__inst_executed_op_surface_red.sum                                                                        (!) n/a
    smsp__inst_executed_op_surface_st.sum                                                                         (!) n/a
    smsp__inst_executed_op_texture.sum                                                                            (!) n/a
    smsp__inst_executed_pipe_adu.sum                                                                              (!) n/a
    smsp__inst_executed_pipe_cbu.sum                                                                              (!) n/a
    smsp__inst_executed_pipe_fp16.sum                                                                             (!) n/a
    smsp__inst_executed_pipe_fp64.avg.pct_of_peak_sustained_active                                                (!) n/a
    smsp__inst_executed_pipe_lsu.avg.pct_of_peak_sustained_active                                                 (!) n/a
    smsp__inst_executed_pipe_tex.avg.pct_of_peak_sustained_active                                                 (!) n/a
    smsp__inst_issued.avg.per_cycle_active                                                                        (!) n/a
    smsp__inst_issued.sum                                                                                         (!) n/a
    smsp__issue_active.avg.pct_of_peak_sustained_active                                                           (!) n/a
    smsp__sass_thread_inst_executed_op_control_pred_on.sum                                                        (!) n/a
    smsp__sass_thread_inst_executed_op_dadd_pred_on.sum                                                           (!) n/a
    smsp__sass_thread_inst_executed_op_dfma_pred_on.sum                                                           (!) n/a
    smsp__sass_thread_inst_executed_op_dmul_pred_on.sum                                                           (!) n/a
    smsp__sass_thread_inst_executed_op_fadd_pred_on.sum                                                           (!) n/a
    smsp__sass_thread_inst_executed_op_ffma_pred_on.sum                                                           (!) n/a
    smsp__sass_thread_inst_executed_op_fmul_pred_on.sum                                                           (!) n/a
    smsp__sass_thread_inst_executed_op_fp16_pred_on.sum                                                           (!) n/a
    smsp__sass_thread_inst_executed_op_fp32_pred_on.sum                                                           (!) n/a
    smsp__sass_thread_inst_executed_op_fp64_pred_on.sum                                                           (!) n/a
    smsp__sass_thread_inst_executed_op_hadd_pred_on.sum                                                           (!) n/a
    smsp__sass_thread_inst_executed_op_hfma_pred_on.sum                                                           (!) n/a
    smsp__sass_thread_inst_executed_op_hmul_pred_on.sum                                                           (!) n/a
    smsp__sass_thread_inst_executed_op_integer_pred_on.sum                                                        (!) n/a
    smsp__sass_thread_inst_executed_op_inter_thread_communication_pred_on.                                        (!) n/a
    sum                                                                                                                  
    smsp__sass_thread_inst_executed_op_memory_pred_on.sum                                                         (!) n/a
    smsp__sass_thread_inst_executed_op_misc_pred_on.sum                                                           (!) n/a
    smsp__sass_thread_inst_executed_op_mufu_pred_on.sum                                                           (!) n/a
    smsp__thread_inst_executed_per_inst_executed.pct                                                              (!) n/a
    smsp__thread_inst_executed_per_inst_executed.ratio                                                            (!) n/a
    smsp__warp_issue_stalled_drain_miss_per_warp_active.pct                                                       (!) n/a
    smsp__warp_issue_stalled_imc_miss_per_warp_active.pct                                                         (!) n/a
    smsp__warp_issue_stalled_long_scoreboard_miss_per_warp_active.pct                                             (!) n/a
    smsp__warp_issue_stalled_misc_membar_per_warp_active.pct                                                      (!) n/a
    smsp__warp_issue_stalled_misc_mio_throttle_per_warp_active.pct                                                (!) n/a
    smsp__warp_issue_stalled_misc_miss_per_warp_active.pct                                                        (!) n/a
    smsp__warp_issue_stalled_misc_sleeping_per_warp_active.pct                                                    (!) n/a
    smsp__warp_issue_stalled_misc_tex_throttle_per_warp_active.pct                                                (!) n/a
    smsp__warp_issue_stalled_no_instruction_miss_per_warp_active.pct                                              (!) n/a
    smsp__warp_issue_stalled_short_scoreboard_miss_per_warp_active.pct                                            (!) n/a
    smsp__warps_eligible.sum.per_cycle_active                                                                     (!) n/a

