wangpeng@dacent:~/tools/Rodinia/cuda/cfd$ LD_PRELOAD=/home/wangpeng/tools/gitlab-william/cpu-gpu-raytracing/MICPAT-new/tools/memory_allocation/memory_allocation.so ./run 
/usr/share/modules/init/bash: line 36: eval: --: invalid option
eval: usage: eval [arg ...]
./run: line 1: There: command not found
------------- NVBit (NVidia Binary Instrumentation Tool v1.0) Loaded --------------
NVBit core environment variables (mostly for nvbit-devs):
           NOINSPECT = 0 - if set, skips function inspection and instrumentation
            NVDISASM = nvdisasm - override default nvdisasm found in PATH
            NOBANNER = 0 - if set, does not print this banner
---------------------------------------------------------------------------------
         INSTR_BEGIN = 0 - Beginning of the instruction interval where to apply instrumentation
           INSTR_END = 4294967295 - End of the instruction interval where to apply instrumentation
        KERNEL_BEGIN = 0 - Beginning of the kernel launch interval where to apply instrumentation
          KERNEL_END = 4294967295 - End of the kernel launch interval where to apply instrumentation
    COUNT_WARP_LEVEL = 1 - Count warp level or thread level instructions
    EXCLUDE_PRED_OFF = 0 - Exclude predicated off instruction from count
        TOOL_VERBOSE = 0 - Enable verbosity inside the tool
----------------------------------------------------------------------------------------------------
WG size of kernel:initialize = 192, WG size of kernel:compute_step_factor = 192, WG size of kernel:compute_flux = 192, WG size of kernel:time_step = 192
Name:                     Tesla P100-PCIE-16GB
Encountered a memcpy HtoD!
0x7fdb3080f400, 0x7ffff74473b0, 20 
Encountered a memcpy HtoD!
0x7fdb3080f400, 0x7ffff74473b0, 20 
Encountered a memcpy HtoD!
0x7fdb3080f414, 0x7ffff744737c, 12 
Encountered a memcpy HtoD!
0x7fdb3080f414, 0x7ffff744737c, 12 
Encountered a memcpy HtoD!
0x7fdb3080f420, 0x7ffff7447388, 12 
Encountered a memcpy HtoD!
0x7fdb3080f420, 0x7ffff7447388, 12 
Encountered a memcpy HtoD!
0x7fdb3080f42c, 0x7ffff7447394, 12 
Encountered a memcpy HtoD!
0x7fdb3080f42c, 0x7ffff7447394, 12 
Encountered a memcpy HtoD!
0x7fdb3080f438, 0x7ffff74473a0, 12 
Encountered a memcpy HtoD!
0x7fdb3080f438, 0x7ffff74473a0, 12 
Found an allocation!
0x7fdb31000000, 388608 
Encountered a memcpy HtoD!
0x7fdb31000000, 0x562e653df3f0, 388608 
Encountered a memcpy HtoD!
0x7fdb31000000, 0x562e653df3f0, 388608 
Found an allocation!
0x7fdb3105ee00, 1554432 
Encountered a memcpy HtoD!
0x7fdb3105ee00, 0x562e6543e200, 1554432 
Encountered a memcpy HtoD!
0x7fdb3105ee00, 0x562e6543e200, 1554432 
Found an allocation!
0x7fdb31200000, 4663296 
Encountered a memcpy HtoD!
0x7fdb31200000, 0x7fdb50234010, 4663296 
Encountered a memcpy HtoD!
0x7fdb31200000, 0x7fdb50234010, 4663296 
Found an allocation!
0x7fdb31800000, 1943040 
Found an allocation!
0x7fdb31a00000, 1943040 
Found an allocation!
0x7fdb31c00000, 1943040 
Found an allocation!
0x7fdb31e00000, 388608 
Starting...
0.0921108 seconds per iteration
Saving solution...
Saved solution...
Cleaning up...
Found a free!
0x7fdb31000000
Address: 0x7fdb31e00000, Number: 6, Size: 388608
Address: 0x7fdb31c00000, Number: 5, Size: 1943040
Address: 0x7fdb31800000, Number: 3, Size: 1943040
Address: 0x7fdb31200000, Number: 2, Size: 4663296
Address: 0x7fdb31a00000, Number: 4, Size: 1943040
Address: 0x7fdb3105ee00, Number: 1, Size: 1554432
Found a free!
0x7fdb3105ee00
Address: 0x7fdb31e00000, Number: 6, Size: 388608
Address: 0x7fdb31c00000, Number: 5, Size: 1943040
Address: 0x7fdb31800000, Number: 3, Size: 1943040
Address: 0x7fdb31200000, Number: 2, Size: 4663296
Address: 0x7fdb31a00000, Number: 4, Size: 1943040
Found a free!
0x7fdb31200000
Address: 0x7fdb31e00000, Number: 6, Size: 388608
Address: 0x7fdb31c00000, Number: 5, Size: 1943040
Address: 0x7fdb31800000, Number: 3, Size: 1943040
Address: 0x7fdb31a00000, Number: 4, Size: 1943040
Found a free!
0x7fdb31800000
Address: 0x7fdb31e00000, Number: 6, Size: 388608
Address: 0x7fdb31c00000, Number: 5, Size: 1943040
Address: 0x7fdb31a00000, Number: 4, Size: 1943040
Found a free!
0x7fdb31a00000
Address: 0x7fdb31e00000, Number: 6, Size: 388608
Address: 0x7fdb31c00000, Number: 5, Size: 1943040
Found a free!
0x7fdb31c00000
Address: 0x7fdb31e00000, Number: 6, Size: 388608
Found a free!
0x7fdb31e00000
Done...
------------- NVBit (NVidia Binary Instrumentation Tool v1.0) Loaded --------------
NVBit core environment variables (mostly for nvbit-devs):
           NOINSPECT = 0 - if set, skips function inspection and instrumentation
            NVDISASM = nvdisasm - override default nvdisasm found in PATH
            NOBANNER = 0 - if set, does not print this banner
---------------------------------------------------------------------------------
         INSTR_BEGIN = 0 - Beginning of the instruction interval where to apply instrumentation
           INSTR_END = 4294967295 - End of the instruction interval where to apply instrumentation
        KERNEL_BEGIN = 0 - Beginning of the kernel launch interval where to apply instrumentation
          KERNEL_END = 4294967295 - End of the kernel launch interval where to apply instrumentation
    COUNT_WARP_LEVEL = 1 - Count warp level or thread level instructions
    EXCLUDE_PRED_OFF = 0 - Exclude predicated off instruction from count
        TOOL_VERBOSE = 0 - Enable verbosity inside the tool
----------------------------------------------------------------------------------------------------
WG size of kernel:initialize = 192, WG size of kernel:compute_step_factor = 192, WG size of kernel:compute_flux = 192, WG size of kernel:time_step = 192
Name:                     Tesla P100-PCIE-16GB
Encountered a memcpy HtoD!
0x7f9122800600, 0x7fff35c411b0, 20 
Encountered a memcpy HtoD!
0x7f9122800600, 0x7fff35c411b0, 20 
Encountered a memcpy HtoD!
0x7f9122800614, 0x7fff35c4117c, 12 
Encountered a memcpy HtoD!
0x7f9122800614, 0x7fff35c4117c, 12 
Encountered a memcpy HtoD!
0x7f9122800620, 0x7fff35c41188, 12 
Encountered a memcpy HtoD!
0x7f9122800620, 0x7fff35c41188, 12 
Encountered a memcpy HtoD!
0x7f912280062c, 0x7fff35c41194, 12 
Encountered a memcpy HtoD!
0x7f912280062c, 0x7fff35c41194, 12 
Encountered a memcpy HtoD!
0x7f9122800638, 0x7fff35c411a0, 12 
Encountered a memcpy HtoD!
0x7f9122800638, 0x7fff35c411a0, 12 
Found an allocation!
0x7f9123000000, 774144 
Encountered a memcpy HtoD!
0x7f9123000000, 0x562a5b3f2170, 774144 
Encountered a memcpy HtoD!
0x7f9123000000, 0x562a5b3f2170, 774144 
Found an allocation!
0x7f9123200000, 3096576 
Encountered a memcpy HtoD!
0x7f9123200000, 0x7f91425a9010, 3096576 
Encountered a memcpy HtoD!
0x7f9123200000, 0x7f91425a9010, 3096576 
Found an allocation!
0x7f9123600000, 9289728 
Encountered a memcpy HtoD!
0x7f9123600000, 0x7f9141ccc010, 9289728 
Encountered a memcpy HtoD!
0x7f9123600000, 0x7f9141ccc010, 9289728 
Found an allocation!
0x7f9116000000, 3870720 
Found an allocation!
0x7f9116400000, 3870720 
Found an allocation!
0x7f9116800000, 3870720 
Found an allocation!
0x7f91230bd000, 774144 
Starting...
0.177014 seconds per iteration
Saving solution...
Saved solution...
Cleaning up...
Found a free!
0x7f9123000000
Address: 0x7f91230bd000, Number: 6, Size: 774144
Address: 0x7f9116800000, Number: 5, Size: 3870720
Address: 0x7f9116400000, Number: 4, Size: 3870720
Address: 0x7f9123600000, Number: 2, Size: 9289728
Address: 0x7f9123200000, Number: 1, Size: 3096576
Address: 0x7f9116000000, Number: 3, Size: 3870720
Found a free!
0x7f9123200000
Address: 0x7f91230bd000, Number: 6, Size: 774144
Address: 0x7f9116800000, Number: 5, Size: 3870720
Address: 0x7f9116400000, Number: 4, Size: 3870720
Address: 0x7f9123600000, Number: 2, Size: 9289728
Address: 0x7f9116000000, Number: 3, Size: 3870720
Found a free!
0x7f9123600000
Address: 0x7f91230bd000, Number: 6, Size: 774144
Address: 0x7f9116800000, Number: 5, Size: 3870720
Address: 0x7f9116400000, Number: 4, Size: 3870720
Address: 0x7f9116000000, Number: 3, Size: 3870720
Found a free!
0x7f9116000000
Address: 0x7f91230bd000, Number: 6, Size: 774144
Address: 0x7f9116800000, Number: 5, Size: 3870720
Address: 0x7f9116400000, Number: 4, Size: 3870720
Found a free!
0x7f9116400000
Address: 0x7f91230bd000, Number: 6, Size: 774144
Address: 0x7f9116800000, Number: 5, Size: 3870720
Found a free!
0x7f9116800000
Address: 0x7f91230bd000, Number: 6, Size: 774144
Found a free!
0x7f91230bd000
Done...
------------- NVBit (NVidia Binary Instrumentation Tool v1.0) Loaded --------------
NVBit core environment variables (mostly for nvbit-devs):
           NOINSPECT = 0 - if set, skips function inspection and instrumentation
            NVDISASM = nvdisasm - override default nvdisasm found in PATH
            NOBANNER = 0 - if set, does not print this banner
---------------------------------------------------------------------------------
         INSTR_BEGIN = 0 - Beginning of the instruction interval where to apply instrumentation
           INSTR_END = 4294967295 - End of the instruction interval where to apply instrumentation
        KERNEL_BEGIN = 0 - Beginning of the kernel launch interval where to apply instrumentation
          KERNEL_END = 4294967295 - End of the kernel launch interval where to apply instrumentation
    COUNT_WARP_LEVEL = 1 - Count warp level or thread level instructions
    EXCLUDE_PRED_OFF = 0 - Exclude predicated off instruction from count
        TOOL_VERBOSE = 0 - Enable verbosity inside the tool
----------------------------------------------------------------------------------------------------
WG size of kernel:initialize = 192, WG size of kernel:compute_step_factor = 192, WG size of kernel:compute_flux = 192, WG size of kernel:time_step = 192
Name:                     Tesla P100-PCIE-16GB
Encountered a memcpy HtoD!
0x7ff1a2800600, 0x7ffe4e0740b0, 20 
Encountered a memcpy HtoD!
0x7ff1a2800600, 0x7ffe4e0740b0, 20 
Encountered a memcpy HtoD!
0x7ff1a2800614, 0x7ffe4e07407c, 12 
Encountered a memcpy HtoD!
0x7ff1a2800614, 0x7ffe4e07407c, 12 
Encountered a memcpy HtoD!
0x7ff1a2800620, 0x7ffe4e074088, 12 
Encountered a memcpy HtoD!
0x7ff1a2800620, 0x7ffe4e074088, 12 
Encountered a memcpy HtoD!
0x7ff1a280062c, 0x7ffe4e074094, 12 
Encountered a memcpy HtoD!
0x7ff1a280062c, 0x7ffe4e074094, 12 
Encountered a memcpy HtoD!
0x7ff1a2800638, 0x7ffe4e0740a0, 12 
Encountered a memcpy HtoD!
0x7ff1a2800638, 0x7ffe4e0740a0, 12 
Found an allocation!
0x7ff1a3000000, 930816 
Encountered a memcpy HtoD!
0x7ff1a3000000, 0x55e33ca96a30, 930816 
Encountered a memcpy HtoD!
0x7ff1a3000000, 0x55e33ca96a30, 930816 
Found an allocation!
0x7ff1a3200000, 3723264 
Encountered a memcpy HtoD!
0x7ff1a3200000, 0x7ff1c9020010, 3723264 
Encountered a memcpy HtoD!
0x7ff1a3200000, 0x7ff1c9020010, 3723264 
Found an allocation!
0x7ff196000000, 11169792 
Encountered a memcpy HtoD!
0x7ff196000000, 0x7ff1c8578010, 11169792 
Encountered a memcpy HtoD!
0x7ff196000000, 0x7ff1c8578010, 11169792 
Found an allocation!
0x7ff1a3600000, 4654080 
Found an allocation!
0x7ff196c00000, 4654080 
Found an allocation!
0x7ff197200000, 4654080 
Found an allocation!
0x7ff1a30e3400, 930816 
Starting...
0.270292 seconds per iteration
Saving solution...
Saved solution...
Cleaning up...
Found a free!
0x7ff1a3000000
Address: 0x7ff1a30e3400, Number: 6, Size: 930816
Address: 0x7ff197200000, Number: 5, Size: 4654080
Address: 0x7ff196c00000, Number: 4, Size: 4654080
Address: 0x7ff1a3600000, Number: 3, Size: 4654080
Address: 0x7ff1a3200000, Number: 1, Size: 3723264
Address: 0x7ff196000000, Number: 2, Size: 11169792
Found a free!
0x7ff1a3200000
Address: 0x7ff1a30e3400, Number: 6, Size: 930816
Address: 0x7ff197200000, Number: 5, Size: 4654080
Address: 0x7ff196c00000, Number: 4, Size: 4654080
Address: 0x7ff1a3600000, Number: 3, Size: 4654080
Address: 0x7ff196000000, Number: 2, Size: 11169792
Found a free!
0x7ff196000000
Address: 0x7ff1a30e3400, Number: 6, Size: 930816
Address: 0x7ff197200000, Number: 5, Size: 4654080
Address: 0x7ff196c00000, Number: 4, Size: 4654080
Address: 0x7ff1a3600000, Number: 3, Size: 4654080
Found a free!
0x7ff1a3600000
Address: 0x7ff1a30e3400, Number: 6, Size: 930816
Address: 0x7ff197200000, Number: 5, Size: 4654080
Address: 0x7ff196c00000, Number: 4, Size: 4654080
Found a free!
0x7ff196c00000
Address: 0x7ff1a30e3400, Number: 6, Size: 930816
Address: 0x7ff197200000, Number: 5, Size: 4654080
Found a free!
0x7ff197200000
Address: 0x7ff1a30e3400, Number: 6, Size: 930816
Found a free!
0x7ff1a30e3400
Done...
./run: line 7: replace: command not found
