wangpeng@dacent:~/tools/gitlab-william/backup6/GPU-rendering-programs/16-Sphere-with-chessboard-grid-sample1$ LD_PRELOAD=/home/wangpeng/tools/gitlab-william/cpu-gpu-raytracing/MICPAT-new/tools/memory_allocation/memory_allocation.so  ./a.out 10 10 10 1.ppm 
------------- NVBit (NVidia Binary Instrumentation Tool v1.0) Loaded --------------
NVBit core environment variables (mostly for nvbit-devs):
           NOINSPECT = 0 - if set, skips function inspection and instrumentation
            NVDISASM = nvdisasm - override default nvdisasm found in PATH
            NOBANNER = 0 - if set, does not print this banner
---------------------------------------------------------------------------------
         INSTR_BEGIN = 0 - Beginning of the instruction interval where to apply instrumentation
           INSTR_END = 4294967295 - End of the instruction interval where to apply instrumentation
        KERNEL_BEGIN = 0 - Beginning of the kernel launch interval where to apply instrumentation
          KERNEL_END = 4294967295 - End of the kernel launch interval where to apply instrumentation
    COUNT_WARP_LEVEL = 1 - Count warp level or thread level instructions
    EXCLUDE_PRED_OFF = 0 - Exclude predicated off instruction from count
        TOOL_VERBOSE = 0 - Enable verbosity inside the tool
----------------------------------------------------------------------------------------------------
Encountered a memcpy HtoD!
0x7f8252200000, 0x7f8288dd1010, 1572864 
Encountered a memcpy HtoD!
0x7f8252200000, 0x7f8288dd1010, 1572864 
Found an allocation!
0x7f8251600000, 8 
Found an allocation!
0x7f8251600200, 4800 
Found an allocation!
0x7f8251601600, 48 
Found an allocation!
0x7f8251601800, 3904 
Found an allocation!
0x7f8251602800, 8 
Found an allocation!
0x7f8251602a00, 8 
took 23.6319 seconds.
Found a free!
0x7f8251602a00
Address: 0x7f8251602800, Number: 4, Size: 8
Address: 0x7f8251601800, Number: 3, Size: 3904
Address: 0x7f8251601600, Number: 2, Size: 48
Address: 0x7f8251600200, Number: 1, Size: 4800
Address: 0x7f8251600000, Number: 0, Size: 8
Found a free!
0x7f8251602800
Address: 0x7f8251601800, Number: 3, Size: 3904
Address: 0x7f8251601600, Number: 2, Size: 48
Address: 0x7f8251600200, Number: 1, Size: 4800
Address: 0x7f8251600000, Number: 0, Size: 8
Found a free!
0x7f8251601800
Address: 0x7f8251601600, Number: 2, Size: 48
Address: 0x7f8251600200, Number: 1, Size: 4800
Address: 0x7f8251600000, Number: 0, Size: 8
Found a free!
0x7f8251600200
Address: 0x7f8251601600, Number: 2, Size: 48
Address: 0x7f8251600000, Number: 0, Size: 8
Found a free!
0x7f8252380000
Address: 0x7f8251601600, Number: 2, Size: 48
Address: 0x7f8251600000, Number: 0, Size: 8
