wangpeng@dacent:~/tools/gitlab-william/backup6/GPU-rendering-programs/36-CUDA-with-OpenGL-ray-tracer-sample2$ LD_PRELOAD=/home/wangpeng/tools/gitlab-william/cpu-gpu-raytracing/MICPAT-new/tools/memory_allocation/memory_allocation.so  ./a.out 
------------- NVBit (NVidia Binary Instrumentation Tool v1.0) Loaded --------------
NVBit core environment variables (mostly for nvbit-devs):
           NOINSPECT = 0 - if set, skips function inspection and instrumentation
            NVDISASM = nvdisasm - override default nvdisasm found in PATH
            NOBANNER = 0 - if set, does not print this banner
---------------------------------------------------------------------------------
         INSTR_BEGIN = 0 - Beginning of the instruction interval where to apply instrumentation
           INSTR_END = 4294967295 - End of the instruction interval where to apply instrumentation
        KERNEL_BEGIN = 0 - Beginning of the kernel launch interval where to apply instrumentation
          KERNEL_END = 4294967295 - End of the kernel launch interval where to apply instrumentation
    COUNT_WARP_LEVEL = 1 - Count warp level or thread level instructions
    EXCLUDE_PRED_OFF = 0 - Exclude predicated off instruction from count
        TOOL_VERBOSE = 0 - Enable verbosity inside the tool
----------------------------------------------------------------------------------------------------
x,y,z: 0.000000, 0.000000, -20.000000, radius: 4.000000
x,y,z: 0.000000, 20.000000, -30.000000, radius: 3.000000
x,y,z: 0.000000, -10004.000000, -20.000000, radius: 10000.000000
x,y,z: 5.000000, -1.000000, -15.000000, radius: 2.000000
x,y,z: 5.000000, 0.000000, -25.000000, radius: 3.000000
x,y,z: -5.500000, 0.000000, -15.000000, radius: 3.000000
Encountered a memcpy HtoD!
0x7fb4ba800600, 0x561c1a05fc90, 288 
Encountered a memcpy HtoD!
0x7fb4ba800600, 0x561c1a05fc90, 288 
Found an allocation!
0x7fb4bb000000, 3145728 
took 0.432437 seconds.
