wangpeng@dacent:~/tools/gitlab-william/backup6/GPU-rendering-programs/41-Mandelbulb-ray-marching-sample2$ LD_PRELOAD=/home/wangpeng/tools/gitlab-william/cpu-gpu-raytracing/MICPAT-new/tools/memory_allocation/memory_allocation.so  ./a.out 
------------- NVBit (NVidia Binary Instrumentation Tool v1.0) Loaded --------------
NVBit core environment variables (mostly for nvbit-devs):
           NOINSPECT = 0 - if set, skips function inspection and instrumentation
            NVDISASM = nvdisasm - override default nvdisasm found in PATH
            NOBANNER = 0 - if set, does not print this banner
---------------------------------------------------------------------------------
         INSTR_BEGIN = 0 - Beginning of the instruction interval where to apply instrumentation
           INSTR_END = 4294967295 - End of the instruction interval where to apply instrumentation
        KERNEL_BEGIN = 0 - Beginning of the kernel launch interval where to apply instrumentation
          KERNEL_END = 4294967295 - End of the kernel launch interval where to apply instrumentation
    COUNT_WARP_LEVEL = 1 - Count warp level or thread level instructions
    EXCLUDE_PRED_OFF = 0 - Exclude predicated off instruction from count
        TOOL_VERBOSE = 0 - Enable verbosity inside the tool
----------------------------------------------------------------------------------------------------
width = 1200
Found an allocation!
0x7f8f9b000000, 4 
Found an allocation!
0x7f8f9b000200, 4 
Found an allocation!
0x7f8f9b200000, 5760000 
Found an allocation!
0x7f8f9b000400, 12 
Found an allocation!
0x7f8f9b000600, 12 
Frame 0/30
Encountered a memcpy HtoD!
0x7f8f9b000000, 0x7ffe30eb9558, 4 
Encountered a memcpy HtoD!
0x7f8f9b000000, 0x7ffe30eb9558, 4 
Encountered a memcpy HtoD!
0x7f8f9b000200, 0x7ffe30eb955c, 4 
Encountered a memcpy HtoD!
0x7f8f9b000200, 0x7ffe30eb955c, 4 
Encountered a memcpy HtoD!
0x7f8f9b000400, 0x7ffe30eb95dc, 12 
Encountered a memcpy HtoD!
0x7f8f9b000400, 0x7ffe30eb95dc, 12 
Encountered a memcpy HtoD!
0x7f8f9b000600, 0x7ffe30eb95e8, 12 
Encountered a memcpy HtoD!
0x7f8f9b000600, 0x7ffe30eb95e8, 12 
launching 5625 blocks of 256 threads
kernel time: 132051
Frame 1/30
Encountered a memcpy HtoD!
0x7f8f9b000000, 0x7ffe30eb9558, 4 
Encountered a memcpy HtoD!
0x7f8f9b000000, 0x7ffe30eb9558, 4 
Encountered a memcpy HtoD!
0x7f8f9b000200, 0x7ffe30eb955c, 4 
Encountered a memcpy HtoD!
0x7f8f9b000200, 0x7ffe30eb955c, 4 
Encountered a memcpy HtoD!
0x7f8f9b000400, 0x7ffe30eb95dc, 12 
Encountered a memcpy HtoD!
0x7f8f9b000400, 0x7ffe30eb95dc, 12 
Encountered a memcpy HtoD!
0x7f8f9b000600, 0x7ffe30eb95e8, 12 
Encountered a memcpy HtoD!
0x7f8f9b000600, 0x7ffe30eb95e8, 12 
launching 5625 blocks of 256 threads
kernel time: 181209
Frame 2/30
Encountered a memcpy HtoD!
0x7f8f9b000000, 0x7ffe30eb9558, 4 
Encountered a memcpy HtoD!
0x7f8f9b000000, 0x7ffe30eb9558, 4 
Encountered a memcpy HtoD!
0x7f8f9b000200, 0x7ffe30eb955c, 4 
Encountered a memcpy HtoD!
0x7f8f9b000200, 0x7ffe30eb955c, 4 
Encountered a memcpy HtoD!
0x7f8f9b000400, 0x7ffe30eb95dc, 12 
Encountered a memcpy HtoD!
0x7f8f9b000400, 0x7ffe30eb95dc, 12 
Encountered a memcpy HtoD!
0x7f8f9b000600, 0x7ffe30eb95e8, 12 
Encountered a memcpy HtoD!
0x7f8f9b000600, 0x7ffe30eb95e8, 12 
launching 5625 blocks of 256 threads
kernel time: 210665
Frame 3/30
Encountered a memcpy HtoD!
0x7f8f9b000000, 0x7ffe30eb9558, 4 
Encountered a memcpy HtoD!
0x7f8f9b000000, 0x7ffe30eb9558, 4 
Encountered a memcpy HtoD!
0x7f8f9b000200, 0x7ffe30eb955c, 4 
Encountered a memcpy HtoD!
0x7f8f9b000200, 0x7ffe30eb955c, 4 
Encountered a memcpy HtoD!
0x7f8f9b000400, 0x7ffe30eb95dc, 12 
Encountered a memcpy HtoD!
0x7f8f9b000400, 0x7ffe30eb95dc, 12 
Encountered a memcpy HtoD!
0x7f8f9b000600, 0x7ffe30eb95e8, 12 
Encountered a memcpy HtoD!
0x7f8f9b000600, 0x7ffe30eb95e8, 12 
launching 5625 blocks of 256 threads
kernel time: 231834
Frame 4/30
Encountered a memcpy HtoD!
0x7f8f9b000000, 0x7ffe30eb9558, 4 
Encountered a memcpy HtoD!
0x7f8f9b000000, 0x7ffe30eb9558, 4 
Encountered a memcpy HtoD!
0x7f8f9b000200, 0x7ffe30eb955c, 4 
Encountered a memcpy HtoD!
0x7f8f9b000200, 0x7ffe30eb955c, 4 
Encountered a memcpy HtoD!
0x7f8f9b000400, 0x7ffe30eb95dc, 12 
Encountered a memcpy HtoD!
0x7f8f9b000400, 0x7ffe30eb95dc, 12 
Encountered a memcpy HtoD!
0x7f8f9b000600, 0x7ffe30eb95e8, 12 
Encountered a memcpy HtoD!
0x7f8f9b000600, 0x7ffe30eb95e8, 12 
launching 5625 blocks of 256 threads
kernel time: 249843
Frame 5/30
Encountered a memcpy HtoD!
0x7f8f9b000000, 0x7ffe30eb9558, 4 
Encountered a memcpy HtoD!
0x7f8f9b000000, 0x7ffe30eb9558, 4 
Encountered a memcpy HtoD!
0x7f8f9b000200, 0x7ffe30eb955c, 4 
Encountered a memcpy HtoD!
0x7f8f9b000200, 0x7ffe30eb955c, 4 
Encountered a memcpy HtoD!
0x7f8f9b000400, 0x7ffe30eb95dc, 12 
Encountered a memcpy HtoD!
0x7f8f9b000400, 0x7ffe30eb95dc, 12 
Encountered a memcpy HtoD!
0x7f8f9b000600, 0x7ffe30eb95e8, 12 
Encountered a memcpy HtoD!
0x7f8f9b000600, 0x7ffe30eb95e8, 12 
launching 5625 blocks of 256 threads
kernel time: 273026
Frame 6/30
Encountered a memcpy HtoD!
0x7f8f9b000000, 0x7ffe30eb9558, 4 
Encountered a memcpy HtoD!
0x7f8f9b000000, 0x7ffe30eb9558, 4 
Encountered a memcpy HtoD!
0x7f8f9b000200, 0x7ffe30eb955c, 4 
Encountered a memcpy HtoD!
0x7f8f9b000200, 0x7ffe30eb955c, 4 
Encountered a memcpy HtoD!
0x7f8f9b000400, 0x7ffe30eb95dc, 12 
Encountered a memcpy HtoD!
0x7f8f9b000400, 0x7ffe30eb95dc, 12 
Encountered a memcpy HtoD!
0x7f8f9b000600, 0x7ffe30eb95e8, 12 
Encountered a memcpy HtoD!
0x7f8f9b000600, 0x7ffe30eb95e8, 12 
launching 5625 blocks of 256 threads
kernel time: 301620
Frame 7/30
Encountered a memcpy HtoD!
0x7f8f9b000000, 0x7ffe30eb9558, 4 
Encountered a memcpy HtoD!
0x7f8f9b000000, 0x7ffe30eb9558, 4 
Encountered a memcpy HtoD!
0x7f8f9b000200, 0x7ffe30eb955c, 4 
Encountered a memcpy HtoD!
0x7f8f9b000200, 0x7ffe30eb955c, 4 
Encountered a memcpy HtoD!
0x7f8f9b000400, 0x7ffe30eb95dc, 12 
Encountered a memcpy HtoD!
0x7f8f9b000400, 0x7ffe30eb95dc, 12 
Encountered a memcpy HtoD!
0x7f8f9b000600, 0x7ffe30eb95e8, 12 
Encountered a memcpy HtoD!
0x7f8f9b000600, 0x7ffe30eb95e8, 12 
launching 5625 blocks of 256 threads
kernel time: 338073
Frame 8/30
Encountered a memcpy HtoD!
0x7f8f9b000000, 0x7ffe30eb9558, 4 
Encountered a memcpy HtoD!
0x7f8f9b000000, 0x7ffe30eb9558, 4 
Encountered a memcpy HtoD!
0x7f8f9b000200, 0x7ffe30eb955c, 4 
Encountered a memcpy HtoD!
0x7f8f9b000200, 0x7ffe30eb955c, 4 
Encountered a memcpy HtoD!
0x7f8f9b000400, 0x7ffe30eb95dc, 12 
Encountered a memcpy HtoD!
0x7f8f9b000400, 0x7ffe30eb95dc, 12 
Encountered a memcpy HtoD!
0x7f8f9b000600, 0x7ffe30eb95e8, 12 
Encountered a memcpy HtoD!
0x7f8f9b000600, 0x7ffe30eb95e8, 12 
launching 5625 blocks of 256 threads
kernel time: 364738
Frame 9/30
Encountered a memcpy HtoD!
0x7f8f9b000000, 0x7ffe30eb9558, 4 
Encountered a memcpy HtoD!
0x7f8f9b000000, 0x7ffe30eb9558, 4 
Encountered a memcpy HtoD!
0x7f8f9b000200, 0x7ffe30eb955c, 4 
Encountered a memcpy HtoD!
0x7f8f9b000200, 0x7ffe30eb955c, 4 
Encountered a memcpy HtoD!
0x7f8f9b000400, 0x7ffe30eb95dc, 12 
Encountered a memcpy HtoD!
0x7f8f9b000400, 0x7ffe30eb95dc, 12 
Encountered a memcpy HtoD!
0x7f8f9b000600, 0x7ffe30eb95e8, 12 
Encountered a memcpy HtoD!
0x7f8f9b000600, 0x7ffe30eb95e8, 12 
launching 5625 blocks of 256 threads
kernel time: 381940
Frame 10/30
Encountered a memcpy HtoD!
0x7f8f9b000000, 0x7ffe30eb9558, 4 
Encountered a memcpy HtoD!
0x7f8f9b000000, 0x7ffe30eb9558, 4 
Encountered a memcpy HtoD!
0x7f8f9b000200, 0x7ffe30eb955c, 4 
Encountered a memcpy HtoD!
0x7f8f9b000200, 0x7ffe30eb955c, 4 
Encountered a memcpy HtoD!
0x7f8f9b000400, 0x7ffe30eb95dc, 12 
Encountered a memcpy HtoD!
0x7f8f9b000400, 0x7ffe30eb95dc, 12 
Encountered a memcpy HtoD!
0x7f8f9b000600, 0x7ffe30eb95e8, 12 
Encountered a memcpy HtoD!
0x7f8f9b000600, 0x7ffe30eb95e8, 12 
launching 5625 blocks of 256 threads
kernel time: 377292
Frame 11/30
Encountered a memcpy HtoD!
0x7f8f9b000000, 0x7ffe30eb9558, 4 
Encountered a memcpy HtoD!
0x7f8f9b000000, 0x7ffe30eb9558, 4 
Encountered a memcpy HtoD!
0x7f8f9b000200, 0x7ffe30eb955c, 4 
Encountered a memcpy HtoD!
0x7f8f9b000200, 0x7ffe30eb955c, 4 
Encountered a memcpy HtoD!
0x7f8f9b000400, 0x7ffe30eb95dc, 12 
Encountered a memcpy HtoD!
0x7f8f9b000400, 0x7ffe30eb95dc, 12 
Encountered a memcpy HtoD!
0x7f8f9b000600, 0x7ffe30eb95e8, 12 
Encountered a memcpy HtoD!
0x7f8f9b000600, 0x7ffe30eb95e8, 12 
launching 5625 blocks of 256 threads
kernel time: 397458
Frame 12/30
Encountered a memcpy HtoD!
0x7f8f9b000000, 0x7ffe30eb9558, 4 
Encountered a memcpy HtoD!
0x7f8f9b000000, 0x7ffe30eb9558, 4 
Encountered a memcpy HtoD!
0x7f8f9b000200, 0x7ffe30eb955c, 4 
Encountered a memcpy HtoD!
0x7f8f9b000200, 0x7ffe30eb955c, 4 
Encountered a memcpy HtoD!
0x7f8f9b000400, 0x7ffe30eb95dc, 12 
Encountered a memcpy HtoD!
0x7f8f9b000400, 0x7ffe30eb95dc, 12 
Encountered a memcpy HtoD!
0x7f8f9b000600, 0x7ffe30eb95e8, 12 
Encountered a memcpy HtoD!
0x7f8f9b000600, 0x7ffe30eb95e8, 12 
launching 5625 blocks of 256 threads
kernel time: 412081
Frame 13/30
Encountered a memcpy HtoD!
0x7f8f9b000000, 0x7ffe30eb9558, 4 
Encountered a memcpy HtoD!
0x7f8f9b000000, 0x7ffe30eb9558, 4 
Encountered a memcpy HtoD!
0x7f8f9b000200, 0x7ffe30eb955c, 4 
Encountered a memcpy HtoD!
0x7f8f9b000200, 0x7ffe30eb955c, 4 
Encountered a memcpy HtoD!
0x7f8f9b000400, 0x7ffe30eb95dc, 12 
Encountered a memcpy HtoD!
0x7f8f9b000400, 0x7ffe30eb95dc, 12 
Encountered a memcpy HtoD!
0x7f8f9b000600, 0x7ffe30eb95e8, 12 
Encountered a memcpy HtoD!
0x7f8f9b000600, 0x7ffe30eb95e8, 12 
launching 5625 blocks of 256 threads
kernel time: 412489
Frame 14/30
Encountered a memcpy HtoD!
0x7f8f9b000000, 0x7ffe30eb9558, 4 
Encountered a memcpy HtoD!
0x7f8f9b000000, 0x7ffe30eb9558, 4 
Encountered a memcpy HtoD!
0x7f8f9b000200, 0x7ffe30eb955c, 4 
Encountered a memcpy HtoD!
0x7f8f9b000200, 0x7ffe30eb955c, 4 
Encountered a memcpy HtoD!
0x7f8f9b000400, 0x7ffe30eb95dc, 12 
Encountered a memcpy HtoD!
0x7f8f9b000400, 0x7ffe30eb95dc, 12 
Encountered a memcpy HtoD!
0x7f8f9b000600, 0x7ffe30eb95e8, 12 
Encountered a memcpy HtoD!
0x7f8f9b000600, 0x7ffe30eb95e8, 12 
launching 5625 blocks of 256 threads
kernel time: 419124
Frame 15/30
Encountered a memcpy HtoD!
0x7f8f9b000000, 0x7ffe30eb9558, 4 
Encountered a memcpy HtoD!
0x7f8f9b000000, 0x7ffe30eb9558, 4 
Encountered a memcpy HtoD!
0x7f8f9b000200, 0x7ffe30eb955c, 4 
Encountered a memcpy HtoD!
0x7f8f9b000200, 0x7ffe30eb955c, 4 
Encountered a memcpy HtoD!
0x7f8f9b000400, 0x7ffe30eb95dc, 12 
Encountered a memcpy HtoD!
0x7f8f9b000400, 0x7ffe30eb95dc, 12 
Encountered a memcpy HtoD!
0x7f8f9b000600, 0x7ffe30eb95e8, 12 
Encountered a memcpy HtoD!
0x7f8f9b000600, 0x7ffe30eb95e8, 12 
launching 5625 blocks of 256 threads
kernel time: 438048
Frame 16/30
Encountered a memcpy HtoD!
0x7f8f9b000000, 0x7ffe30eb9558, 4 
Encountered a memcpy HtoD!
0x7f8f9b000000, 0x7ffe30eb9558, 4 
Encountered a memcpy HtoD!
0x7f8f9b000200, 0x7ffe30eb955c, 4 
Encountered a memcpy HtoD!
0x7f8f9b000200, 0x7ffe30eb955c, 4 
Encountered a memcpy HtoD!
0x7f8f9b000400, 0x7ffe30eb95dc, 12 
Encountered a memcpy HtoD!
0x7f8f9b000400, 0x7ffe30eb95dc, 12 
Encountered a memcpy HtoD!
0x7f8f9b000600, 0x7ffe30eb95e8, 12 
Encountered a memcpy HtoD!
0x7f8f9b000600, 0x7ffe30eb95e8, 12 
launching 5625 blocks of 256 threads
kernel time: 439711
Frame 17/30
Encountered a memcpy HtoD!
0x7f8f9b000000, 0x7ffe30eb9558, 4 
Encountered a memcpy HtoD!
0x7f8f9b000000, 0x7ffe30eb9558, 4 
Encountered a memcpy HtoD!
0x7f8f9b000200, 0x7ffe30eb955c, 4 
Encountered a memcpy HtoD!
0x7f8f9b000200, 0x7ffe30eb955c, 4 
Encountered a memcpy HtoD!
0x7f8f9b000400, 0x7ffe30eb95dc, 12 
Encountered a memcpy HtoD!
0x7f8f9b000400, 0x7ffe30eb95dc, 12 
Encountered a memcpy HtoD!
0x7f8f9b000600, 0x7ffe30eb95e8, 12 
Encountered a memcpy HtoD!
0x7f8f9b000600, 0x7ffe30eb95e8, 12 
launching 5625 blocks of 256 threads
kernel time: 451391
Frame 18/30
Encountered a memcpy HtoD!
0x7f8f9b000000, 0x7ffe30eb9558, 4 
Encountered a memcpy HtoD!
0x7f8f9b000000, 0x7ffe30eb9558, 4 
Encountered a memcpy HtoD!
0x7f8f9b000200, 0x7ffe30eb955c, 4 
Encountered a memcpy HtoD!
0x7f8f9b000200, 0x7ffe30eb955c, 4 
Encountered a memcpy HtoD!
0x7f8f9b000400, 0x7ffe30eb95dc, 12 
Encountered a memcpy HtoD!
0x7f8f9b000400, 0x7ffe30eb95dc, 12 
Encountered a memcpy HtoD!
0x7f8f9b000600, 0x7ffe30eb95e8, 12 
Encountered a memcpy HtoD!
0x7f8f9b000600, 0x7ffe30eb95e8, 12 
launching 5625 blocks of 256 threads
kernel time: 478662
Frame 19/30
Encountered a memcpy HtoD!
0x7f8f9b000000, 0x7ffe30eb9558, 4 
Encountered a memcpy HtoD!
0x7f8f9b000000, 0x7ffe30eb9558, 4 
Encountered a memcpy HtoD!
0x7f8f9b000200, 0x7ffe30eb955c, 4 
Encountered a memcpy HtoD!
0x7f8f9b000200, 0x7ffe30eb955c, 4 
Encountered a memcpy HtoD!
0x7f8f9b000400, 0x7ffe30eb95dc, 12 
Encountered a memcpy HtoD!
0x7f8f9b000400, 0x7ffe30eb95dc, 12 
Encountered a memcpy HtoD!
0x7f8f9b000600, 0x7ffe30eb95e8, 12 
Encountered a memcpy HtoD!
0x7f8f9b000600, 0x7ffe30eb95e8, 12 
launching 5625 blocks of 256 threads
kernel time: 514920
Frame 20/30
Encountered a memcpy HtoD!
0x7f8f9b000000, 0x7ffe30eb9558, 4 
Encountered a memcpy HtoD!
0x7f8f9b000000, 0x7ffe30eb9558, 4 
Encountered a memcpy HtoD!
0x7f8f9b000200, 0x7ffe30eb955c, 4 
Encountered a memcpy HtoD!
0x7f8f9b000200, 0x7ffe30eb955c, 4 
Encountered a memcpy HtoD!
0x7f8f9b000400, 0x7ffe30eb95dc, 12 
Encountered a memcpy HtoD!
0x7f8f9b000400, 0x7ffe30eb95dc, 12 
Encountered a memcpy HtoD!
0x7f8f9b000600, 0x7ffe30eb95e8, 12 
Encountered a memcpy HtoD!
0x7f8f9b000600, 0x7ffe30eb95e8, 12 
launching 5625 blocks of 256 threads
kernel time: 575567
Frame 21/30
Encountered a memcpy HtoD!
0x7f8f9b000000, 0x7ffe30eb9558, 4 
Encountered a memcpy HtoD!
0x7f8f9b000000, 0x7ffe30eb9558, 4 
Encountered a memcpy HtoD!
0x7f8f9b000200, 0x7ffe30eb955c, 4 
Encountered a memcpy HtoD!
0x7f8f9b000200, 0x7ffe30eb955c, 4 
Encountered a memcpy HtoD!
0x7f8f9b000400, 0x7ffe30eb95dc, 12 
Encountered a memcpy HtoD!
0x7f8f9b000400, 0x7ffe30eb95dc, 12 
Encountered a memcpy HtoD!
0x7f8f9b000600, 0x7ffe30eb95e8, 12 
Encountered a memcpy HtoD!
0x7f8f9b000600, 0x7ffe30eb95e8, 12 
launching 5625 blocks of 256 threads
kernel time: 623716
Frame 22/30
Encountered a memcpy HtoD!
0x7f8f9b000000, 0x7ffe30eb9558, 4 
Encountered a memcpy HtoD!
0x7f8f9b000000, 0x7ffe30eb9558, 4 
Encountered a memcpy HtoD!
0x7f8f9b000200, 0x7ffe30eb955c, 4 
Encountered a memcpy HtoD!
0x7f8f9b000200, 0x7ffe30eb955c, 4 
Encountered a memcpy HtoD!
0x7f8f9b000400, 0x7ffe30eb95dc, 12 
Encountered a memcpy HtoD!
0x7f8f9b000400, 0x7ffe30eb95dc, 12 
Encountered a memcpy HtoD!
0x7f8f9b000600, 0x7ffe30eb95e8, 12 
Encountered a memcpy HtoD!
0x7f8f9b000600, 0x7ffe30eb95e8, 12 
launching 5625 blocks of 256 threads
kernel time: 664095
Frame 23/30
Encountered a memcpy HtoD!
0x7f8f9b000000, 0x7ffe30eb9558, 4 
Encountered a memcpy HtoD!
0x7f8f9b000000, 0x7ffe30eb9558, 4 
Encountered a memcpy HtoD!
0x7f8f9b000200, 0x7ffe30eb955c, 4 
Encountered a memcpy HtoD!
0x7f8f9b000200, 0x7ffe30eb955c, 4 
Encountered a memcpy HtoD!
0x7f8f9b000400, 0x7ffe30eb95dc, 12 
Encountered a memcpy HtoD!
0x7f8f9b000400, 0x7ffe30eb95dc, 12 
Encountered a memcpy HtoD!
0x7f8f9b000600, 0x7ffe30eb95e8, 12 
Encountered a memcpy HtoD!
0x7f8f9b000600, 0x7ffe30eb95e8, 12 
launching 5625 blocks of 256 threads
kernel time: 680590
Frame 24/30
Encountered a memcpy HtoD!
0x7f8f9b000000, 0x7ffe30eb9558, 4 
Encountered a memcpy HtoD!
0x7f8f9b000000, 0x7ffe30eb9558, 4 
Encountered a memcpy HtoD!
0x7f8f9b000200, 0x7ffe30eb955c, 4 
Encountered a memcpy HtoD!
0x7f8f9b000200, 0x7ffe30eb955c, 4 
Encountered a memcpy HtoD!
0x7f8f9b000400, 0x7ffe30eb95dc, 12 
Encountered a memcpy HtoD!
0x7f8f9b000400, 0x7ffe30eb95dc, 12 
Encountered a memcpy HtoD!
0x7f8f9b000600, 0x7ffe30eb95e8, 12 
Encountered a memcpy HtoD!
0x7f8f9b000600, 0x7ffe30eb95e8, 12 
launching 5625 blocks of 256 threads
kernel time: 700468
Frame 25/30
Encountered a memcpy HtoD!
0x7f8f9b000000, 0x7ffe30eb9558, 4 
Encountered a memcpy HtoD!
0x7f8f9b000000, 0x7ffe30eb9558, 4 
Encountered a memcpy HtoD!
0x7f8f9b000200, 0x7ffe30eb955c, 4 
Encountered a memcpy HtoD!
0x7f8f9b000200, 0x7ffe30eb955c, 4 
Encountered a memcpy HtoD!
0x7f8f9b000400, 0x7ffe30eb95dc, 12 
Encountered a memcpy HtoD!
0x7f8f9b000400, 0x7ffe30eb95dc, 12 
Encountered a memcpy HtoD!
0x7f8f9b000600, 0x7ffe30eb95e8, 12 
Encountered a memcpy HtoD!
0x7f8f9b000600, 0x7ffe30eb95e8, 12 
launching 5625 blocks of 256 threads
kernel time: 730199
Frame 26/30
Encountered a memcpy HtoD!
0x7f8f9b000000, 0x7ffe30eb9558, 4 
Encountered a memcpy HtoD!
0x7f8f9b000000, 0x7ffe30eb9558, 4 
Encountered a memcpy HtoD!
0x7f8f9b000200, 0x7ffe30eb955c, 4 
Encountered a memcpy HtoD!
0x7f8f9b000200, 0x7ffe30eb955c, 4 
Encountered a memcpy HtoD!
0x7f8f9b000400, 0x7ffe30eb95dc, 12 
Encountered a memcpy HtoD!
0x7f8f9b000400, 0x7ffe30eb95dc, 12 
Encountered a memcpy HtoD!
0x7f8f9b000600, 0x7ffe30eb95e8, 12 
Encountered a memcpy HtoD!
0x7f8f9b000600, 0x7ffe30eb95e8, 12 
launching 5625 blocks of 256 threads
kernel time: 1.81466e+06
Frame 27/30
Encountered a memcpy HtoD!
0x7f8f9b000000, 0x7ffe30eb9558, 4 
Encountered a memcpy HtoD!
0x7f8f9b000000, 0x7ffe30eb9558, 4 
Encountered a memcpy HtoD!
0x7f8f9b000200, 0x7ffe30eb955c, 4 
Encountered a memcpy HtoD!
0x7f8f9b000200, 0x7ffe30eb955c, 4 
Encountered a memcpy HtoD!
0x7f8f9b000400, 0x7ffe30eb95dc, 12 
Encountered a memcpy HtoD!
0x7f8f9b000400, 0x7ffe30eb95dc, 12 
Encountered a memcpy HtoD!
0x7f8f9b000600, 0x7ffe30eb95e8, 12 
Encountered a memcpy HtoD!
0x7f8f9b000600, 0x7ffe30eb95e8, 12 
launching 5625 blocks of 256 threads
kernel time: 3.48288e+06
Frame 28/30
Encountered a memcpy HtoD!
0x7f8f9b000000, 0x7ffe30eb9558, 4 
Encountered a memcpy HtoD!
0x7f8f9b000000, 0x7ffe30eb9558, 4 
Encountered a memcpy HtoD!
0x7f8f9b000200, 0x7ffe30eb955c, 4 
Encountered a memcpy HtoD!
0x7f8f9b000200, 0x7ffe30eb955c, 4 
Encountered a memcpy HtoD!
0x7f8f9b000400, 0x7ffe30eb95dc, 12 
Encountered a memcpy HtoD!
0x7f8f9b000400, 0x7ffe30eb95dc, 12 
Encountered a memcpy HtoD!
0x7f8f9b000600, 0x7ffe30eb95e8, 12 
Encountered a memcpy HtoD!
0x7f8f9b000600, 0x7ffe30eb95e8, 12 
launching 5625 blocks of 256 threads
kernel time: 863913
Frame 29/30
Encountered a memcpy HtoD!
0x7f8f9b000000, 0x7ffe30eb9558, 4 
Encountered a memcpy HtoD!
0x7f8f9b000000, 0x7ffe30eb9558, 4 
Encountered a memcpy HtoD!
0x7f8f9b000200, 0x7ffe30eb955c, 4 
Encountered a memcpy HtoD!
0x7f8f9b000200, 0x7ffe30eb955c, 4 
Encountered a memcpy HtoD!
0x7f8f9b000400, 0x7ffe30eb95dc, 12 
Encountered a memcpy HtoD!
0x7f8f9b000400, 0x7ffe30eb95dc, 12 
Encountered a memcpy HtoD!
0x7f8f9b000600, 0x7ffe30eb95e8, 12 
Encountered a memcpy HtoD!
0x7f8f9b000600, 0x7ffe30eb95e8, 12 
launching 5625 blocks of 256 threads
kernel time: 955295
Found a free!
0x7f8f9b200000
Address: 0x7f8f9b000600, Number: 4, Size: 12
Address: 0x7f8f9b000400, Number: 3, Size: 12
Address: 0x7f8f9b000200, Number: 1, Size: 4
Address: 0x7f8f9b000000, Number: 0, Size: 4
Found a free!
0x7f8f9b000600
Address: 0x7f8f9b000400, Number: 3, Size: 12
Address: 0x7f8f9b000200, Number: 1, Size: 4
Address: 0x7f8f9b000000, Number: 0, Size: 4
Found a free!
0x7f8f9b000400
Address: 0x7f8f9b000200, Number: 1, Size: 4
Address: 0x7f8f9b000000, Number: 0, Size: 4
Run time: 18098.2
Run times
18098.2
Kernel times
955295

