wangpeng@dacent:~/tools/gitlab-william/backup6/GPU-rendering-programs/63-progressive-photon-mapping-sample3$ CUDA_VISIBLE_DEVICES=1   LD_PRELOAD=/home/wangpeng/tools/gitlab-william/cpu-gpu-raytracing/MICPAT-new/tools/memory_allocation/memory_allocation.so ./a.out 
------------- NVBit (NVidia Binary Instrumentation Tool v1.0) Loaded --------------
NVBit core environment variables (mostly for nvbit-devs):
           NOINSPECT = 0 - if set, skips function inspection and instrumentation
            NVDISASM = nvdisasm - override default nvdisasm found in PATH
            NOBANNER = 0 - if set, does not print this banner
---------------------------------------------------------------------------------
         INSTR_BEGIN = 0 - Beginning of the instruction interval where to apply instrumentation
           INSTR_END = 4294967295 - End of the instruction interval where to apply instrumentation
        KERNEL_BEGIN = 0 - Beginning of the kernel launch interval where to apply instrumentation
          KERNEL_END = 4294967295 - End of the kernel launch interval where to apply instrumentation
    COUNT_WARP_LEVEL = 1 - Count warp level or thread level instructions
    EXCLUDE_PRED_OFF = 0 - Exclude predicated off instruction from count
        TOOL_VERBOSE = 0 - Enable verbosity inside the tool
----------------------------------------------------------------------------------------------------
HitPointPass 100.00%
Found an allocation!
0x7eff03000000, 576 
Found an allocation!
0x7efef6000000, 190273360 
Found an allocation!
0x7eff03200000, 9513668 
Found an allocation!
0x7eff03000400, 244 
Found an allocation!
0x7efece000000, 380546720 
Encountered a memcpy HtoD!
0x7eff03000000, 0x557b479e51a0, 576 
Encountered a memcpy HtoD!
0x7eff03000000, 0x557b479e51a0, 576 
Encountered a memcpy HtoD!
0x7eff03000400, 0x557b479e5020, 244 
Encountered a memcpy HtoD!
0x7eff03000400, 0x557b479e5020, 244 
Encountered a memcpy HtoD!
0x7efece000000, 0x7eff2e83f010, 380546720 
Encountered a memcpy HtoD!
0x7efece000000, 0x7eff2e83f010, 380546720 
PhotonPass 100.00%
Work done in 599016.250000 ms
Found a free!
0x7eff03000000
Address: 0x7efece000000, Number: 4, Size: 380546720
Address: 0x7eff03000400, Number: 3, Size: 244
Address: 0x7eff03200000, Number: 2, Size: 9513668
Address: 0x7efef6000000, Number: 1, Size: 190273360
Found a free!
0x7efef6000000
Address: 0x7efece000000, Number: 4, Size: 380546720
Address: 0x7eff03000400, Number: 3, Size: 244
Address: 0x7eff03200000, Number: 2, Size: 9513668
Found a free!
0x7eff03200000
Address: 0x7efece000000, Number: 4, Size: 380546720
Address: 0x7eff03000400, Number: 3, Size: 244
Found a free!
0x7eff03000400
Address: 0x7efece000000, Number: 4, Size: 380546720
