Copying image data from device
17800.51 ms
==42591== Profiling application: ./render -i littlebig
==42591== Profiling result:
==42591== Metric result:
Invocations                               Metric Name                                                    Metric Description         Min         Max         Avg
Device "Tesla P100-PCIE-16GB (0)"
    Kernel: kernelClearImage(float, float, float, float)
         46                             inst_per_warp                                                 Instructions per warp   30.000000   30.000000   30.000000
         46                         branch_efficiency                                                     Branch Efficiency     100.00%     100.00%     100.00%
         46                 warp_execution_efficiency                                             Warp Execution Efficiency     100.00%     100.00%     100.00%
         46         warp_nonpred_execution_efficiency                              Warp Non-Predicated Execution Efficiency      96.67%      96.67%      96.67%
         46                      inst_replay_overhead                                           Instruction Replay Overhead    0.009989    0.015680    0.011300
         46      shared_load_transactions_per_request                           Shared Memory Load Transactions Per Request    0.000000    0.000000    0.000000
         46     shared_store_transactions_per_request                          Shared Memory Store Transactions Per Request    0.000000    0.000000    0.000000
         46       local_load_transactions_per_request                            Local Memory Load Transactions Per Request    0.000000    0.000000    0.000000
         46      local_store_transactions_per_request                           Local Memory Store Transactions Per Request    0.000000    0.000000    0.000000
         46              gld_transactions_per_request                                  Global Load Transactions Per Request    0.000000    0.000000    0.000000
         46              gst_transactions_per_request                                 Global Store Transactions Per Request   16.000000   16.000000   16.000000
         46                 shared_store_transactions                                             Shared Store Transactions           0           0           0
         46                  shared_load_transactions                                              Shared Load Transactions           0           0           0
         46                   local_load_transactions                                               Local Load Transactions           0           0           0
         46                  local_store_transactions                                              Local Store Transactions           0           0           0
         46                          gld_transactions                                              Global Load Transactions           2           2           2
         46                          gst_transactions                                             Global Store Transactions      524288      524288      524288
         46                  sysmem_read_transactions                                       System Memory Read Transactions           0           0           0
         46                 sysmem_write_transactions                                      System Memory Write Transactions           5           5           5
         46                      l2_read_transactions                                                  L2 Read Transactions         144         344         183
         46                     l2_write_transactions                                                 L2 Write Transactions      524307      524308      524307
         46                    dram_read_transactions                                       Device Memory Read Transactions          18          98          28
         46                   dram_write_transactions                                      Device Memory Write Transactions      511171      516593      515174
         46                           global_hit_rate                                     Global Hit Rate in unified l1/tex       0.00%       0.00%       0.00%
         46                            local_hit_rate                                                        Local Hit Rate       0.00%       0.00%       0.00%
         46                  gld_requested_throughput                                      Requested Global Load Throughput  0.00000B/s  0.00000B/s  0.00000B/s
         46                  gst_requested_throughput                                     Requested Global Store Throughput  506.57GB/s  513.17GB/s  511.65GB/s
         46                            gld_throughput                                                Global Load Throughput  0.00000B/s  0.00000B/s  0.00000B/s
         46                            gst_throughput                                               Global Store Throughput  506.57GB/s  513.17GB/s  511.65GB/s
         46                     local_memory_overhead                                                 Local Memory Overhead       0.00%       0.00%       0.00%
         46                        tex_cache_hit_rate                                                Unified Cache Hit Rate       0.00%       0.00%       0.00%
         46                      l2_tex_read_hit_rate                                           L2 Hit Rate (Texture Reads)       0.00%       0.00%       0.00%
         46                     l2_tex_write_hit_rate                                          L2 Hit Rate (Texture Writes)       0.00%       0.00%       0.00%
         46                      dram_read_throughput                                         Device Memory Read Throughput  17.960MB/s  97.999MB/s  28.763MB/s
         46                     dram_write_throughput                                        Device Memory Write Throughput  495.60GB/s  504.61GB/s  502.75GB/s
         46                      tex_cache_throughput                                              Unified Cache Throughput  0.00000B/s  0.00000B/s  0.00000B/s
         46                    l2_tex_read_throughput                                         L2 Throughput (Texture Reads)  0.00000B/s  0.00000B/s  0.00000B/s
         46                   l2_tex_write_throughput                                        L2 Throughput (Texture Writes)  506.57GB/s  513.17GB/s  511.65GB/s
         46                        l2_read_throughput                                                 L2 Throughput (Reads)  142.47MB/s  343.40MB/s  183.35MB/s
         46                       l2_write_throughput                                                L2 Throughput (Writes)  506.58GB/s  513.19GB/s  511.67GB/s
         46                    sysmem_read_throughput                                         System Memory Read Throughput  0.00000B/s  0.00000B/s  0.00000B/s
         46                   sysmem_write_throughput                                        System Memory Write Throughput  4.9469MB/s  5.0114MB/s  4.9965MB/s
         46                     local_load_throughput                                          Local Memory Load Throughput  0.00000B/s  0.00000B/s  0.00000B/s
         46                    local_store_throughput                                         Local Memory Store Throughput  0.00000B/s  0.00000B/s  0.00000B/s
         46                    shared_load_throughput                                         Shared Memory Load Throughput  0.00000B/s  0.00000B/s  0.00000B/s
         46                   shared_store_throughput                                        Shared Memory Store Throughput  0.00000B/s  0.00000B/s  0.00000B/s
         46                            gld_efficiency                                         Global Memory Load Efficiency       0.00%       0.00%       0.00%
         46                            gst_efficiency                                        Global Memory Store Efficiency     100.00%     100.00%     100.00%
         46                    tex_cache_transactions                                            Unified Cache Transactions           0           0           0
         46                             flop_count_dp                           Floating Point Operations(Double Precision)           0           0           0
         46                         flop_count_dp_add                       Floating Point Operations(Double Precision Add)           0           0           0
         46                         flop_count_dp_fma                       Floating Point Operations(Double Precision FMA)           0           0           0
         46                         flop_count_dp_mul                       Floating Point Operations(Double Precision Mul)           0           0           0
         46                             flop_count_sp                           Floating Point Operations(Single Precision)           0           0           0
         46                         flop_count_sp_add                       Floating Point Operations(Single Precision Add)           0           0           0
         46                         flop_count_sp_fma                       Floating Point Operations(Single Precision FMA)           0           0           0
         46                         flop_count_sp_mul                        Floating Point Operation(Single Precision Mul)           0           0           0
         46                     flop_count_sp_special                   Floating Point Operations(Single Precision Special)           0           0           0
         46                             inst_executed                                                 Instructions Executed      983040      983040      983040
         46                               inst_issued                                                   Instructions Issued      992860      998454      994165
         46                          dram_utilization                                             Device Memory Utilization    High (8)    High (8)    High (8)
         46                        sysmem_utilization                                             System Memory Utilization     Low (1)     Low (1)     Low (1)
         46                          stall_inst_fetch                              Issue Stall Reasons (Instructions Fetch)       0.53%       0.99%       0.61%
         46                     stall_exec_dependency                            Issue Stall Reasons (Execution Dependency)       3.22%       3.66%       3.32%
         46                   stall_memory_dependency                                    Issue Stall Reasons (Data Request)       0.00%       0.00%       0.00%
         46                             stall_texture                                         Issue Stall Reasons (Texture)       0.01%       0.11%       0.04%
         46                                stall_sync                                 Issue Stall Reasons (Synchronization)       0.00%       0.00%       0.00%
         46                               stall_other                                           Issue Stall Reasons (Other)       2.23%       3.26%       2.57%
         46          stall_constant_memory_dependency                              Issue Stall Reasons (Immediate constant)       1.07%       2.43%       1.36%
         46                           stall_pipe_busy                                       Issue Stall Reasons (Pipe Busy)       0.11%       0.13%       0.12%
         46                         shared_efficiency                                              Shared Memory Efficiency       0.00%       0.00%       0.00%
         46                                inst_fp_32                                               FP Instructions(Single)           0           0           0
         46                                inst_fp_64                                               FP Instructions(Double)           0           0           0
         46                              inst_integer                                                  Integer Instructions    15728640    15728640    15728640
         46                          inst_bit_convert                                              Bit-Convert Instructions           0           0           0
         46                              inst_control                                             Control-Flow Instructions     1048576     1048576     1048576
         46                        inst_compute_ld_st                                               Load/Store Instructions     1048576     1048576     1048576
         46                                 inst_misc                                                     Misc Instructions    12582912    12582912    12582912
         46           inst_inter_thread_communication                                             Inter-Thread Instructions           0           0           0
         46                               issue_slots                                                           Issue Slots      992860      998454      994165
         46                                 cf_issued                                      Issued Control-Flow Instructions       65536       65536       65536
         46                               cf_executed                                    Executed Control-Flow Instructions       65536       65536       65536
         46                               ldst_issued                                        Issued Load/Store Instructions      655360      655360      655360
         46                             ldst_executed                                      Executed Load/Store Instructions      163840      163840      163840
         46                       atomic_transactions                                                   Atomic Transactions           0           0           0
         46           atomic_transactions_per_request                                       Atomic Transactions Per Request    0.000000    0.000000    0.000000
         46                      l2_atomic_throughput                                       L2 Throughput (Atomic requests)  0.00000B/s  0.00000B/s  0.00000B/s
         46                    l2_atomic_transactions                                     L2 Transactions (Atomic requests)           0           0           0
         46                  l2_tex_read_transactions                                       L2 Transactions (Texture Reads)           0           0           0
         46                     stall_memory_throttle                                 Issue Stall Reasons (Memory Throttle)      89.83%      92.10%      91.37%
         46                        stall_not_selected                                    Issue Stall Reasons (Not Selected)       0.60%       0.72%       0.62%
         46                 l2_tex_write_transactions                                      L2 Transactions (Texture Writes)      524288      524288      524288
         46                             flop_count_hp                             Floating Point Operations(Half Precision)           0           0           0
         46                         flop_count_hp_add                         Floating Point Operations(Half Precision Add)           0           0           0
         46                         flop_count_hp_mul                          Floating Point Operation(Half Precision Mul)           0           0           0
         46                         flop_count_hp_fma                         Floating Point Operations(Half Precision FMA)           0           0           0
         46                                inst_fp_16                                                 HP Instructions(Half)           0           0           0
         46                                       ipc                                                          Executed IPC    0.463815    0.527808    0.474134
         46                                issued_ipc                                                            Issued IPC    0.472764    0.555591    0.480504
         46                    issue_slot_utilization                                                Issue Slot Utilization      23.64%      27.78%      24.03%
         46                             sm_efficiency                                               Multiprocessor Activity      78.34%      88.25%      84.37%
         46                        achieved_occupancy                                                    Achieved Occupancy    0.792328    0.811176    0.802255
         46                  eligible_warps_per_cycle                                       Eligible Warps Per Active Cycle    0.782915    0.940736    0.796990
         46                        shared_utilization                                             Shared Memory Utilization    Idle (0)    Idle (0)    Idle (0)
         46                            l2_utilization                                                  L2 Cache Utilization     Low (2)     Low (3)     Low (2)
         46                           tex_utilization                                             Unified Cache Utilization    Idle (0)    Idle (0)    Idle (0)
         46                       ldst_fu_utilization                                  Load/Store Function Unit Utilization     Low (1)     Low (1)     Low (1)
         46                         cf_fu_utilization                                Control-Flow Function Unit Utilization     Low (1)     Low (1)     Low (1)
         46                        tex_fu_utilization                                     Texture Function Unit Utilization     Low (3)     Low (3)     Low (3)
         46                    special_fu_utilization                                     Special Function Unit Utilization    Idle (0)    Idle (0)    Idle (0)
         46             half_precision_fu_utilization                              Half-Precision Function Unit Utilization    Idle (0)    Idle (0)    Idle (0)
         46           single_precision_fu_utilization                            Single-Precision Function Unit Utilization    Idle (0)    Idle (0)    Idle (0)
         46           double_precision_fu_utilization                            Double-Precision Function Unit Utilization    Idle (0)    Idle (0)    Idle (0)
         46                        flop_hp_efficiency                                            FLOP Efficiency(Peak Half)       0.00%       0.00%       0.00%
         46                        flop_sp_efficiency                                          FLOP Efficiency(Peak Single)       0.00%       0.00%       0.00%
         46                        flop_dp_efficiency                                          FLOP Efficiency(Peak Double)       0.00%       0.00%       0.00%
         46                   sysmem_read_utilization                                        System Memory Read Utilization    Idle (0)    Idle (0)    Idle (0)
         46                  sysmem_write_utilization                                       System Memory Write Utilization     Low (1)     Low (1)     Low (1)
         46               pcie_total_data_transmitted                                           PCIe Total Data Transmitted           0        2048         211
         46                  pcie_total_data_received                                              PCIe Total Data Received           0         512          66
         46                inst_executed_global_loads                              Warp level instructions for global loads           0           0           0
         46                 inst_executed_local_loads                               Warp level instructions for local loads           0           0           0
         46                inst_executed_shared_loads                              Warp level instructions for shared loads           0           0           0
         46               inst_executed_surface_loads                             Warp level instructions for surface loads           0           0           0
         46               inst_executed_global_stores                             Warp level instructions for global stores       32768       32768       32768
         46                inst_executed_local_stores                              Warp level instructions for local stores           0           0           0
         46               inst_executed_shared_stores                             Warp level instructions for shared stores           0           0           0
         46              inst_executed_surface_stores                            Warp level instructions for surface stores           0           0           0
         46              inst_executed_global_atomics                  Warp level instructions for global atom and atom cas           0           0           0
         46           inst_executed_global_reductions                         Warp level instructions for global reductions           0           0           0
         46             inst_executed_surface_atomics                 Warp level instructions for surface atom and atom cas           0           0           0
         46          inst_executed_surface_reductions                        Warp level instructions for surface reductions           0           0           0
         46              inst_executed_shared_atomics                  Warp level shared instructions for atom and atom CAS           0           0           0
         46                     inst_executed_tex_ops                                   Warp level instructions for texture           0           0           0
         46                      l2_global_load_bytes       Bytes read from L2 for misses in Unified Cache for global loads           0           0           0
         46                       l2_local_load_bytes        Bytes read from L2 for misses in Unified Cache for local loads           0           0           0
         46                     l2_surface_load_bytes      Bytes read from L2 for misses in Unified Cache for surface loads           0           0           0
         46                           dram_read_bytes                                Total bytes read from DRAM to L2 cache         576        3136         921
         46                          dram_write_bytes                             Total bytes written from L2 cache to DRAM    16357472    16530976    16485568
         46               l2_local_global_store_bytes   Bytes written to L2 from Unified Cache for local and global stores.    16777216    16777216    16777216
         46                 l2_global_reduction_bytes          Bytes written to L2 from Unified cache for global reductions           0           0           0
         46              l2_global_atomic_store_bytes             Bytes written to L2 from Unified cache for global atomics           0           0           0
         46                    l2_surface_store_bytes            Bytes written to L2 from Unified Cache for surface stores.           0           0           0
         46                l2_surface_reduction_bytes         Bytes written to L2 from Unified Cache for surface reductions           0           0           0
         46             l2_surface_atomic_store_bytes    Bytes transferred between Unified Cache and L2 for surface atomics           0           0           0
         46                      global_load_requests              Total number of global load requests from Multiprocessor           0           0           0
         46                       local_load_requests               Total number of local load requests from Multiprocessor           0           0           0
         46                     surface_load_requests             Total number of surface load requests from Multiprocessor           0           0           0
         46                     global_store_requests             Total number of global store requests from Multiprocessor      524288      524288      524288
         46                      local_store_requests              Total number of local store requests from Multiprocessor           0           0           0
         46                    surface_store_requests            Total number of surface store requests from Multiprocessor           0           0           0
         46                    global_atomic_requests            Total number of global atomic requests from Multiprocessor           0           0           0
         46                 global_reduction_requests         Total number of global reduction requests from Multiprocessor           0           0           0
         46                   surface_atomic_requests           Total number of surface atomic requests from Multiprocessor           0           0           0
         46                surface_reduction_requests        Total number of surface reduction requests from Multiprocessor           0           0           0
         46                         sysmem_read_bytes                                              System Memory Read Bytes           0           0           0
         46                        sysmem_write_bytes                                             System Memory Write Bytes         160         160         160
         46                           l2_tex_hit_rate                                                     L2 Cache Hit Rate       0.00%       0.00%       0.00%
         46                     texture_load_requests             Total number of texture Load requests from Multiprocessor           0           0           0
         46                     unique_warps_launched                                              Number of warps launched       32768       32768       32768
    Kernel: myKernelRenderCircles(void)
         46                             inst_per_warp                                                 Instructions per warp  8.9090e+04  8.9090e+04  8.9090e+04
         46                         branch_efficiency                                                     Branch Efficiency      99.99%      99.99%      99.99%
         46                 warp_execution_efficiency                                             Warp Execution Efficiency      97.44%      97.44%      97.44%
         46         warp_nonpred_execution_efficiency                              Warp Non-Predicated Execution Efficiency      95.74%      95.74%      95.74%
         46                      inst_replay_overhead                                           Instruction Replay Overhead    0.000021    0.000022    0.000021
         46      shared_load_transactions_per_request                           Shared Memory Load Transactions Per Request    0.999964    0.999964    0.999964
         46     shared_store_transactions_per_request                          Shared Memory Store Transactions Per Request    0.998517    0.998517    0.998517
         46       local_load_transactions_per_request                            Local Memory Load Transactions Per Request    0.000000    0.000000    0.000000
         46      local_store_transactions_per_request                           Local Memory Store Transactions Per Request    0.000000    0.000000    0.000000
         46              gld_transactions_per_request                                  Global Load Transactions Per Request   15.685452   15.685452   15.685452
         46              gst_transactions_per_request                                 Global Store Transactions Per Request   16.000000   16.000000   16.000000
         46                 shared_store_transactions                                             Shared Store Transactions     7082896     7082896     7082896
         46                  shared_load_transactions                                              Shared Load Transactions    64205097    64205097    64205097
         46                   local_load_transactions                                               Local Load Transactions           0           0           0
         46                  local_store_transactions                                              Local Store Transactions           0           0           0
         46                          gld_transactions                                              Global Load Transactions  4867039786  4867039786  4867039786
         46                          gst_transactions                                             Global Store Transactions      524288      524288      524288
         46                  sysmem_read_transactions                                       System Memory Read Transactions           0           0           0
         46                 sysmem_write_transactions                                      System Memory Write Transactions           5           5           5
         46                      l2_read_transactions                                                  L2 Read Transactions     7335279     7347511     7338319
         46                     l2_write_transactions                                                 L2 Write Transactions      524306      524307      524306
         46                    dram_read_transactions                                       Device Memory Read Transactions      533098      534786      533802
         46                   dram_write_transactions                                      Device Memory Write Transactions      519169      524648      523071
         46                           global_hit_rate                                     Global Hit Rate in unified l1/tex      97.72%      97.73%      97.73%
         46                            local_hit_rate                                                        Local Hit Rate       0.00%       0.00%       0.00%
         46                  gld_requested_throughput                                      Requested Global Load Throughput  55.478GB/s  56.059GB/s  55.926GB/s
         46                  gst_requested_throughput                                     Requested Global Store Throughput  680.90MB/s  688.03MB/s  686.39MB/s
         46                            gld_throughput                                                Global Load Throughput  409.42GB/s  413.71GB/s  412.72GB/s
         46                            gst_throughput                                               Global Store Throughput  680.90MB/s  688.03MB/s  686.39MB/s
         46                     local_memory_overhead                                                 Local Memory Overhead       0.00%       0.00%       0.00%
         46                        tex_cache_hit_rate                                                Unified Cache Hit Rate      99.36%      99.36%      99.36%
         46                      l2_tex_read_hit_rate                                           L2 Hit Rate (Texture Reads)      92.70%      93.00%      92.75%
         46                     l2_tex_write_hit_rate                                          L2 Hit Rate (Texture Writes)     100.00%     100.00%     100.00%
         46                      dram_read_throughput                                         Device Memory Read Throughput  692.79MB/s  701.58MB/s  698.85MB/s
         46                     dram_write_throughput                                        Device Memory Write Throughput  678.29MB/s  688.46MB/s  684.80MB/s
         46                      tex_cache_throughput                                              Unified Cache Throughput  1543.2GB/s  1559.3GB/s  1555.6GB/s
         46                    l2_tex_read_throughput                                         L2 Throughput (Texture Reads)  9.3047GB/s  9.4041GB/s  9.3799GB/s
         46                   l2_tex_write_throughput                                        L2 Throughput (Texture Writes)  680.90MB/s  688.03MB/s  686.39MB/s
         46                        l2_read_throughput                                                 L2 Throughput (Reads)  9.3102GB/s  9.4095GB/s  9.3821GB/s
         46                       l2_write_throughput                                                L2 Throughput (Writes)  680.92MB/s  688.05MB/s  686.42MB/s
         46                    sysmem_read_throughput                                         System Memory Read Throughput  0.00000B/s  0.00000B/s  0.00000B/s
         46                   sysmem_write_throughput                                        System Memory Write Throughput  6.6484KB/s  6.7188KB/s  6.7021KB/s
         46                     local_load_throughput                                          Local Memory Load Throughput  0.00000B/s  0.00000B/s  0.00000B/s
         46                    local_store_throughput                                         Local Memory Store Throughput  0.00000B/s  0.00000B/s  0.00000B/s
         46                    shared_load_throughput                                         Shared Memory Load Throughput  325.72GB/s  329.13GB/s  328.35GB/s
         46                   shared_store_throughput                                        Shared Memory Store Throughput  35.932GB/s  36.308GB/s  36.222GB/s
         46                            gld_efficiency                                         Global Memory Load Efficiency      13.55%      13.55%      13.55%
         46                            gst_efficiency                                        Global Memory Store Efficiency     100.00%     100.00%     100.00%
         46                    tex_cache_transactions                                            Unified Cache Transactions  1216759946  1216759946  1216759946
         46                             flop_count_dp                           Floating Point Operations(Double Precision)           0           0           0
         46                         flop_count_dp_add                       Floating Point Operations(Double Precision Add)           0           0           0
         46                         flop_count_dp_fma                       Floating Point Operations(Double Precision FMA)           0           0           0
         46                         flop_count_dp_mul                       Floating Point Operations(Double Precision Mul)           0           0           0
         46                             flop_count_sp                           Floating Point Operations(Single Precision)  2.6734e+10  2.6734e+10  2.6734e+10
         46                         flop_count_sp_add                       Floating Point Operations(Single Precision Add)  6437261482  6437261482  6437261482
         46                         flop_count_sp_fma                       Floating Point Operations(Single Precision FMA)  6206629994  6206629994  6206629994
         46                         flop_count_sp_mul                        Floating Point Operation(Single Precision Mul)  7883612653  7883612653  7883612653
         46                     flop_count_sp_special                   Floating Point Operations(Single Precision Special)     6225920     6225920     6225920
         46                             inst_executed                                                 Instructions Executed  2919317064  2919317064  2919317064
         46                               inst_issued                                                   Instructions Issued  2919378683  2919381571  2919379898
         46                          dram_utilization                                             Device Memory Utilization     Low (1)     Low (1)     Low (1)
         46                        sysmem_utilization                                             System Memory Utilization     Low (1)     Low (1)     Low (1)
         46                          stall_inst_fetch                              Issue Stall Reasons (Instructions Fetch)       9.36%       9.39%       9.37%
         46                     stall_exec_dependency                            Issue Stall Reasons (Execution Dependency)      14.02%      14.07%      14.05%
         46                   stall_memory_dependency                                    Issue Stall Reasons (Data Request)      26.98%      27.13%      27.12%
         46                             stall_texture                                         Issue Stall Reasons (Texture)       0.00%       0.00%       0.00%
         46                                stall_sync                                 Issue Stall Reasons (Synchronization)      11.02%      11.05%      11.03%
         46                               stall_other                                           Issue Stall Reasons (Other)      31.91%      32.00%      31.92%
         46          stall_constant_memory_dependency                              Issue Stall Reasons (Immediate constant)       0.00%       0.01%       0.00%
         46                           stall_pipe_busy                                       Issue Stall Reasons (Pipe Busy)       1.26%       1.27%       1.26%
         46                         shared_efficiency                                              Shared Memory Efficiency      24.46%      24.46%      24.46%
         46                                inst_fp_32                                               FP Instructions(Single)  2.2293e+10  2.2293e+10  2.2293e+10
         46                                inst_fp_64                                               FP Instructions(Double)           0           0           0
         46                              inst_integer                                                  Integer Instructions  4.3169e+10  4.3169e+10  4.3169e+10
         46                          inst_bit_convert                                              Bit-Convert Instructions    10485760    10485760    10485760
         46                              inst_control                                             Control-Flow Instructions  6776745549  6776745549  6776745549
         46                        inst_compute_ld_st                                               Load/Store Instructions  1.2014e+10  1.2014e+10  1.2014e+10
         46                                 inst_misc                                                     Misc Instructions  5170627188  5170627188  5170627188
         46           inst_inter_thread_communication                                             Inter-Thread Instructions           0           0           0
         46                               issue_slots                                                           Issue Slots  2653101259  2653104003  2653102407
         46                                 cf_issued                                      Issued Control-Flow Instructions   267423172   267423172   267423172
         46                               cf_executed                                    Executed Control-Flow Instructions   267423172   267423172   267423172
         46                               ldst_issued                                        Issued Load/Store Instructions  1296973642  1296973642  1296973642
         46                             ldst_executed                                      Executed Load/Store Instructions   394665288   394665288   394665288
         46                       atomic_transactions                                                   Atomic Transactions           0           0           0
         46           atomic_transactions_per_request                                       Atomic Transactions Per Request    0.000000    0.000000    0.000000
         46                      l2_atomic_throughput                                       L2 Throughput (Atomic requests)  0.00000B/s  0.00000B/s  0.00000B/s
         46                    l2_atomic_transactions                                     L2 Transactions (Atomic requests)           0           0           0
         46                  l2_tex_read_transactions                                       L2 Transactions (Texture Reads)     7334343     7338522     7336630
         46                     stall_memory_throttle                                 Issue Stall Reasons (Memory Throttle)       0.01%       0.01%       0.01%
         46                        stall_not_selected                                    Issue Stall Reasons (Not Selected)       5.22%       5.24%       5.23%
         46                 l2_tex_write_transactions                                      L2 Transactions (Texture Writes)      524288      524288      524288
         46                             flop_count_hp                             Floating Point Operations(Half Precision)           0           0           0
         46                         flop_count_hp_add                         Floating Point Operations(Half Precision Add)           0           0           0
         46                         flop_count_hp_mul                          Floating Point Operation(Half Precision Mul)           0           0           0
         46                         flop_count_hp_fma                         Floating Point Operations(Half Precision FMA)           0           0           0
         46                                inst_fp_16                                                 HP Instructions(Half)           0           0           0
         46                                       ipc                                                          Executed IPC    1.707287    1.708106    1.707516
         46                                issued_ipc                                                            Issued IPC    1.707375    1.708183    1.707520
         46                    issue_slot_utilization                                                Issue Slot Utilization      77.58%      77.62%      77.59%
         46                             sm_efficiency                                               Multiprocessor Activity      98.75%      98.80%      98.78%
         46                        achieved_occupancy                                                    Achieved Occupancy    0.499916    0.499917    0.499917
         46                  eligible_warps_per_cycle                                       Eligible Warps Per Active Cycle    3.130200    3.132026    3.130560
         46                        shared_utilization                                             Shared Memory Utilization     Low (1)     Low (1)     Low (1)
         46                            l2_utilization                                                  L2 Cache Utilization     Low (1)     Low (1)     Low (1)
         46                           tex_utilization                                             Unified Cache Utilization    High (8)    High (8)    High (8)
         46                       ldst_fu_utilization                                  Load/Store Function Unit Utilization     Low (1)     Low (1)     Low (1)
         46                         cf_fu_utilization                                Control-Flow Function Unit Utilization     Low (2)     Low (2)     Low (2)
         46                        tex_fu_utilization                                     Texture Function Unit Utilization    High (8)    High (8)    High (8)
         46                    special_fu_utilization                                     Special Function Unit Utilization     Low (1)     Low (1)     Low (1)
         46             half_precision_fu_utilization                              Half-Precision Function Unit Utilization    Idle (0)    Idle (0)    Idle (0)
         46           single_precision_fu_utilization                            Single-Precision Function Unit Utilization     Mid (5)     Mid (5)     Mid (5)
         46           double_precision_fu_utilization                            Double-Precision Function Unit Utilization    Idle (0)    Idle (0)    Idle (0)
         46                        flop_hp_efficiency                                            FLOP Efficiency(Peak Half)       0.00%       0.00%       0.00%
         46                        flop_sp_efficiency                                          FLOP Efficiency(Peak Single)      12.06%      12.07%      12.07%
         46                        flop_dp_efficiency                                          FLOP Efficiency(Peak Double)       0.00%       0.00%       0.00%
         46                   sysmem_read_utilization                                        System Memory Read Utilization    Idle (0)    Idle (0)    Idle (0)
         46                  sysmem_write_utilization                                       System Memory Write Utilization     Low (1)     Low (1)     Low (1)
         46               pcie_total_data_transmitted                                           PCIe Total Data Transmitted        5120       11776        6711
         46                  pcie_total_data_received                                              PCIe Total Data Received           0        2560         111
         46                inst_executed_global_loads                              Warp level instructions for global loads   310290056   310290056   310290056
         46                 inst_executed_local_loads                               Warp level instructions for local loads           0           0           0
         46                inst_executed_shared_loads                              Warp level instructions for shared loads    64207381    64207381    64207381
         46               inst_executed_surface_loads                             Warp level instructions for surface loads           0           0           0
         46               inst_executed_global_stores                             Warp level instructions for global stores       32768       32768       32768
         46                inst_executed_local_stores                              Warp level instructions for local stores           0           0           0
         46               inst_executed_shared_stores                             Warp level instructions for shared stores     7093419     7093419     7093419
         46              inst_executed_surface_stores                            Warp level instructions for surface stores           0           0           0
         46              inst_executed_global_atomics                  Warp level instructions for global atom and atom cas           0           0           0
         46           inst_executed_global_reductions                         Warp level instructions for global reductions           0           0           0
         46             inst_executed_surface_atomics                 Warp level instructions for surface atom and atom cas           0           0           0
         46          inst_executed_surface_reductions                        Warp level instructions for surface reductions           0           0           0
         46              inst_executed_shared_atomics                  Warp level shared instructions for atom and atom CAS           0           0           0
         46                     inst_executed_tex_ops                                   Warp level instructions for texture           0           0           0
         46                      l2_global_load_bytes       Bytes read from L2 for misses in Unified Cache for global loads   234699456   235196832   234790346
         46                       l2_local_load_bytes        Bytes read from L2 for misses in Unified Cache for local loads           0           0           0
         46                     l2_surface_load_bytes      Bytes read from L2 for misses in Unified Cache for surface loads           0           0           0
         46                           dram_read_bytes                                Total bytes read from DRAM to L2 cache    17059136    17113152    17081686
         46                          dram_write_bytes                             Total bytes written from L2 cache to DRAM    16613408    16788736    16738298
         46               l2_local_global_store_bytes   Bytes written to L2 from Unified Cache for local and global stores.    16777216    16777216    16777216
         46                 l2_global_reduction_bytes          Bytes written to L2 from Unified cache for global reductions           0           0           0
         46              l2_global_atomic_store_bytes             Bytes written to L2 from Unified cache for global atomics           0           0           0
         46                    l2_surface_store_bytes            Bytes written to L2 from Unified Cache for surface stores.           0           0           0
         46                l2_surface_reduction_bytes         Bytes written to L2 from Unified Cache for surface reductions           0           0           0
         46             l2_surface_atomic_store_bytes    Bytes transferred between Unified Cache and L2 for surface atomics           0           0           0
         46                      global_load_requests              Total number of global load requests from Multiprocessor  1216366730  1216366730  1216366730
         46                       local_load_requests               Total number of local load requests from Multiprocessor           0           0           0
         46                     surface_load_requests             Total number of surface load requests from Multiprocessor           0           0           0
         46                     global_store_requests             Total number of global store requests from Multiprocessor      524288      524288      524288
         46                      local_store_requests              Total number of local store requests from Multiprocessor           0           0           0
         46                    surface_store_requests            Total number of surface store requests from Multiprocessor           0           0           0
         46                    global_atomic_requests            Total number of global atomic requests from Multiprocessor           0           0           0
         46                 global_reduction_requests         Total number of global reduction requests from Multiprocessor           0           0           0
         46                   surface_atomic_requests           Total number of surface atomic requests from Multiprocessor           0           0           0
         46                surface_reduction_requests        Total number of surface reduction requests from Multiprocessor           0           0           0
         46                         sysmem_read_bytes                                              System Memory Read Bytes           0           0           0
         46                        sysmem_write_bytes                                             System Memory Write Bytes         160         160         160
         46                           l2_tex_hit_rate                                                     L2 Cache Hit Rate      93.11%      93.46%      93.23%
         46                     texture_load_requests             Total number of texture Load requests from Multiprocessor           0           0           0
         46                     unique_warps_launched                                              Number of warps launched       32768       32768       32768
wangpeng@dacent:~/tools/gitlab-william/t4-render-data/150-rendering-data/asst4/render$ 
