==PROF== Profiling "kernel" - 1: 0%....50%....100% - 13 passes
Time to generate:  369311.4 ms; Framerate: 0.00 images/sec
image size : 1920 x 1440
------------------
muR : 0.1
sigmaR : 0
zoom, s : 1
sigmaFilter : 0.8
NmonteCarlo : 800
xA : 0
yA : 0
xB : 1920
yB : 1440
randomizeSeed : 1
------------------
Output image size is 1920 x 1440
blocks.x : 69
blocks.y : 52
blocks.z : 1
==PROF== Profiling "kernel" - 2: 0%....50%....100% - 13 passes
Time to generate:  354327.2 ms; Framerate: 0.00 images/sec
image size : 1920 x 1440
------------------
muR : 0.1
sigmaR : 0
zoom, s : 1
sigmaFilter : 0.8
NmonteCarlo : 800
xA : 0
yA : 0
xB : 1920
yB : 1440
randomizeSeed : 1
------------------
Output image size is 1920 x 1440
blocks.x : 69
blocks.y : 52
blocks.z : 1
==PROF== Profiling "kernel" - 3: 0%....50%....100% - 13 passes
Time to generate:  366441.4 ms; Framerate: 0.00 images/sec
output file name : 22.png
time elapsed : 1091.01
***************************


==PROF== Disconnected from process 3557
[3557] film_grain_rendering_main@127.0.0.1
  kernel(float *, unsigned long, unsigned long, unsigned long, unsigned long, float, float, int, float, float, unsigned int, float, float, float, float), 2023-Mar-01 15:33:09, Context 1, Stream 7
    Section: Command line profiler metrics
    ---------------------------------------------------------------------- --------------- ------------------------------
    dram__bytes_read.sum                                                             Mbyte                          90.63
    dram__bytes_read.sum.per_second                                           Mbyte/second                           4.25
    dram__bytes_write.sum                                                            Mbyte                          13.02
    dram__bytes_write.sum.per_second                                          Kbyte/second                         611.36
    dram__sectors_read.sum                                                          sector                      2,832,272
    dram__sectors_write.sum                                                         sector                        406,992
    dram__throughput.avg.pct_of_peak_sustained_elapsed                                   %                           0.00
    fe__draw_count.avg.pct_of_peak_sustained_elapsed                                                              (!) n/a
    gpc__cycles_elapsed.avg.per_second                                       cycle/usecond                         584.94
    gr__cycles_active.sum.pct_of_peak_sustained_elapsed                                  %                            100
    gr__dispatch_count.avg.pct_of_peak_sustained_elapsed                                                          (!) n/a
    gr__dispatch_cycles_active_queue_async.avg.pct_of_peak_sustained_elaps                                        (!) n/a
    ed                                                                                                                   
    gr__dispatch_cycles_active_queue_sync.avg.pct_of_peak_sustained_elapse                                        (!) n/a
    d                                                                                                                    
    l1tex__f_tex2sm_cycles_active.avg.pct_of_peak_sustained_elapsed                      %                           2.15
    l1tex__lsu_writeback_active.avg.pct_of_peak_sustained_active                         %                           0.00
    l1tex__lsu_writeback_active.sum                                                  cycle                        356,868
    l1tex__t_bytes_pipe_lsu_mem_global_op_ld.sum.per_second                    byte/second                              0
    l1tex__t_bytes_pipe_lsu_mem_global_op_st.sum                                     Mbyte                          13.81
    l1tex__t_bytes_pipe_lsu_mem_global_op_st.sum.per_second                   Kbyte/second                         648.47
    l1tex__t_bytes_pipe_lsu_mem_local_op_ld.sum.per_second                     byte/second                              0
    l1tex__t_requests_pipe_lsu_mem_global_op_atom.sum                              request                              0
    l1tex__t_requests_pipe_lsu_mem_global_op_ld.sum                                request                              0
    l1tex__t_requests_pipe_lsu_mem_global_op_red.sum                               request                              0
    l1tex__t_requests_pipe_lsu_mem_global_op_st.sum                                request                         88,734
    l1tex__t_requests_pipe_lsu_mem_local_op_ld.sum                                 request                              0
    l1tex__t_requests_pipe_lsu_mem_local_op_st.sum                                 request                    141,974,400
    l1tex__t_requests_pipe_tex_mem_surface_op_atom.sum                             request                              0
    l1tex__t_requests_pipe_tex_mem_surface_op_ld.sum                               request                              0
    l1tex__t_requests_pipe_tex_mem_surface_op_red.sum                              request                              0
    l1tex__t_requests_pipe_tex_mem_surface_op_st.sum                               request                              0
    l1tex__t_requests_pipe_tex_mem_texture.sum                                     request                 10,716,833,550
    l1tex__t_sector_hit_rate.pct                                                         %                          99.74
    l1tex__t_sectors_pipe_lsu_mem_global_op.sum                                                                   (!) n/a
    l1tex__t_sectors_pipe_lsu_mem_global_op_ld.sum                                  sector                              0
    l1tex__t_sectors_pipe_lsu_mem_global_op_lookup_hit.sum                                                        (!) n/a
    l1tex__t_sectors_pipe_lsu_mem_local_op_ld.sum                                   sector                              0
    l1tex__t_sectors_pipe_lsu_mem_local_op_st.sum                                   sector                    554,176,354
    l1tex__t_sectors_pipe_lsu_mem_local_op_st.sum.per_second                sector/usecond                          26.01
    l1tex__t_set_accesses_pipe_lsu_mem_global_op_atom.sum                                                               0
    l1tex__t_set_accesses_pipe_lsu_mem_global_op_red.sum                                                                0
    l1tex__t_set_accesses_pipe_tex_mem_surface_op_atom.sum                                                              0
    l1tex__t_set_accesses_pipe_tex_mem_surface_op_red.sum                                                               0
    l1tex__tex_writeback_active.avg.pct_of_peak_sustained_active                         %                           2.16
    l1tex__texin_sm2tex_req_cycles_active.avg.pct_of_peak_sustained_elapse               %                           2.15
    d                                                                                                                    
    lts__t_bytes_equiv_l1sectormiss_pipe_lsu_mem_global_op_ld.sum                     byte                              0
    lts__t_bytes_equiv_l1sectormiss_pipe_lsu_mem_global_op_st.sum                    Mbyte                          10.41
    lts__t_bytes_equiv_l1sectormiss_pipe_lsu_mem_surface_op_st.sum                                                (!) n/a
    lts__t_bytes_equiv_l1sectormiss_pipe_tex_mem_surface_op_ld.sum                    byte                              0
    lts__t_sector_hit_rate.pct                                                           %                          99.83
    lts__t_sector_op_read_hit_rate.pct                                                   %                          96.72
    lts__t_sector_op_write_hit_rate.pct                                                  %                          99.98
    lts__t_sectors.avg.pct_of_peak_sustained_elapsed                                     %                           0.10
    lts__t_sectors_aperture_sysmem_op_read.sum                                      sector                              0
    lts__t_sectors_aperture_sysmem_op_read.sum.per_second                    sector/second                              0
    lts__t_sectors_aperture_sysmem_op_write.sum                                     sector                          1,279
    lts__t_sectors_aperture_sysmem_op_write.sum.per_second                   sector/second                          60.04
    lts__t_sectors_op_read.sum                                                      sector                     54,918,657
    lts__t_sectors_op_read.sum.per_second                                   sector/usecond                           2.58
    lts__t_sectors_op_write.sum                                                     sector                    554,584,748
    lts__t_sectors_op_write.sum.per_second                                  sector/usecond                          26.03
    lts__t_sectors_srcunit_l1_op_atom.sum                                           sector                              0
    lts__t_sectors_srcunit_l1_op_atom.sum.per_second                         sector/second                              0
    lts__t_sectors_srcunit_tex_op_read.sum                                          sector                     52,737,824
    lts__t_sectors_srcunit_tex_op_read.sum.per_second                       sector/usecond                           2.48
    pcie__read_bytes.avg.pct_of_peak_sustained_elapsed                                   %                           0.00
    pcie__rx_requests_aperture_bar1_op_read.sum                                                                   (!) n/a
    pcie__rx_requests_aperture_bar1_op_write.sum                                                                  (!) n/a
    pcie__write_bytes.avg.pct_of_peak_sustained_elapsed                                  %                           0.00
    sm__cycles_active.avg.pct_of_peak_sustained_elapsed                                  %                          99.70
    sm__inst_executed_realtime.avg.pct_of_peak_sustained_elapsed                                                  (!) n/a
    sm__mio2rf_writeback_active.avg.pct_of_peak_sustained_elapsed                        %                           0.25
    sm__pipe_shared_cycles_active_realtime.avg.pct_of_peak_sustained_elaps                                        (!) n/a
    ed                                                                                                                   
    sm__pipe_tensor_cycles_active.avg.pct_of_peak_sustained_active                       %                              0
    sm__pipe_tensor_cycles_active_realtime.avg.pct_of_peak_sustained_elaps                                        (!) n/a
    ed                                                                                                                   
    sm__warps_active.avg.pct_of_peak_sustained_active                                    %                          73.11
    smsp__average_inst_executed_per_warp.ratio                                   inst/warp                   1,591,234.93
    smsp__cycles_active.avg.pct_of_peak_sustained_elapsed                                %                          96.60
    smsp__inst_executed.avg.per_cycle_active                                    inst/cycle                           0.07
    smsp__inst_executed.sum                                                           inst                142,733,773,662
    smsp__inst_executed_op_global_atom.sum                                                                        (!) n/a
    smsp__inst_executed_op_global_ld.sum                                              inst                              0
    smsp__inst_executed_op_global_st.sum                                              inst                         88,734
    smsp__inst_executed_op_local_ld.sum                                               inst                              0
    smsp__inst_executed_op_shared_atom.sum                                            inst                              0
    smsp__inst_executed_op_shared_atom_dot_alu.sum                                    inst                              0
    smsp__inst_executed_op_shared_atom_dot_cas.sum                                    inst                              0
    smsp__inst_executed_op_shared_ld.avg.pct_of_peak_sustained_elapsed                   %                              0
    smsp__inst_executed_op_shared_ld.sum                                              inst                              0
    smsp__inst_executed_op_shared_ld.sum.per_second                            inst/second                              0
    smsp__inst_executed_op_shared_st.avg.pct_of_peak_sustained_elapsed                   %                              0
    smsp__inst_executed_op_shared_st.sum                                              inst                              0
    smsp__inst_executed_op_shared_st.sum.per_second                            inst/second                              0
    smsp__inst_executed_op_surface_atom.sum                                           inst                              0
    smsp__inst_executed_op_surface_ld.sum                                             inst                              0
    smsp__inst_executed_op_surface_red.sum                                            inst                              0
    smsp__inst_executed_op_surface_st.sum                                             inst                              0
    smsp__inst_executed_op_texture.sum                                                inst                  1,607,058,390
    smsp__inst_executed_pipe_adu.sum                                                  inst                    852,203,268
    smsp__inst_executed_pipe_cbu.sum                                                  inst                 11,808,381,120
    smsp__inst_executed_pipe_fp16.sum                                                 inst                              0
    smsp__inst_executed_pipe_fp64.avg.pct_of_peak_sustained_active                       %                          22.10
    smsp__inst_executed_pipe_lsu.avg.pct_of_peak_sustained_active                        %                           0.01
    smsp__inst_executed_pipe_tex.avg.pct_of_peak_sustained_active                        %                           0.17
    smsp__inst_issued.avg.per_cycle_active                                      inst/cycle                           0.07
    smsp__inst_issued.sum                                                             inst                143,225,544,757
    smsp__issue_active.avg.pct_of_peak_sustained_active                                  %                           7.44
    smsp__sass_thread_inst_executed_op_control_pred_on.sum                            inst                175,378,775,304
    smsp__sass_thread_inst_executed_op_dadd_pred_on.sum                               inst                 21,813,825,084
    smsp__sass_thread_inst_executed_op_dfma_pred_on.sum                               inst                134,531,732,826
    smsp__sass_thread_inst_executed_op_dmul_pred_on.sum                               inst                 63,686,497,626
    smsp__sass_thread_inst_executed_op_fadd_pred_on.sum                               inst                 30,726,275,116
    smsp__sass_thread_inst_executed_op_ffma_pred_on.sum                               inst                144,000,773,706
    smsp__sass_thread_inst_executed_op_fmul_pred_on.sum                               inst                 64,498,357,124
    smsp__sass_thread_inst_executed_op_fp16_pred_on.sum                               inst                              0
    smsp__sass_thread_inst_executed_op_fp32_pred_on.sum                               inst                348,984,954,816
    smsp__sass_thread_inst_executed_op_fp64_pred_on.sum                               inst                248,439,927,108
    smsp__sass_thread_inst_executed_op_hadd_pred_on.sum                               inst                              0
    smsp__sass_thread_inst_executed_op_hfma_pred_on.sum                               inst                              0
    smsp__sass_thread_inst_executed_op_hmul_pred_on.sum                               inst                              0
    smsp__sass_thread_inst_executed_op_integer_pred_on.sum                            inst                649,394,885,110
    smsp__sass_thread_inst_executed_op_inter_thread_communication_pred_on.            inst                              0
    sum                                                                                                                  
    smsp__sass_thread_inst_executed_op_memory_pred_on.sum                             inst                 63,855,483,345
    smsp__sass_thread_inst_executed_op_misc_pred_on.sum                               inst                130,218,359,042
    smsp__sass_thread_inst_executed_op_mufu_pred_on.sum                                                           (!) n/a
    smsp__thread_inst_executed_per_inst_executed.pct                                     %                          45.22
    smsp__thread_inst_executed_per_inst_executed.ratio                                                              14.47
    smsp__warp_issue_stalled_drain_miss_per_warp_active.pct                                                       (!) n/a
    smsp__warp_issue_stalled_imc_miss_per_warp_active.pct                                %                           0.00
    smsp__warp_issue_stalled_long_scoreboard_miss_per_warp_active.pct                                             (!) n/a
    smsp__warp_issue_stalled_misc_membar_per_warp_active.pct                                                      (!) n/a
    smsp__warp_issue_stalled_misc_mio_throttle_per_warp_active.pct                                                (!) n/a
    smsp__warp_issue_stalled_misc_miss_per_warp_active.pct                                                        (!) n/a
    smsp__warp_issue_stalled_misc_sleeping_per_warp_active.pct                                                    (!) n/a
    smsp__warp_issue_stalled_misc_tex_throttle_per_warp_active.pct                                                (!) n/a
    smsp__warp_issue_stalled_no_instruction_miss_per_warp_active.pct                                              (!) n/a
    smsp__warp_issue_stalled_short_scoreboard_miss_per_warp_active.pct                                            (!) n/a
    smsp__warps_eligible.sum.per_cycle_active                                         warp                          19.05
    sys__cycles_elapsed.avg.per_second                                       cycle/usecond                         854.92
    tpc__warps_active_shader_cs_realtime.avg.pct_of_peak_sustained_elapsed               %                          72.90
    tpc__warps_active_shader_ps_realtime.avg.pct_of_peak_sustained_elapsed                                        (!) n/a
    tpc__warps_active_shader_vtg_realtime.avg.pct_of_peak_sustained_elapse                                        (!) n/a
    d                                                                                                                    
    tpc__warps_inactive_sm_active_realtime.avg.pct_of_peak_sustained_elaps                                        (!) n/a
    ed                                                                                                                   
    tpc__warps_inactive_sm_idle_realtime.avg.pct_of_peak_sustained_elapsed                                        (!) n/a
    ---------------------------------------------------------------------- --------------- ------------------------------

  kernel(float *, unsigned long, unsigned long, unsigned long, unsigned long, float, float, int, float, float, unsigned int, float, float, float, float), 2023-Mar-01 15:39:04, Context 1, Stream 7
    Section: Command line profiler metrics
    ---------------------------------------------------------------------- --------------- ------------------------------
    dram__bytes_read.sum                                                             Mbyte                          89.90
    dram__bytes_read.sum.per_second                                           Mbyte/second                           4.41
    dram__bytes_write.sum                                                            Mbyte                          13.03
    dram__bytes_write.sum.per_second                                          Kbyte/second                         639.43
    dram__sectors_read.sum                                                          sector                      2,809,300
    dram__sectors_write.sum                                                         sector                        407,164
    dram__throughput.avg.pct_of_peak_sustained_elapsed                                   %                           0.00
    fe__draw_count.avg.pct_of_peak_sustained_elapsed                                                              (!) n/a
    gpc__cycles_elapsed.avg.per_second                                       cycle/usecond                         585.10
    gr__cycles_active.sum.pct_of_peak_sustained_elapsed                                  %                            100
    gr__dispatch_count.avg.pct_of_peak_sustained_elapsed                                                          (!) n/a
    gr__dispatch_cycles_active_queue_async.avg.pct_of_peak_sustained_elaps                                        (!) n/a
    ed                                                                                                                   
    gr__dispatch_cycles_active_queue_sync.avg.pct_of_peak_sustained_elapse                                        (!) n/a
    d                                                                                                                    
    l1tex__f_tex2sm_cycles_active.avg.pct_of_peak_sustained_elapsed                      %                           2.38
    l1tex__lsu_writeback_active.avg.pct_of_peak_sustained_active                         %                           0.00
    l1tex__lsu_writeback_active.sum                                                  cycle                        356,868
    l1tex__t_bytes_pipe_lsu_mem_global_op_ld.sum.per_second                    byte/second                              0
    l1tex__t_bytes_pipe_lsu_mem_global_op_st.sum                                     Mbyte                          13.81
    l1tex__t_bytes_pipe_lsu_mem_global_op_st.sum.per_second                   Kbyte/second                         677.95
    l1tex__t_bytes_pipe_lsu_mem_local_op_ld.sum.per_second                     byte/second                              0
    l1tex__t_requests_pipe_lsu_mem_global_op_atom.sum                              request                              0
    l1tex__t_requests_pipe_lsu_mem_global_op_ld.sum                                request                              0
    l1tex__t_requests_pipe_lsu_mem_global_op_red.sum                               request                              0
    l1tex__t_requests_pipe_lsu_mem_global_op_st.sum                                request                         88,734
    l1tex__t_requests_pipe_lsu_mem_local_op_ld.sum                                 request                              0
    l1tex__t_requests_pipe_lsu_mem_local_op_st.sum                                 request                    141,974,400
    l1tex__t_requests_pipe_tex_mem_surface_op_atom.sum                             request                              0
    l1tex__t_requests_pipe_tex_mem_surface_op_ld.sum                               request                              0
    l1tex__t_requests_pipe_tex_mem_surface_op_red.sum                              request                              0
    l1tex__t_requests_pipe_tex_mem_surface_op_st.sum                               request                              0
    l1tex__t_requests_pipe_tex_mem_texture.sum                                     request                 11,367,534,780
    l1tex__t_sector_hit_rate.pct                                                         %                          99.74
    l1tex__t_sectors_pipe_lsu_mem_global_op.sum                                                                   (!) n/a
    l1tex__t_sectors_pipe_lsu_mem_global_op_ld.sum                                  sector                              0
    l1tex__t_sectors_pipe_lsu_mem_global_op_lookup_hit.sum                                                        (!) n/a
    l1tex__t_sectors_pipe_lsu_mem_local_op_ld.sum                                   sector                              0
    l1tex__t_sectors_pipe_lsu_mem_local_op_st.sum                                   sector                    553,463,044
    l1tex__t_sectors_pipe_lsu_mem_local_op_st.sum.per_second                sector/usecond                          27.16
    l1tex__t_set_accesses_pipe_lsu_mem_global_op_atom.sum                                                               0
    l1tex__t_set_accesses_pipe_lsu_mem_global_op_red.sum                                                                0
    l1tex__t_set_accesses_pipe_tex_mem_surface_op_atom.sum                                                              0
    l1tex__t_set_accesses_pipe_tex_mem_surface_op_red.sum                                                               0
    l1tex__tex_writeback_active.avg.pct_of_peak_sustained_active                         %                           2.39
    l1tex__texin_sm2tex_req_cycles_active.avg.pct_of_peak_sustained_elapse               %                           2.38
    d                                                                                                                    
    lts__t_bytes_equiv_l1sectormiss_pipe_lsu_mem_global_op_ld.sum                     byte                              0
    lts__t_bytes_equiv_l1sectormiss_pipe_lsu_mem_global_op_st.sum                    Mbyte                          10.41
    lts__t_bytes_equiv_l1sectormiss_pipe_lsu_mem_surface_op_st.sum                                                (!) n/a
    lts__t_bytes_equiv_l1sectormiss_pipe_tex_mem_surface_op_ld.sum                    byte                              0
    lts__t_sector_hit_rate.pct                                                           %                          99.85
    lts__t_sector_op_read_hit_rate.pct                                                   %                          98.39
    lts__t_sector_op_write_hit_rate.pct                                                  %                          99.99
    lts__t_sectors.avg.pct_of_peak_sustained_elapsed                                     %                           0.11
    lts__t_sectors_aperture_sysmem_op_read.sum                                      sector                              0
    lts__t_sectors_aperture_sysmem_op_read.sum.per_second                    sector/second                              0
    lts__t_sectors_aperture_sysmem_op_write.sum                                     sector                          1,223
    lts__t_sectors_aperture_sysmem_op_write.sum.per_second                   sector/second                          60.02
    lts__t_sectors_op_read.sum                                                      sector                     58,765,872
    lts__t_sectors_op_read.sum.per_second                                   sector/usecond                           2.88
    lts__t_sectors_op_write.sum                                                     sector                    554,579,382
    lts__t_sectors_op_write.sum.per_second                                  sector/usecond                          27.22
    lts__t_sectors_srcunit_l1_op_atom.sum                                           sector                              0
    lts__t_sectors_srcunit_l1_op_atom.sum.per_second                         sector/second                              0
    lts__t_sectors_srcunit_tex_op_read.sum                                          sector                     57,196,143
    lts__t_sectors_srcunit_tex_op_read.sum.per_second                       sector/usecond                           2.81
    pcie__read_bytes.avg.pct_of_peak_sustained_elapsed                                   %                           0.00
    pcie__rx_requests_aperture_bar1_op_read.sum                                                                   (!) n/a
    pcie__rx_requests_aperture_bar1_op_write.sum                                                                  (!) n/a
    pcie__write_bytes.avg.pct_of_peak_sustained_elapsed                                  %                           0.00
    sm__cycles_active.avg.pct_of_peak_sustained_elapsed                                  %                          99.69
    sm__inst_executed_realtime.avg.pct_of_peak_sustained_elapsed                                                  (!) n/a
    sm__mio2rf_writeback_active.avg.pct_of_peak_sustained_elapsed                        %                           0.26
    sm__pipe_shared_cycles_active_realtime.avg.pct_of_peak_sustained_elaps                                        (!) n/a
    ed                                                                                                                   
    sm__pipe_tensor_cycles_active.avg.pct_of_peak_sustained_active                       %                              0
    sm__pipe_tensor_cycles_active_realtime.avg.pct_of_peak_sustained_elaps                                        (!) n/a
    ed                                                                                                                   
    sm__warps_active.avg.pct_of_peak_sustained_active                                    %                          73.09
    smsp__average_inst_executed_per_warp.ratio                                   inst/warp                   1,536,299.18
    smsp__cycles_active.avg.pct_of_peak_sustained_elapsed                                %                          96.58
    smsp__inst_executed.avg.per_cycle_active                                    inst/cycle                           0.07
    smsp__inst_executed.sum                                                           inst                137,806,036,096
    smsp__inst_executed_op_global_atom.sum                                                                        (!) n/a
    smsp__inst_executed_op_global_ld.sum                                              inst                              0
    smsp__inst_executed_op_global_st.sum                                              inst                         88,734
    smsp__inst_executed_op_local_ld.sum                                               inst                              0
    smsp__inst_executed_op_shared_atom.sum                                            inst                              0
    smsp__inst_executed_op_shared_atom_dot_alu.sum                                    inst                              0
    smsp__inst_executed_op_shared_atom_dot_cas.sum                                    inst                              0
    smsp__inst_executed_op_shared_ld.avg.pct_of_peak_sustained_elapsed                   %                              0
    smsp__inst_executed_op_shared_ld.sum                                              inst                              0
    smsp__inst_executed_op_shared_ld.sum.per_second                            inst/second                              0
    smsp__inst_executed_op_shared_st.avg.pct_of_peak_sustained_elapsed                   %                              0
    smsp__inst_executed_op_shared_st.sum                                              inst                              0
    smsp__inst_executed_op_shared_st.sum.per_second                            inst/second                              0
    smsp__inst_executed_op_surface_atom.sum                                           inst                              0
    smsp__inst_executed_op_surface_ld.sum                                             inst                              0
    smsp__inst_executed_op_surface_red.sum                                            inst                              0
    smsp__inst_executed_op_surface_st.sum                                             inst                              0
    smsp__inst_executed_op_texture.sum                                                inst                  1,650,326,313
    smsp__inst_executed_pipe_adu.sum                                                  inst                    852,203,268
    smsp__inst_executed_pipe_cbu.sum                                                  inst                 11,384,546,355
    smsp__inst_executed_pipe_fp16.sum                                                 inst                              0
    smsp__inst_executed_pipe_fp64.avg.pct_of_peak_sustained_active                       %                          22.09
    smsp__inst_executed_pipe_lsu.avg.pct_of_peak_sustained_active                        %                           0.02
    smsp__inst_executed_pipe_tex.avg.pct_of_peak_sustained_active                        %                           0.18
    smsp__inst_issued.avg.per_cycle_active                                      inst/cycle                           0.08
    smsp__inst_issued.sum                                                             inst                138,273,768,332
    smsp__issue_active.avg.pct_of_peak_sustained_active                                  %                           7.51
    smsp__sass_thread_inst_executed_op_control_pred_on.sum                            inst                179,996,140,021
    smsp__sass_thread_inst_executed_op_dadd_pred_on.sum                               inst                 20,443,135,470
    smsp__sass_thread_inst_executed_op_dfma_pred_on.sum                               inst                132,423,167,205
    smsp__sass_thread_inst_executed_op_dmul_pred_on.sum                               inst                 61,630,463,205
    smsp__sass_thread_inst_executed_op_fadd_pred_on.sum                               inst                 28,798,642,510
    smsp__sass_thread_inst_executed_op_ffma_pred_on.sum                               inst                137,838,035,929
    smsp__sass_thread_inst_executed_op_fmul_pred_on.sum                               inst                 64,013,950,132
    smsp__sass_thread_inst_executed_op_fp16_pred_on.sum                               inst                              0
    smsp__sass_thread_inst_executed_op_fp32_pred_on.sum                               inst                340,996,815,415
    smsp__sass_thread_inst_executed_op_fp64_pred_on.sum                               inst                244,368,106,491
    smsp__sass_thread_inst_executed_op_hadd_pred_on.sum                               inst                              0
    smsp__sass_thread_inst_executed_op_hfma_pred_on.sum                               inst                              0
    smsp__sass_thread_inst_executed_op_hmul_pred_on.sum                               inst                              0
    smsp__sass_thread_inst_executed_op_integer_pred_on.sum                            inst                677,196,960,077
    smsp__sass_thread_inst_executed_op_inter_thread_communication_pred_on.            inst                              0
    sum                                                                                                                  
    smsp__sass_thread_inst_executed_op_memory_pred_on.sum                             inst                 67,078,704,114
    smsp__sass_thread_inst_executed_op_misc_pred_on.sum                               inst                135,185,224,530
    smsp__sass_thread_inst_executed_op_mufu_pred_on.sum                                                           (!) n/a
    smsp__thread_inst_executed_per_inst_executed.pct                                     %                          47.63
    smsp__thread_inst_executed_per_inst_executed.ratio                                                              15.24
    smsp__warp_issue_stalled_drain_miss_per_warp_active.pct                                                       (!) n/a
    smsp__warp_issue_stalled_imc_miss_per_warp_active.pct                                %                           0.00
    smsp__warp_issue_stalled_long_scoreboard_miss_per_warp_active.pct                                             (!) n/a
    smsp__warp_issue_stalled_misc_membar_per_warp_active.pct                                                      (!) n/a
    smsp__warp_issue_stalled_misc_mio_throttle_per_warp_active.pct                                                (!) n/a
    smsp__warp_issue_stalled_misc_miss_per_warp_active.pct                                                        (!) n/a
    smsp__warp_issue_stalled_misc_sleeping_per_warp_active.pct                                                    (!) n/a
    smsp__warp_issue_stalled_misc_tex_throttle_per_warp_active.pct                                                (!) n/a
    smsp__warp_issue_stalled_no_instruction_miss_per_warp_active.pct                                              (!) n/a
    smsp__warp_issue_stalled_short_scoreboard_miss_per_warp_active.pct                                            (!) n/a
    smsp__warps_eligible.sum.per_cycle_active                                         warp                          19.11
    sys__cycles_elapsed.avg.per_second                                       cycle/usecond                         855.15
    tpc__warps_active_shader_cs_realtime.avg.pct_of_peak_sustained_elapsed               %                          72.86
    tpc__warps_active_shader_ps_realtime.avg.pct_of_peak_sustained_elapsed                                        (!) n/a
    tpc__warps_active_shader_vtg_realtime.avg.pct_of_peak_sustained_elapse                                        (!) n/a
    d                                                                                                                    
    tpc__warps_inactive_sm_active_realtime.avg.pct_of_peak_sustained_elaps                                        (!) n/a
    ed                                                                                                                   
    tpc__warps_inactive_sm_idle_realtime.avg.pct_of_peak_sustained_elapsed                                        (!) n/a
    ---------------------------------------------------------------------- --------------- ------------------------------

  kernel(float *, unsigned long, unsigned long, unsigned long, unsigned long, float, float, int, float, float, unsigned int, float, float, float, float), 2023-Mar-01 15:45:10, Context 1, Stream 7
    Section: Command line profiler metrics
    ---------------------------------------------------------------------- --------------- ------------------------------
    dram__bytes_read.sum                                                             Mbyte                          89.21
    dram__bytes_read.sum.per_second                                           Mbyte/second                           4.23
    dram__bytes_write.sum                                                            Mbyte                          13.04
    dram__bytes_write.sum.per_second                                          Kbyte/second                         617.78
    dram__sectors_read.sum                                                          sector                      2,787,666
    dram__sectors_write.sum                                                         sector                        407,544
    dram__throughput.avg.pct_of_peak_sustained_elapsed                                   %                           0.00
    fe__draw_count.avg.pct_of_peak_sustained_elapsed                                                              (!) n/a
    gpc__cycles_elapsed.avg.per_second                                       cycle/usecond                         584.95
    gr__cycles_active.sum.pct_of_peak_sustained_elapsed                                  %                            100
    gr__dispatch_count.avg.pct_of_peak_sustained_elapsed                                                          (!) n/a
    gr__dispatch_cycles_active_queue_async.avg.pct_of_peak_sustained_elaps                                        (!) n/a
    ed                                                                                                                   
    gr__dispatch_cycles_active_queue_sync.avg.pct_of_peak_sustained_elapse                                        (!) n/a
    d                                                                                                                    
    l1tex__f_tex2sm_cycles_active.avg.pct_of_peak_sustained_elapsed                      %                           2.25
    l1tex__lsu_writeback_active.avg.pct_of_peak_sustained_active                         %                           0.00
    l1tex__lsu_writeback_active.sum                                                  cycle                        356,868
    l1tex__t_bytes_pipe_lsu_mem_global_op_ld.sum.per_second                    byte/second                              0
    l1tex__t_bytes_pipe_lsu_mem_global_op_st.sum                                     Mbyte                          13.81
    l1tex__t_bytes_pipe_lsu_mem_global_op_st.sum.per_second                   Kbyte/second                         654.38
    l1tex__t_bytes_pipe_lsu_mem_local_op_ld.sum.per_second                     byte/second                              0
    l1tex__t_requests_pipe_lsu_mem_global_op_atom.sum                              request                              0
    l1tex__t_requests_pipe_lsu_mem_global_op_ld.sum                                request                              0
    l1tex__t_requests_pipe_lsu_mem_global_op_red.sum                               request                              0
    l1tex__t_requests_pipe_lsu_mem_global_op_st.sum                                request                         88,734
    l1tex__t_requests_pipe_lsu_mem_local_op_ld.sum                                 request                              0
    l1tex__t_requests_pipe_lsu_mem_local_op_st.sum                                 request                    141,974,400
    l1tex__t_requests_pipe_tex_mem_surface_op_atom.sum                             request                              0
    l1tex__t_requests_pipe_tex_mem_surface_op_ld.sum                               request                              0
    l1tex__t_requests_pipe_tex_mem_surface_op_red.sum                              request                              0
    l1tex__t_requests_pipe_tex_mem_surface_op_st.sum                               request                              0
    l1tex__t_requests_pipe_tex_mem_texture.sum                                     request                 11,113,257,438
    l1tex__t_sector_hit_rate.pct                                                         %                          99.74
    l1tex__t_sectors_pipe_lsu_mem_global_op.sum                                                                   (!) n/a
    l1tex__t_sectors_pipe_lsu_mem_global_op_ld.sum                                  sector                              0
    l1tex__t_sectors_pipe_lsu_mem_global_op_lookup_hit.sum                                                        (!) n/a
    l1tex__t_sectors_pipe_lsu_mem_local_op_ld.sum                                   sector                              0
    l1tex__t_sectors_pipe_lsu_mem_local_op_st.sum                                   sector                    553,788,847
    l1tex__t_sectors_pipe_lsu_mem_local_op_st.sum.per_second                sector/usecond                          26.23
    l1tex__t_set_accesses_pipe_lsu_mem_global_op_atom.sum                                                               0
    l1tex__t_set_accesses_pipe_lsu_mem_global_op_red.sum                                                                0
    l1tex__t_set_accesses_pipe_tex_mem_surface_op_atom.sum                                                              0
    l1tex__t_set_accesses_pipe_tex_mem_surface_op_red.sum                                                               0
    l1tex__tex_writeback_active.avg.pct_of_peak_sustained_active                         %                           2.26
    l1tex__texin_sm2tex_req_cycles_active.avg.pct_of_peak_sustained_elapse               %                           2.25
    d                                                                                                                    
    lts__t_bytes_equiv_l1sectormiss_pipe_lsu_mem_global_op_ld.sum                     byte                              0
    lts__t_bytes_equiv_l1sectormiss_pipe_lsu_mem_global_op_st.sum                    Mbyte                          10.42
    lts__t_bytes_equiv_l1sectormiss_pipe_lsu_mem_surface_op_st.sum                                                (!) n/a
    lts__t_bytes_equiv_l1sectormiss_pipe_tex_mem_surface_op_ld.sum                    byte                              0
    lts__t_sector_hit_rate.pct                                                           %                          99.76
    lts__t_sector_op_read_hit_rate.pct                                                   %                          96.33
    lts__t_sector_op_write_hit_rate.pct                                                  %                          99.98
    lts__t_sectors.avg.pct_of_peak_sustained_elapsed                                     %                           0.11
    lts__t_sectors_aperture_sysmem_op_read.sum                                      sector                              0
    lts__t_sectors_aperture_sysmem_op_read.sum.per_second                    sector/second                              0
    lts__t_sectors_aperture_sysmem_op_write.sum                                     sector                          1,268
    lts__t_sectors_aperture_sysmem_op_write.sum.per_second                   sector/second                          60.07
    lts__t_sectors_op_read.sum                                                      sector                     56,101,703
    lts__t_sectors_op_read.sum.per_second                                   sector/usecond                           2.66
    lts__t_sectors_op_write.sum                                                     sector                    554,587,734
    lts__t_sectors_op_write.sum.per_second                                  sector/usecond                          26.27
    lts__t_sectors_srcunit_l1_op_atom.sum                                           sector                              0
    lts__t_sectors_srcunit_l1_op_atom.sum.per_second                         sector/second                              0
    lts__t_sectors_srcunit_tex_op_read.sum                                          sector                     54,094,033
    lts__t_sectors_srcunit_tex_op_read.sum.per_second                       sector/usecond                           2.56
    pcie__read_bytes.avg.pct_of_peak_sustained_elapsed                                   %                           0.00
    pcie__rx_requests_aperture_bar1_op_read.sum                                                                   (!) n/a
    pcie__rx_requests_aperture_bar1_op_write.sum                                                                  (!) n/a
    pcie__write_bytes.avg.pct_of_peak_sustained_elapsed                                  %                           0.00
    sm__cycles_active.avg.pct_of_peak_sustained_elapsed                                  %                          99.73
    sm__inst_executed_realtime.avg.pct_of_peak_sustained_elapsed                                                  (!) n/a
    sm__mio2rf_writeback_active.avg.pct_of_peak_sustained_elapsed                        %                           0.25
    sm__pipe_shared_cycles_active_realtime.avg.pct_of_peak_sustained_elaps                                        (!) n/a
    ed                                                                                                                   
    sm__pipe_tensor_cycles_active.avg.pct_of_peak_sustained_active                       %                              0
    sm__pipe_tensor_cycles_active_realtime.avg.pct_of_peak_sustained_elaps                                        (!) n/a
    ed                                                                                                                   
    sm__warps_active.avg.pct_of_peak_sustained_active                                    %                          73.11
    smsp__average_inst_executed_per_warp.ratio                                   inst/warp                   1,583,666.32
    smsp__cycles_active.avg.pct_of_peak_sustained_elapsed                                %                          96.61
    smsp__inst_executed.avg.per_cycle_active                                    inst/cycle                           0.07
    smsp__inst_executed.sum                                                           inst                142,054,868,494
    smsp__inst_executed_op_global_atom.sum                                                                        (!) n/a
    smsp__inst_executed_op_global_ld.sum                                              inst                              0
    smsp__inst_executed_op_global_st.sum                                              inst                         88,734
    smsp__inst_executed_op_local_ld.sum                                               inst                              0
    smsp__inst_executed_op_shared_atom.sum                                            inst                              0
    smsp__inst_executed_op_shared_atom_dot_alu.sum                                    inst                              0
    smsp__inst_executed_op_shared_atom_dot_cas.sum                                    inst                              0
    smsp__inst_executed_op_shared_ld.avg.pct_of_peak_sustained_elapsed                   %                              0
    smsp__inst_executed_op_shared_ld.sum                                              inst                              0
    smsp__inst_executed_op_shared_ld.sum.per_second                            inst/second                              0
    smsp__inst_executed_op_shared_st.avg.pct_of_peak_sustained_elapsed                   %                              0
    smsp__inst_executed_op_shared_st.sum                                              inst                              0
    smsp__inst_executed_op_shared_st.sum.per_second                            inst/second                              0
    smsp__inst_executed_op_surface_atom.sum                                           inst                              0
    smsp__inst_executed_op_surface_ld.sum                                             inst                              0
    smsp__inst_executed_op_surface_red.sum                                            inst                              0
    smsp__inst_executed_op_surface_st.sum                                             inst                              0
    smsp__inst_executed_op_texture.sum                                                inst                  1,647,963,330
    smsp__inst_executed_pipe_adu.sum                                                  inst                    852,203,268
    smsp__inst_executed_pipe_cbu.sum                                                  inst                 11,753,038,200
    smsp__inst_executed_pipe_fp16.sum                                                 inst                              0
    smsp__inst_executed_pipe_fp64.avg.pct_of_peak_sustained_active                       %                          22.10
    smsp__inst_executed_pipe_lsu.avg.pct_of_peak_sustained_active                        %                           0.01
    smsp__inst_executed_pipe_tex.avg.pct_of_peak_sustained_active                        %                           0.17
    smsp__inst_issued.avg.per_cycle_active                                      inst/cycle                           0.07
    smsp__inst_issued.sum                                                             inst                142,576,714,814
    smsp__issue_active.avg.pct_of_peak_sustained_active                                  %                           7.47
    smsp__sass_thread_inst_executed_op_control_pred_on.sum                            inst                176,310,251,839
    smsp__sass_thread_inst_executed_op_dadd_pred_on.sum                               inst                 21,192,858,080
    smsp__sass_thread_inst_executed_op_dfma_pred_on.sum                               inst                133,614,106,320
    smsp__sass_thread_inst_executed_op_dmul_pred_on.sum                               inst                 62,755,047,120
    smsp__sass_thread_inst_executed_op_fadd_pred_on.sum                               inst                 29,778,230,242
    smsp__sass_thread_inst_executed_op_ffma_pred_on.sum                               inst                140,830,023,781
    smsp__sass_thread_inst_executed_op_fmul_pred_on.sum                               inst                 64,147,526,498
    smsp__sass_thread_inst_executed_op_fp16_pred_on.sum                               inst                              0
    smsp__sass_thread_inst_executed_op_fp32_pred_on.sum                               inst                344,355,290,363
    smsp__sass_thread_inst_executed_op_fp64_pred_on.sum                               inst                246,462,281,604
    smsp__sass_thread_inst_executed_op_hadd_pred_on.sum                               inst                              0
    smsp__sass_thread_inst_executed_op_hfma_pred_on.sum                               inst                              0
    smsp__sass_thread_inst_executed_op_hmul_pred_on.sum                               inst                              0
    smsp__sass_thread_inst_executed_op_integer_pred_on.sum                            inst                658,985,828,702
    smsp__sass_thread_inst_executed_op_inter_thread_communication_pred_on.            inst                              0
    sum                                                                                                                  
    smsp__sass_thread_inst_executed_op_memory_pred_on.sum                             inst                 65,059,806,366
    smsp__sass_thread_inst_executed_op_misc_pred_on.sum                               inst                131,828,667,302
    smsp__sass_thread_inst_executed_op_mufu_pred_on.sum                                                           (!) n/a
    smsp__thread_inst_executed_per_inst_executed.pct                                     %                          45.62
    smsp__thread_inst_executed_per_inst_executed.ratio                                                              14.60
    smsp__warp_issue_stalled_drain_miss_per_warp_active.pct                                                       (!) n/a
    smsp__warp_issue_stalled_imc_miss_per_warp_active.pct                                %                           0.00
    smsp__warp_issue_stalled_long_scoreboard_miss_per_warp_active.pct                                             (!) n/a
    smsp__warp_issue_stalled_misc_membar_per_warp_active.pct                                                      (!) n/a
    smsp__warp_issue_stalled_misc_mio_throttle_per_warp_active.pct                                                (!) n/a
    smsp__warp_issue_stalled_misc_miss_per_warp_active.pct                                                        (!) n/a
    smsp__warp_issue_stalled_misc_sleeping_per_warp_active.pct                                                    (!) n/a
    smsp__warp_issue_stalled_misc_tex_throttle_per_warp_active.pct                                                (!) n/a
    smsp__warp_issue_stalled_no_instruction_miss_per_warp_active.pct                                              (!) n/a
    smsp__warp_issue_stalled_short_scoreboard_miss_per_warp_active.pct                                            (!) n/a
    smsp__warps_eligible.sum.per_cycle_active                                         warp                          19.09
    sys__cycles_elapsed.avg.per_second                                       cycle/usecond                         854.92
    tpc__warps_active_shader_cs_realtime.avg.pct_of_peak_sustained_elapsed               %                          72.91
    tpc__warps_active_shader_ps_realtime.avg.pct_of_peak_sustained_elapsed                                        (!) n/a
    tpc__warps_active_shader_vtg_realtime.avg.pct_of_peak_sustained_elapse                                        (!) n/a
    d                                                                                                                    
    tpc__warps_inactive_sm_active_realtime.avg.pct_of_peak_sustained_elaps                                        (!) n/a
    ed                                                                                                                   
    tpc__warps_inactive_sm_idle_realtime.avg.pct_of_peak_sustained_elapsed                                        (!) n/a
    ---------------------------------------------------------------------- --------------- ------------------------------

test@tesla-t4:~/tools/backup6/GPU-rendering-programs/4-Film-grain-rendering-gpu-sample1/bin$ 

