Replaying kernel "kernelClearImageSnowflake(void)" (done)
Replaying kernel "kernelAdvanceSnowflake(void)" (done)
Replaying kernel "myKernelRenderCircles(void)" (done)
Clear:    2716.460 msents
Advance:  2646.924 ms
Render:   6203.866 ms
Copying image data from device
11594.43 ms
Replaying kernel "kernelClearImageSnowflake(void)" (done)
Replaying kernel "kernelAdvanceSnowflake(void)" (done)
Replaying kernel "myKernelRenderCircles(void)" (done)
Clear:    2700.501 ms
Advance:  2588.203 ms
Render:   6177.423 ms
Copying image data from device
11494.07 ms
==2040== Profiling application: ./render -i snow
==2040== Profiling result:
==2040== Metric result:actions
Invocations                               Metric Name                                                    Metric Description         Min         Max         Avg
Device "Tesla P100-PCIE-16GB (0)"
    Kernel: kernelClearImageSnowflake(void)
        244                             inst_per_warp                                                 Instructions per warp   46.000000   46.000000   46.000000
        244                         branch_efficiency                                                     Branch Efficiency     100.00%     100.00%     100.00%
        244                 warp_execution_efficiency                                             Warp Execution Efficiency     100.00%     100.00%     100.00%
        244         warp_nonpred_execution_efficiency                              Warp Non-Predicated Execution Efficiency      95.65%      95.65%      95.65%
        244                      inst_replay_overhead                                           Instruction Replay Overhead    0.003502    0.008383    0.004922
        244      shared_load_transactions_per_request                           Shared Memory Load Transactions Per Request    0.000000    0.000000    0.000000
        244     shared_store_transactions_per_request                          Shared Memory Store Transactions Per Request    0.000000    0.000000    0.000000
        244       local_load_transactions_per_request                            Local Memory Load Transactions Per Request    0.000000    0.000000    0.000000
        244      local_store_transactions_per_request                           Local Memory Store Transactions Per Request    0.000000    0.000000    0.000000
        244              gld_transactions_per_request                                  Global Load Transactions Per Request    0.000000    0.000000    0.000000
        244              gst_transactions_per_request                                 Global Store Transactions Per Request   16.000000   16.000000   16.000000
        244                 shared_store_transactions                                             Shared Store Transactions           0           0           0
        244                  shared_load_transactions                                              Shared Load Transactions           0           0           0
        244                   local_load_transactions                                               Local Load Transactions           0           0           0
        244                  local_store_transactions                                              Local Store Transactions           0           0           0
        244                          gld_transactions                                              Global Load Transactions           2           2           2
        244                          gst_transactions                                             Global Store Transactions      524288      524288      524288
        244                  sysmem_read_transactions                                       System Memory Read Transactions           0           0           0
        244                 sysmem_write_transactions                                      System Memory Write Transactions           5           5           5
        244                      l2_read_transactions                                                  L2 Read Transactions          96         472         179
        244                     l2_write_transactions                                                 L2 Write Transactions      524303      524362      524307
        244                    dram_read_transactions                                       Device Memory Read Transactions          10         132          25
        244                   dram_write_transactions                                      Device Memory Write Transactions      509955      522557      514996
        244                           global_hit_rate                                     Global Hit Rate in unified l1/tex       0.00%       0.00%       0.00%
        244                            local_hit_rate                                                        Local Hit Rate       0.00%       0.00%       0.00%
        244                  gld_requested_throughput                                      Requested Global Load Throughput  0.00000B/s  0.00000B/s  0.00000B/s
        244                  gst_requested_throughput                                     Requested Global Store Throughput  503.76GB/s  512.11GB/s  509.93GB/s
        244                            gld_throughput                                                Global Load Throughput  0.00000B/s  0.00000B/s  0.00000B/s
        244                            gst_throughput                                               Global Store Throughput  503.76GB/s  512.11GB/s  509.93GB/s
        244                     local_memory_overhead                                                 Local Memory Overhead       0.00%       0.00%       0.00%
        244                        tex_cache_hit_rate                                                Unified Cache Hit Rate       0.00%       0.00%       0.00%
        244                      l2_tex_read_hit_rate                                           L2 Hit Rate (Texture Reads)       0.00%       0.00%       0.00%
        244                     l2_tex_write_hit_rate                                          L2 Hit Rate (Texture Writes)       0.00%       0.00%       0.00%
        244                      dram_read_throughput                                         Device Memory Read Throughput  9.8390MB/s  131.31MB/s  25.740MB/s
        244                     dram_write_throughput                                        Device Memory Write Throughput  492.83GB/s  503.98GB/s  500.89GB/s
        244                      tex_cache_throughput                                              Unified Cache Throughput  0.00000B/s  0.00000B/s  0.00000B/s
        244                    l2_tex_read_throughput                                         L2 Throughput (Texture Reads)  0.00000B/s  0.00000B/s  0.00000B/s
        244                   l2_tex_write_throughput                                        L2 Throughput (Texture Writes)  503.76GB/s  512.11GB/s  509.93GB/s
        244                        l2_read_throughput                                                 L2 Throughput (Reads)  94.454MB/s  470.11MB/s  178.72MB/s
        244                       l2_write_throughput                                                L2 Throughput (Writes)  503.77GB/s  512.13GB/s  509.95GB/s
        244                    sysmem_read_throughput                                         System Memory Read Throughput  0.00000B/s  0.00000B/s  0.00000B/s
        244                   sysmem_write_throughput                                        System Memory Write Throughput  4.9195MB/s  5.0011MB/s  4.9798MB/s
        244                     local_load_throughput                                          Local Memory Load Throughput  0.00000B/s  0.00000B/s  0.00000B/s
        244                    local_store_throughput                                         Local Memory Store Throughput  0.00000B/s  0.00000B/s  0.00000B/s
        244                    shared_load_throughput                                         Shared Memory Load Throughput  0.00000B/s  0.00000B/s  0.00000B/s
        244                   shared_store_throughput                                        Shared Memory Store Throughput  0.00000B/s  0.00000B/s  0.00000B/s
        244                            gld_efficiency                                         Global Memory Load Efficiency       0.00%       0.00%       0.00%
        244                            gst_efficiency                                        Global Memory Store Efficiency     100.00%     100.00%     100.00%
        244                    tex_cache_transactions                                            Unified Cache Transactions           0           0           0
        244                             flop_count_dp                           Floating Point Operations(Double Precision)           0           0           0
        244                         flop_count_dp_add                       Floating Point Operations(Double Precision Add)           0           0           0
        244                         flop_count_dp_fma                       Floating Point Operations(Double Precision FMA)           0           0           0
        244                         flop_count_dp_mul                       Floating Point Operations(Double Precision Mul)           0           0           0
        244                             flop_count_sp                           Floating Point Operations(Single Precision)    17825792    17825792    17825792
        244                         flop_count_sp_add                       Floating Point Operations(Single Precision Add)     2097152     2097152     2097152
        244                         flop_count_sp_fma                       Floating Point Operations(Single Precision FMA)     7340032     7340032     7340032
        244                         flop_count_sp_mul                        Floating Point Operation(Single Precision Mul)     1048576     1048576     1048576
        244                     flop_count_sp_special                   Floating Point Operations(Single Precision Special)     1048576     1048576     1048576
        244                             inst_executed                                                 Instructions Executed     1507328     1507328     1507328
        244                               inst_issued                                                   Instructions Issued     1512560     1519964     1514682
        244                          dram_utilization                                             Device Memory Utilization    High (8)    High (8)    High (8)
        244                        sysmem_utilization                                             System Memory Utilization     Low (1)     Low (1)     Low (1)
        244                          stall_inst_fetch                              Issue Stall Reasons (Instructions Fetch)       1.81%       3.07%       2.05%
        244                     stall_exec_dependency                            Issue Stall Reasons (Execution Dependency)       4.80%       5.74%       5.02%
        244                   stall_memory_dependency                                    Issue Stall Reasons (Data Request)       0.00%       0.00%       0.00%
        244                             stall_texture                                         Issue Stall Reasons (Texture)       0.73%       1.23%       0.99%
        244                                stall_sync                                 Issue Stall Reasons (Synchronization)       0.00%       0.00%       0.00%
        244                               stall_other                                           Issue Stall Reasons (Other)       4.55%       6.01%       4.99%
        244          stall_constant_memory_dependency                              Issue Stall Reasons (Immediate constant)       0.70%       2.92%       1.21%
        244                           stall_pipe_busy                                       Issue Stall Reasons (Pipe Busy)       0.07%       0.09%       0.07%
        244                         shared_efficiency                                              Shared Memory Efficiency       0.00%       0.00%       0.00%
        244                                inst_fp_32                                               FP Instructions(Single)    12582912    12582912    12582912
        244                                inst_fp_64                                               FP Instructions(Double)           0           0           0
        244                              inst_integer                                                  Integer Instructions    16777216    16777216    16777216
        244                          inst_bit_convert                                              Bit-Convert Instructions     2097152     2097152     2097152
        244                              inst_control                                             Control-Flow Instructions     3145728     3145728     3145728
        244                        inst_compute_ld_st                                               Load/Store Instructions     1048576     1048576     1048576
        244                                 inst_misc                                                     Misc Instructions    10485760    10485760    10485760
        244           inst_inter_thread_communication                                             Inter-Thread Instructions           0           0           0
        244                               issue_slots                                                           Issue Slots     1414256     1421646     1416376
        244                                 cf_issued                                      Issued Control-Flow Instructions      163840      163840      163840
        244                               cf_executed                                    Executed Control-Flow Instructions      163840      163840      163840
        244                               ldst_issued                                        Issued Load/Store Instructions      655360      655360      655360
        244                             ldst_executed                                      Executed Load/Store Instructions      163840      163840      163840
        244                       atomic_transactions                                                   Atomic Transactions           0           0           0
        244           atomic_transactions_per_request                                       Atomic Transactions Per Request    0.000000    0.000000    0.000000
        244                      l2_atomic_throughput                                       L2 Throughput (Atomic requests)  0.00000B/s  0.00000B/s  0.00000B/s
        244                    l2_atomic_transactions                                     L2 Transactions (Atomic requests)           0           0           0
        244                  l2_tex_read_transactions                                       L2 Transactions (Texture Reads)           0           0           0
        244                     stall_memory_throttle                                 Issue Stall Reasons (Memory Throttle)      82.75%      86.05%      84.90%
        244                        stall_not_selected                                    Issue Stall Reasons (Not Selected)       0.70%       0.90%       0.76%
        244                 l2_tex_write_transactions                                      L2 Transactions (Texture Writes)      524288      524288      524288
        244                             flop_count_hp                             Floating Point Operations(Half Precision)           0           0           0
        244                         flop_count_hp_add                         Floating Point Operations(Half Precision Add)           0           0           0
        244                         flop_count_hp_mul                          Floating Point Operation(Half Precision Mul)           0           0           0
        244                         flop_count_hp_fma                         Floating Point Operations(Half Precision FMA)           0           0           0
        244                                inst_fp_16                                                 HP Instructions(Half)           0           0           0
        244                                       ipc                                                          Executed IPC    0.699840    0.807832    0.724258
        244                                issued_ipc                                                            Issued IPC    0.703320    0.810645    0.727614
        244                    issue_slot_utilization                                                Issue Slot Utilization      32.89%      37.90%      34.02%
        244                             sm_efficiency                                               Multiprocessor Activity      78.17%      88.42%      84.53%
        244                        achieved_occupancy                                                    Achieved Occupancy    0.780713    0.805460    0.791141
        244                  eligible_warps_per_cycle                                       Eligible Warps Per Active Cycle    1.012147    1.210769    1.064164
        244                        shared_utilization                                             Shared Memory Utilization    Idle (0)    Idle (0)    Idle (0)
        244                            l2_utilization                                                  L2 Cache Utilization     Low (2)     Low (3)     Low (2)
        244                           tex_utilization                                             Unified Cache Utilization    Idle (0)    Idle (0)    Idle (0)
        244                       ldst_fu_utilization                                  Load/Store Function Unit Utilization     Low (1)     Low (1)     Low (1)
        244                         cf_fu_utilization                                Control-Flow Function Unit Utilization     Low (1)     Low (1)     Low (1)
        244                        tex_fu_utilization                                     Texture Function Unit Utilization     Low (3)     Low (3)     Low (3)
        244                    special_fu_utilization                                     Special Function Unit Utilization     Low (1)     Low (2)     Low (1)
        244             half_precision_fu_utilization                              Half-Precision Function Unit Utilization    Idle (0)    Idle (0)    Idle (0)
        244           single_precision_fu_utilization                            Single-Precision Function Unit Utilization     Low (2)     Low (2)     Low (2)
        244           double_precision_fu_utilization                            Double-Precision Function Unit Utilization    Idle (0)    Idle (0)    Idle (0)
        244                        flop_hp_efficiency                                            FLOP Efficiency(Peak Half)       0.00%       0.00%       0.00%
        244                        flop_sp_efficiency                                          FLOP Efficiency(Peak Single)       5.19%       6.35%       5.65%
        244                        flop_dp_efficiency                                          FLOP Efficiency(Peak Double)       0.00%       0.00%       0.00%
        244                   sysmem_read_utilization                                        System Memory Read Utilization    Idle (0)    Idle (0)    Idle (0)
        244                  sysmem_write_utilization                                       System Memory Write Utilization     Low (1)     Low (1)     Low (1)
        244               pcie_total_data_transmitted                                           PCIe Total Data Transmitted           0        2560         201
        244                  pcie_total_data_received                                              PCIe Total Data Received           0         512          69
        244                inst_executed_global_loads                              Warp level instructions for global loads           0           0           0
        244                 inst_executed_local_loads                               Warp level instructions for local loads           0           0           0
        244                inst_executed_shared_loads                              Warp level instructions for shared loads           0           0           0
        244               inst_executed_surface_loads                             Warp level instructions for surface loads           0           0           0
        244               inst_executed_global_stores                             Warp level instructions for global stores       32768       32768       32768
        244                inst_executed_local_stores                              Warp level instructions for local stores           0           0           0
        244               inst_executed_shared_stores                             Warp level instructions for shared stores           0           0           0
        244              inst_executed_surface_stores                            Warp level instructions for surface stores           0           0           0
        244              inst_executed_global_atomics                  Warp level instructions for global atom and atom cas           0           0           0
        244           inst_executed_global_reductions                         Warp level instructions for global reductions           0           0           0
        244             inst_executed_surface_atomics                 Warp level instructions for surface atom and atom cas           0           0           0
        244          inst_executed_surface_reductions                        Warp level instructions for surface reductions           0           0           0
        244              inst_executed_shared_atomics                  Warp level shared instructions for atom and atom CAS           0           0           0
        244                     inst_executed_tex_ops                                   Warp level instructions for texture           0           0           0
        244                      l2_global_load_bytes       Bytes read from L2 for misses in Unified Cache for global loads           0           0           0
        244                       l2_local_load_bytes        Bytes read from L2 for misses in Unified Cache for local loads           0           0           0
        244                     l2_surface_load_bytes      Bytes read from L2 for misses in Unified Cache for surface loads           0           0           0
        244                           dram_read_bytes                                Total bytes read from DRAM to L2 cache         320        4224         827
        244                          dram_write_bytes                             Total bytes written from L2 cache to DRAM    16318560    16721824    16479878
        244               l2_local_global_store_bytes   Bytes written to L2 from Unified Cache for local and global stores.    16777216    16777216    16777216
        244                 l2_global_reduction_bytes          Bytes written to L2 from Unified cache for global reductions           0           0           0
        244              l2_global_atomic_store_bytes             Bytes written to L2 from Unified cache for global atomics           0           0           0
        244                    l2_surface_store_bytes            Bytes written to L2 from Unified Cache for surface stores.           0           0           0
        244                l2_surface_reduction_bytes         Bytes written to L2 from Unified Cache for surface reductions           0           0           0
        244             l2_surface_atomic_store_bytes    Bytes transferred between Unified Cache and L2 for surface atomics           0           0           0
        244                      global_load_requests              Total number of global load requests from Multiprocessor           0           0           0
        244                       local_load_requests               Total number of local load requests from Multiprocessor           0           0           0
        244                     surface_load_requests             Total number of surface load requests from Multiprocessor           0           0           0
        244                     global_store_requests             Total number of global store requests from Multiprocessor      524288      524288      524288
        244                      local_store_requests              Total number of local store requests from Multiprocessor           0           0           0
        244                    surface_store_requests            Total number of surface store requests from Multiprocessor           0           0           0
        244                    global_atomic_requests            Total number of global atomic requests from Multiprocessor           0           0           0
        244                 global_reduction_requests         Total number of global reduction requests from Multiprocessor           0           0           0
        244                   surface_atomic_requests           Total number of surface atomic requests from Multiprocessor           0           0           0
        244                surface_reduction_requests        Total number of surface reduction requests from Multiprocessor           0           0           0
        244                         sysmem_read_bytes                                              System Memory Read Bytes           0           0           0
        244                        sysmem_write_bytes                                             System Memory Write Bytes         160         160         160
        244                           l2_tex_hit_rate                                                     L2 Cache Hit Rate       0.00%       0.00%       0.00%
        244                     texture_load_requests             Total number of texture Load requests from Multiprocessor           0           0           0
        244                     unique_warps_launched                                              Number of warps launched       32768       32768       32768
    Kernel: kernelAdvanceSnowflake(void)
        244                             inst_per_warp                                                 Instructions per warp   91.920396  108.078964  102.145439
        244                         branch_efficiency                                                     Branch Efficiency      89.90%     100.00%      93.45%
        244                 warp_execution_efficiency                                             Warp Execution Efficiency      85.66%     100.00%      90.55%
        244         warp_nonpred_execution_efficiency                              Warp Non-Predicated Execution Efficiency      84.71%      98.91%      89.56%
        244                      inst_replay_overhead                                           Instruction Replay Overhead    0.009931    0.021988    0.013296
        244      shared_load_transactions_per_request                           Shared Memory Load Transactions Per Request    0.000000    0.000000    0.000000
        244     shared_store_transactions_per_request                          Shared Memory Store Transactions Per Request    0.000000    0.000000    0.000000
        244       local_load_transactions_per_request                            Local Memory Load Transactions Per Request    0.000000    0.000000    0.000000
        244      local_store_transactions_per_request                           Local Memory Store Transactions Per Request    0.000000    0.000000    0.000000
        244              gld_transactions_per_request                                  Global Load Transactions Per Request   16.000091   16.000091   16.000091
        244              gst_transactions_per_request                                 Global Store Transactions Per Request   16.000000   16.000000   16.000000
        244                 shared_store_transactions                                             Shared Store Transactions           0           0           0
        244                  shared_load_transactions                                              Shared Load Transactions           0           0           0
        244                   local_load_transactions                                               Local Load Transactions           0           0           0
        244                  local_store_transactions                                              Local Store Transactions           0           0           0
        244                          gld_transactions                                              Global Load Transactions      350002      350002      350002
        244                          gst_transactions                                             Global Store Transactions      300000      300000      300000
        244                  sysmem_read_transactions                                       System Memory Read Transactions           0           0           0
        244                 sysmem_write_transactions                                      System Memory Write Transactions           5           5           5
        244                      l2_read_transactions                                                  L2 Read Transactions       88172       88764       88320
        244                     l2_write_transactions                                                 L2 Write Transactions      300013      300025      300013
        244                    dram_read_transactions                                       Device Memory Read Transactions        3732       35081       20893
        244                   dram_write_transactions                                      Device Memory Write Transactions       44147       64737       46530
        244                           global_hit_rate                                     Global Hit Rate in unified l1/tex      62.96%      63.16%      63.16%
        244                            local_hit_rate                                                        Local Hit Rate       0.00%       0.00%       0.00%
        244                  gld_requested_throughput                                      Requested Global Load Throughput  65.017GB/s  75.874GB/s  73.150GB/s
        244                  gst_requested_throughput                                     Requested Global Store Throughput  55.729GB/s  65.035GB/s  62.700GB/s
        244                            gld_throughput                                                Global Load Throughput  176.47GB/s  205.94GB/s  198.55GB/s
        244                            gst_throughput                                               Global Store Throughput  222.92GB/s  260.14GB/s  250.80GB/s
        244                     local_memory_overhead                                                 Local Memory Overhead       0.00%       0.00%       0.00%
        244                        tex_cache_hit_rate                                                Unified Cache Hit Rate      37.91%      38.00%      38.00%
        244                      l2_tex_read_hit_rate                                           L2 Hit Rate (Texture Reads)      41.71%      95.36%      75.84%
        244                     l2_tex_write_hit_rate                                          L2 Hit Rate (Texture Writes)      99.26%     100.00%      99.99%
        244                      dram_read_throughput                                         Device Memory Read Throughput  2.9540GB/s  29.905GB/s  17.467GB/s
        244                     dram_write_throughput                                        Device Memory Write Throughput  34.499GB/s  55.166GB/s  38.900GB/s
        244                      tex_cache_throughput                                              Unified Cache Throughput  65.017GB/s  75.874GB/s  73.150GB/s
        244                    l2_tex_read_throughput                                         L2 Throughput (Texture Reads)  65.017GB/s  75.874GB/s  73.152GB/s
        244                   l2_tex_write_throughput                                        L2 Throughput (Texture Writes)  222.92GB/s  260.14GB/s  250.80GB/s
        244                        l2_read_throughput                                                 L2 Throughput (Reads)  65.837GB/s  76.831GB/s  73.836GB/s
        244                       l2_write_throughput                                                L2 Throughput (Writes)  222.93GB/s  260.15GB/s  250.81GB/s
        244                    sysmem_read_throughput                                         System Memory Read Throughput  0.00000B/s  0.00000B/s  0.00000B/s
        244                   sysmem_write_throughput                                        System Memory Write Throughput  3.8044MB/s  4.4397MB/s  4.2803MB/s
        244                     local_load_throughput                                          Local Memory Load Throughput  0.00000B/s  0.00000B/s  0.00000B/s
        244                    local_store_throughput                                         Local Memory Store Throughput  0.00000B/s  0.00000B/s  0.00000B/s
        244                    shared_load_throughput                                         Shared Memory Load Throughput  0.00000B/s  0.00000B/s  0.00000B/s
        244                   shared_store_throughput                                        Shared Memory Store Throughput  0.00000B/s  0.00000B/s  0.00000B/s
        244                            gld_efficiency                                         Global Memory Load Efficiency      36.84%      36.84%      36.84%
        244                            gst_efficiency                                        Global Memory Store Efficiency      25.00%      25.00%      25.00%
        244                    tex_cache_transactions                                            Unified Cache Transactions       87500       87500       87500
        244                             flop_count_dp                           Floating Point Operations(Double Precision)           0           0           0
        244                         flop_count_dp_add                       Floating Point Operations(Double Precision Add)           0           0           0
        244                         flop_count_dp_fma                       Floating Point Operations(Double Precision FMA)           0           0           0
        244                         flop_count_dp_mul                       Floating Point Operations(Double Precision Mul)           0           0           0
        244                             flop_count_sp                           Floating Point Operations(Single Precision)     2200000     2211250     2206558
        244                         flop_count_sp_add                       Floating Point Operations(Single Precision Add)      200000      203750      202186
        244                         flop_count_sp_fma                       Floating Point Operations(Single Precision FMA)      700000      701875      701093
        244                         flop_count_sp_mul                        Floating Point Operation(Single Precision Mul)      600000      603750      602186
        244                     flop_count_sp_special                   Floating Point Operations(Single Precision Special)           0           0           0
        244                             inst_executed                                                 Instructions Executed      287527      338071      319510
        244                               inst_issued                                                   Instructions Issued      290857      343705      323700
        244                          dram_utilization                                             Device Memory Utilization     Low (1)     Low (2)     Low (1)
        244                        sysmem_utilization                                             System Memory Utilization     Low (1)     Low (1)     Low (1)
        244                          stall_inst_fetch                              Issue Stall Reasons (Instructions Fetch)       0.24%       1.27%       0.40%
        244                     stall_exec_dependency                            Issue Stall Reasons (Execution Dependency)      70.15%      75.84%      73.38%
        244                   stall_memory_dependency                                    Issue Stall Reasons (Data Request)       2.57%       5.30%       2.99%
        244                             stall_texture                                         Issue Stall Reasons (Texture)       1.04%       2.83%       1.64%
        244                                stall_sync                                 Issue Stall Reasons (Synchronization)       0.00%       0.00%       0.00%
        244                               stall_other                                           Issue Stall Reasons (Other)      10.33%      13.60%      11.35%
        244          stall_constant_memory_dependency                              Issue Stall Reasons (Immediate constant)       0.70%       2.33%       1.01%
        244                           stall_pipe_busy                                       Issue Stall Reasons (Pipe Busy)       4.15%       6.42%       5.62%
        244                         shared_efficiency                                              Shared Memory Efficiency       0.00%       0.00%       0.00%
        244                                inst_fp_32                                               FP Instructions(Single)     2000000     2009375     2005465
        244                                inst_fp_64                                               FP Instructions(Double)           0           0           0
        244                              inst_integer                                                  Integer Instructions     3300384     3334134     3320059
        244                          inst_bit_convert                                              Bit-Convert Instructions      300000      303750      302186
        244                              inst_control                                             Control-Flow Instructions      398221      400096      399002
        244                        inst_compute_ld_st                                               Load/Store Instructions     2100000     2115000     2108744
        244                                 inst_misc                                                     Misc Instructions     1000384     1004134     1002570
        244           inst_inter_thread_communication                                             Inter-Thread Instructions           0           0           0
        244                               issue_slots                                                           Issue Slots      259607      305435      288006
        244                                 cf_issued                                      Issued Control-Flow Instructions       40628       53264       48623
        244                               cf_executed                                    Executed Control-Flow Instructions       40628       53264       48623
        244                               ldst_issued                                        Issued Load/Store Instructions      193756      204988      200863
        244                             ldst_executed                                      Executed Load/Store Instructions       71881       83113       78988
        244                       atomic_transactions                                                   Atomic Transactions           0           0           0
        244           atomic_transactions_per_request                                       Atomic Transactions Per Request    0.000000    0.000000    0.000000
        244                      l2_atomic_throughput                                       L2 Throughput (Atomic requests)  0.00000B/s  0.00000B/s  0.00000B/s
        244                    l2_atomic_transactions                                     L2 Transactions (Atomic requests)           0           0           0
        244                  l2_tex_read_transactions                                       L2 Transactions (Texture Reads)       87500       88076       87502
        244                     stall_memory_throttle                                 Issue Stall Reasons (Memory Throttle)       1.81%       5.14%       3.45%
        244                        stall_not_selected                                    Issue Stall Reasons (Not Selected)       0.16%       0.20%       0.17%
        244                 l2_tex_write_transactions                                      L2 Transactions (Texture Writes)      300000      300000      300000
        244                             flop_count_hp                             Floating Point Operations(Half Precision)           0           0           0
        244                         flop_count_hp_add                         Floating Point Operations(Half Precision Add)           0           0           0
        244                         flop_count_hp_mul                          Floating Point Operation(Half Precision Mul)           0           0           0
        244                         flop_count_hp_fma                         Floating Point Operations(Half Precision FMA)           0           0           0
        244                                inst_fp_16                                                 HP Instructions(Half)           0           0           0
        244                                       ipc                                                          Executed IPC    0.120599    0.150037    0.138428
        244                                issued_ipc                                                            Issued IPC    0.121027    0.151499    0.140196
        244                    issue_slot_utilization                                                Issue Slot Utilization       5.40%       6.73%       6.24%
        244                             sm_efficiency                                               Multiprocessor Activity      76.45%      87.47%      82.51%
        244                        achieved_occupancy                                                    Achieved Occupancy    0.654994    0.693529    0.676850
        244                  eligible_warps_per_cycle                                       Eligible Warps Per Active Cycle    0.168424    0.215074    0.199231
        244                        shared_utilization                                             Shared Memory Utilization    Idle (0)    Idle (0)    Idle (0)
        244                            l2_utilization                                                  L2 Cache Utilization     Low (2)     Low (2)     Low (2)
        244                           tex_utilization                                             Unified Cache Utilization     Low (1)     Low (1)     Low (1)
        244                       ldst_fu_utilization                                  Load/Store Function Unit Utilization     Low (1)     Low (1)     Low (1)
        244                         cf_fu_utilization                                Control-Flow Function Unit Utilization     Low (1)     Low (1)     Low (1)
        244                        tex_fu_utilization                                     Texture Function Unit Utilization     Low (1)     Low (1)     Low (1)
        244                    special_fu_utilization                                     Special Function Unit Utilization     Low (1)     Low (1)     Low (1)
        244             half_precision_fu_utilization                              Half-Precision Function Unit Utilization    Idle (0)    Idle (0)    Idle (0)
        244           single_precision_fu_utilization                            Single-Precision Function Unit Utilization     Low (1)     Low (1)     Low (1)
        244           double_precision_fu_utilization                            Double-Precision Function Unit Utilization    Idle (0)    Idle (0)    Idle (0)
        244                        flop_hp_efficiency                                            FLOP Efficiency(Peak Half)       0.00%       0.00%       0.00%
        244                        flop_sp_efficiency                                          FLOP Efficiency(Peak Single)       0.56%       0.66%       0.62%
        244                        flop_dp_efficiency                                          FLOP Efficiency(Peak Double)       0.00%       0.00%       0.00%
        244                   sysmem_read_utilization                                        System Memory Read Utilization    Idle (0)    Idle (0)    Idle (0)
        244                  sysmem_write_utilization                                       System Memory Write Utilization     Low (1)     Low (1)     Low (1)
        244               pcie_total_data_transmitted                                           PCIe Total Data Transmitted           0        1024         216
        244                  pcie_total_data_received                                              PCIe Total Data Received           0        3072          73
        244                inst_executed_global_loads                              Warp level instructions for global loads       21875       21875       21875
        244                 inst_executed_local_loads                               Warp level instructions for local loads           0           0           0
        244                inst_executed_shared_loads                              Warp level instructions for shared loads           0           0           0
        244               inst_executed_surface_loads                             Warp level instructions for surface loads           0           0           0
        244               inst_executed_global_stores                             Warp level instructions for global stores       18750       18750       18750
        244                inst_executed_local_stores                              Warp level instructions for local stores           0           0           0
        244               inst_executed_shared_stores                             Warp level instructions for shared stores           0           0           0
        244              inst_executed_surface_stores                            Warp level instructions for surface stores           0           0           0
        244              inst_executed_global_atomics                  Warp level instructions for global atom and atom cas           0           0           0
        244           inst_executed_global_reductions                         Warp level instructions for global reductions           0           0           0
        244             inst_executed_surface_atomics                 Warp level instructions for surface atom and atom cas           0           0           0
        244          inst_executed_surface_reductions                        Warp level instructions for surface reductions           0           0           0
        244              inst_executed_shared_atomics                  Warp level shared instructions for atom and atom CAS           0           0           0
        244                     inst_executed_tex_ops                                   Warp level instructions for texture           0           0           0
        244                      l2_global_load_bytes       Bytes read from L2 for misses in Unified Cache for global loads     2800000     2800896     2800012
        244                       l2_local_load_bytes        Bytes read from L2 for misses in Unified Cache for local loads           0           0           0
        244                     l2_surface_load_bytes      Bytes read from L2 for misses in Unified Cache for surface loads           0           0           0
        244                           dram_read_bytes                                Total bytes read from DRAM to L2 cache      119424     1122592      668601
        244                          dram_write_bytes                             Total bytes written from L2 cache to DRAM     1412704     2071584     1488977
        244               l2_local_global_store_bytes   Bytes written to L2 from Unified Cache for local and global stores.     9600000     9600000     9600000
        244                 l2_global_reduction_bytes          Bytes written to L2 from Unified cache for global reductions           0           0           0
        244              l2_global_atomic_store_bytes             Bytes written to L2 from Unified cache for global atomics           0           0           0
        244                    l2_surface_store_bytes            Bytes written to L2 from Unified Cache for surface stores.           0           0           0
        244                l2_surface_reduction_bytes         Bytes written to L2 from Unified Cache for surface reductions           0           0           0
        244             l2_surface_atomic_store_bytes    Bytes transferred between Unified Cache and L2 for surface atomics           0           0           0
        244                      global_load_requests              Total number of global load requests from Multiprocessor       87500       87500       87500
        244                       local_load_requests               Total number of local load requests from Multiprocessor           0           0           0
        244                     surface_load_requests             Total number of surface load requests from Multiprocessor           0           0           0
        244                     global_store_requests             Total number of global store requests from Multiprocessor       75000       75000       75000
        244                      local_store_requests              Total number of local store requests from Multiprocessor           0           0           0
        244                    surface_store_requests            Total number of surface store requests from Multiprocessor           0           0           0
        244                    global_atomic_requests            Total number of global atomic requests from Multiprocessor           0           0           0
        244                 global_reduction_requests         Total number of global reduction requests from Multiprocessor           0           0           0
        244                   surface_atomic_requests           Total number of surface atomic requests from Multiprocessor           0           0           0
        244                surface_reduction_requests        Total number of surface reduction requests from Multiprocessor           0           0           0
        244                         sysmem_read_bytes                                              System Memory Read Bytes           0           0           0
        244                        sysmem_write_bytes                                             System Memory Write Bytes         160         160         160
        244                           l2_tex_hit_rate                                                     L2 Cache Hit Rate      86.84%      98.95%      94.53%
        244                     texture_load_requests             Total number of texture Load requests from Multiprocessor           0           0           0
        244                     unique_warps_launched                                              Number of warps launched        3128        3128        3128
    Kernel: myKernelRenderCircles(void)
        244                             inst_per_warp                                                 Instructions per warp  1.7874e+04  2.1412e+04  2.0081e+04
        244                         branch_efficiency                                                     Branch Efficiency      99.45%      99.57%      99.53%
        244                 warp_execution_efficiency                                             Warp Execution Efficiency      95.40%      99.85%      97.00%
        244         warp_nonpred_execution_efficiency                              Warp Non-Predicated Execution Efficiency      91.83%      96.54%      93.53%
        244                      inst_replay_overhead                                           Instruction Replay Overhead    0.000044    0.000055    0.000048
        244      shared_load_transactions_per_request                           Shared Memory Load Transactions Per Request    0.999049    0.999384    0.999255
        244     shared_store_transactions_per_request                          Shared Memory Store Transactions Per Request    0.996960    0.997485    0.997282
        244       local_load_transactions_per_request                            Local Memory Load Transactions Per Request    0.000000    0.000000    0.000000
        244      local_store_transactions_per_request                           Local Memory Store Transactions Per Request    0.000000    0.000000    0.000000
        244              gld_transactions_per_request                                  Global Load Transactions Per Request   15.763861   16.163283   15.896554
        244              gst_transactions_per_request                                 Global Store Transactions Per Request   16.000000   16.000000   16.000000
        244                 shared_store_transactions                                             Shared Store Transactions    65830912    65924628    65888976
        244                  shared_load_transactions                                              Shared Load Transactions   105369600   106974808   106365085
        244                   local_load_transactions                                               Local Load Transactions           0           0           0
        244                  local_store_transactions                                              Local Store Transactions           0           0           0
        244                          gld_transactions                                              Global Load Transactions   155697154   236192354   205732621
        244                          gst_transactions                                             Global Store Transactions      524288      524288      524288
        244                  sysmem_read_transactions                                       System Memory Read Transactions           0           0           0
        244                 sysmem_write_transactions                                      System Memory Write Transactions           5           5           5
        244                      l2_read_transactions                                                  L2 Read Transactions    51724408    51729618    51725165
        244                     l2_write_transactions                                                 L2 Write Transactions      524303      524622      524310
        244                    dram_read_transactions                                       Device Memory Read Transactions      556589      646903      589881
        244                   dram_write_transactions                                      Device Memory Write Transactions      491011      526276      524167
        244                           global_hit_rate                                     Global Hit Rate in unified l1/tex      42.61%      45.85%      44.64%
        244                            local_hit_rate                                                        Local Hit Rate       0.00%       0.00%       0.00%
        244                  gld_requested_throughput                                      Requested Global Load Throughput  113.57GB/s  123.74GB/s  117.66GB/s
        244                  gst_requested_throughput                                     Requested Global Store Throughput  1.5039GB/s  1.6667GB/s  1.5680GB/s
        244                            gld_throughput                                                Global Load Throughput  273.83GB/s  286.50GB/s  279.56GB/s
        244                            gst_throughput                                               Global Store Throughput  1.5039GB/s  1.6667GB/s  1.5680GB/s
        244                     local_memory_overhead                                                 Local Memory Overhead       0.00%       0.00%       0.00%
        244                        tex_cache_hit_rate                                                Unified Cache Hit Rate      59.51%      64.98%      63.01%
        244                      l2_tex_read_hit_rate                                           L2 Hit Rate (Texture Reads)      98.75%      98.95%      98.86%
        244                     l2_tex_write_hit_rate                                          L2 Hit Rate (Texture Writes)      98.44%     100.00%      99.64%
        244                      dram_read_throughput                                         Device Memory Read Throughput  1.6181GB/s  2.0517GB/s  1.7642GB/s
        244                     dram_write_throughput                                        Device Memory Write Throughput  1.5025GB/s  1.6652GB/s  1.5676GB/s
        244                      tex_cache_throughput                                              Unified Cache Throughput  122.92GB/s  171.13GB/s  153.82GB/s
        244                    l2_tex_read_throughput                                         L2 Throughput (Texture Reads)  148.37GB/s  164.43GB/s  154.69GB/s
        244                   l2_tex_write_throughput                                        L2 Throughput (Texture Writes)  1.5039GB/s  1.6667GB/s  1.5680GB/s
        244                        l2_read_throughput                                                 L2 Throughput (Reads)  148.37GB/s  164.44GB/s  154.70GB/s
        244                       l2_write_throughput                                                L2 Throughput (Writes)  1.5039GB/s  1.6668GB/s  1.5681GB/s
        244                    sysmem_read_throughput                                         System Memory Read Throughput  0.00000B/s  0.00000B/s  0.00000B/s
        244                   sysmem_write_throughput                                        System Memory Write Throughput  15.038KB/s  16.667KB/s  15.679KB/s
        244                     local_load_throughput                                          Local Memory Load Throughput  0.00000B/s  0.00000B/s  0.00000B/s
        244                    local_store_throughput                                         Local Memory Store Throughput  0.00000B/s  0.00000B/s  0.00000B/s
        244                    shared_load_throughput                                         Shared Memory Load Throughput  1227.3GB/s  1339.9GB/s  1272.4GB/s
        244                   shared_store_throughput                                        Shared Memory Store Throughput  756.39GB/s  837.10GB/s  788.22GB/s
        244                            gld_efficiency                                         Global Memory Load Efficiency      41.46%      43.19%      42.10%
        244                            gst_efficiency                                        Global Memory Store Efficiency     100.00%     100.00%     100.00%
        244                    tex_cache_transactions                                            Unified Cache Transactions    38924288    59048088    51433154
        244                             flop_count_dp                           Floating Point Operations(Double Precision)           0           0           0
        244                         flop_count_dp_add                       Floating Point Operations(Double Precision Add)           0           0           0
        244                         flop_count_dp_fma                       Floating Point Operations(Double Precision FMA)           0           0           0
        244                         flop_count_dp_mul                       Floating Point Operations(Double Precision Mul)           0           0           0
        244                             flop_count_sp                           Floating Point Operations(Single Precision)   391613856  1259649878   941100814
        244                         flop_count_sp_add                       Floating Point Operations(Single Precision Add)   323325344   497352344   432809547
        244                         flop_count_sp_fma                       Floating Point Operations(Single Precision FMA)    33095680   254622485   173748715
        244                         flop_count_sp_mul                        Floating Point Operation(Single Precision Mul)     2097152   253157782   160793836
        244                     flop_count_sp_special                   Floating Point Operations(Single Precision Special)     6225920    44624516    30747797
        244                             inst_executed                                                 Instructions Executed   585687040   701634665   658023059
        244                               inst_issued                                                   Instructions Issued   585717969   701667022   658054832
        244                          dram_utilization                                             Device Memory Utilization     Low (1)     Low (1)     Low (1)
        244                        sysmem_utilization                                             System Memory Utilization     Low (1)     Low (1)     Low (1)
        244                          stall_inst_fetch                              Issue Stall Reasons (Instructions Fetch)       6.15%       6.42%       6.32%
        244                     stall_exec_dependency                            Issue Stall Reasons (Execution Dependency)      18.57%      18.90%      18.63%
        244                   stall_memory_dependency                                    Issue Stall Reasons (Data Request)       7.02%       8.09%       7.35%
        244                             stall_texture                                         Issue Stall Reasons (Texture)       0.00%       0.00%       0.00%
        244                                stall_sync                                 Issue Stall Reasons (Synchronization)      37.96%      38.89%      38.17%
        244                               stall_other                                           Issue Stall Reasons (Other)      26.83%      27.87%      27.52%
        244          stall_constant_memory_dependency                              Issue Stall Reasons (Immediate constant)       0.00%       0.01%       0.01%
        244                           stall_pipe_busy                                       Issue Stall Reasons (Pipe Busy)       0.14%       0.23%       0.19%
        244                         shared_efficiency                                              Shared Memory Efficiency      88.13%      88.98%      88.45%
        244                                inst_fp_32                                               FP Instructions(Single)   778866080  1570282413  1279419689
        244                                inst_fp_64                                               FP Instructions(Double)           0           0           0
        244                              inst_integer                                                  Integer Instructions  4698009600  5705891332  5323906934
        244                          inst_bit_convert                                              Bit-Convert Instructions    10485760    39284707    28877168
        244                              inst_control                                             Control-Flow Instructions  1554518016  1713092988  1654053936
        244                        inst_compute_ld_st                                               Load/Store Instructions  6922072064  7184695983  7086294032
        244                                 inst_misc                                                     Misc Instructions  4130144256  4405945175  4300925645
        244           inst_inter_thread_communication                                             Inter-Thread Instructions           0           0           0
        244                               issue_slots                                                           Issue Slots   562796691   665406217   626812737
        244                                 cf_issued                                      Issued Control-Flow Instructions    58995712    75690002    69407192
        244                               cf_executed                                    Executed Control-Flow Instructions    58995712    75690002    69407192
        244                               ldst_issued                                        Issued Load/Store Instructions   294311936   320069014   310351100
        244                             ldst_executed                                      Executed Load/Store Instructions   306668544   317652208   313523301
        244                       atomic_transactions                                                   Atomic Transactions           0           0           0
        244           atomic_transactions_per_request                                       Atomic Transactions Per Request    0.000000    0.000000    0.000000
        244                      l2_atomic_throughput                                       L2 Throughput (Atomic requests)  0.00000B/s  0.00000B/s  0.00000B/s
        244                    l2_atomic_transactions                                     L2 Transactions (Atomic requests)           0           0           0
        244                  l2_tex_read_transactions                                       L2 Transactions (Texture Reads)    51724288    51724337    51724305
        244                     stall_memory_throttle                                 Issue Stall Reasons (Memory Throttle)       0.02%       0.03%       0.02%
        244                        stall_not_selected                                    Issue Stall Reasons (Not Selected)       1.57%       1.90%       1.78%
        244                 l2_tex_write_transactions                                      L2 Transactions (Texture Writes)      524288      524288      524288
        244                             flop_count_hp                             Floating Point Operations(Half Precision)           0           0           0
        244                         flop_count_hp_add                         Floating Point Operations(Half Precision Add)           0           0           0
        244                         flop_count_hp_mul                          Floating Point Operation(Half Precision Mul)           0           0           0
        244                         flop_count_hp_fma                         Floating Point Operations(Half Precision FMA)           0           0           0
        244                                inst_fp_16                                                 HP Instructions(Half)           0           0           0
        244                                       ipc                                                          Executed IPC    0.871373    0.954253    0.924693
        244                                issued_ipc                                                            Issued IPC    0.871421    0.954296    0.924741
        244                    issue_slot_utilization                                                Issue Slot Utilization      41.86%      45.25%      44.05%
        244                             sm_efficiency                                               Multiprocessor Activity      95.61%      96.30%      96.00%
        244                        achieved_occupancy                                                    Achieved Occupancy    0.499739    0.499803    0.499785
        244                  eligible_warps_per_cycle                                       Eligible Warps Per Active Cycle    1.326239    1.495944    1.435020
        244                        shared_utilization                                             Shared Memory Utilization     Low (3)     Low (3)     Low (3)
        244                            l2_utilization                                                  L2 Cache Utilization     Low (1)     Low (1)     Low (1)
        244                           tex_utilization                                             Unified Cache Utilization     Low (1)     Low (1)     Low (1)
        244                       ldst_fu_utilization                                  Load/Store Function Unit Utilization     Mid (4)     Mid (4)     Mid (4)
        244                         cf_fu_utilization                                Control-Flow Function Unit Utilization     Low (1)     Low (1)     Low (1)
        244                        tex_fu_utilization                                     Texture Function Unit Utilization     Low (1)     Low (1)     Low (1)
        244                    special_fu_utilization                                     Special Function Unit Utilization     Low (1)     Low (1)     Low (1)
        244             half_precision_fu_utilization                              Half-Precision Function Unit Utilization    Idle (0)    Idle (0)    Idle (0)
        244           single_precision_fu_utilization                            Single-Precision Function Unit Utilization     Low (1)     Low (1)     Low (1)
        244           double_precision_fu_utilization                            Double-Precision Function Unit Utilization    Idle (0)    Idle (0)    Idle (0)
        244                        flop_hp_efficiency                                            FLOP Efficiency(Peak Half)       0.00%       0.00%       0.00%
        244                        flop_sp_efficiency                                          FLOP Efficiency(Peak Single)       0.44%       1.29%       0.98%
        244                        flop_dp_efficiency                                          FLOP Efficiency(Peak Double)       0.00%       0.00%       0.00%
        244                   sysmem_read_utilization                                        System Memory Read Utilization    Idle (0)    Idle (0)    Idle (0)
        244                  sysmem_write_utilization                                       System Memory Write Utilization     Low (1)     Low (1)     Low (1)
        244               pcie_total_data_transmitted                                           PCIe Total Data Transmitted           0      218112        4788
        244                  pcie_total_data_received                                              PCIe Total Data Received           0      250880        1982
        244                inst_executed_global_loads                              Warp level instructions for global loads     9632768    14983154    12957227
        244                 inst_executed_local_loads                               Warp level instructions for local loads           0           0           0
        244                inst_executed_shared_loads                              Warp level instructions for shared loads   105469952   107040766   106444364
        244               inst_executed_surface_loads                             Warp level instructions for surface loads           0           0           0
        244               inst_executed_global_stores                             Warp level instructions for global stores       32768       32768       32768
        244                inst_executed_local_stores                              Warp level instructions for local stores           0           0           0
        244               inst_executed_shared_stores                             Warp level instructions for shared stores    66031616    66090898    66068578
        244              inst_executed_surface_stores                            Warp level instructions for surface stores           0           0           0
        244              inst_executed_global_atomics                  Warp level instructions for global atom and atom cas           0           0           0
        244           inst_executed_global_reductions                         Warp level instructions for global reductions           0           0           0
        244             inst_executed_surface_atomics                 Warp level instructions for surface atom and atom cas           0           0           0
        244          inst_executed_surface_reductions                        Warp level instructions for surface reductions           0           0           0
        244              inst_executed_shared_atomics                  Warp level shared instructions for atom and atom CAS           0           0           0
        244                     inst_executed_tex_ops                                   Warp level instructions for texture           0           0           0
        244                      l2_global_load_bytes       Bytes read from L2 for misses in Unified Cache for global loads  1655177216  1655178784  1655177748
        244                       l2_local_load_bytes        Bytes read from L2 for misses in Unified Cache for local loads           0           0           0
        244                     l2_surface_load_bytes      Bytes read from L2 for misses in Unified Cache for surface loads           0           0           0
        244                           dram_read_bytes                                Total bytes read from DRAM to L2 cache    17810848    20700896    18876217
        244                          dram_write_bytes                             Total bytes written from L2 cache to DRAM    15712352    16840832    16773370
        244               l2_local_global_store_bytes   Bytes written to L2 from Unified Cache for local and global stores.    16777216    16777216    16777216
        244                 l2_global_reduction_bytes          Bytes written to L2 from Unified cache for global reductions           0           0           0
        244              l2_global_atomic_store_bytes             Bytes written to L2 from Unified cache for global atomics           0           0           0
        244                    l2_surface_store_bytes            Bytes written to L2 from Unified Cache for surface stores.           0           0           0
        244                l2_surface_reduction_bytes         Bytes written to L2 from Unified Cache for surface reductions           0           0           0
        244             l2_surface_atomic_store_bytes    Bytes transferred between Unified Cache and L2 for surface atomics           0           0           0
        244                      global_load_requests              Total number of global load requests from Multiprocessor    38531072    58654872    51039938
        244                       local_load_requests               Total number of local load requests from Multiprocessor           0           0           0
        244                     surface_load_requests             Total number of surface load requests from Multiprocessor           0           0           0
        244                     global_store_requests             Total number of global store requests from Multiprocessor      524288      524288      524288
        244                      local_store_requests              Total number of local store requests from Multiprocessor           0           0           0
        244                    surface_store_requests            Total number of surface store requests from Multiprocessor           0           0           0
        244                    global_atomic_requests            Total number of global atomic requests from Multiprocessor           0           0           0
        244                 global_reduction_requests         Total number of global reduction requests from Multiprocessor           0           0           0
        244                   surface_atomic_requests           Total number of surface atomic requests from Multiprocessor           0           0           0
        244                surface_reduction_requests        Total number of surface reduction requests from Multiprocessor           0           0           0
        244                         sysmem_read_bytes                                              System Memory Read Bytes           0           0           0
        244                        sysmem_write_bytes                                             System Memory Write Bytes         160         160         160
        244                           l2_tex_hit_rate                                                     L2 Cache Hit Rate      98.76%      98.95%      98.87%
        244                     texture_load_requests             Total number of texture Load requests from Multiprocessor           0           0           0
        244                     unique_warps_launched                                              Number of warps launched       32768       32768       32768
wangpeng@dacent:~/tools/gitlab-william/t4-render-data/150-rendering-data/asst4/render$
