==PROF== Connected to process 2133 (/home/test/tools/t4-render-data/GPU-rendering-re-run/65-Ray-tracing-with-materials-sample3/a.out)
==PROF== Profiling "create_scene" - 1: 0%....50%....100% - 14 passes
==PROF== Profiling "render" - 2: 0%....50%....100% - 14 passes
Rendering Image: 200x200
Tempo de Execução: 113.758 segundos
==PROF== Profiling "free_scene" - 3: 0%....50%....100% - 14 passes
==PROF== Disconnected from process 2133
[2133] a.out@127.0.0.1
  create_scene(hitable **, hitable **, camera **, int, int), 2023-Mar-24 15:40:41, Context 1, Stream 7
    Section: Command line profiler metrics
    ---------------------------------------------------------------------- --------------- ------------------------------
    dram__bytes_read.sum                                                             Kbyte                         327.97
    dram__bytes_read.sum.per_second                                           Mbyte/second                           7.82
    dram__bytes_write.sum                                                            Kbyte                           2.56
    dram__bytes_write.sum.per_second                                          Kbyte/second                          61.02
    dram__sectors_read.sum                                                          sector                         10,249
    dram__sectors_write.sum                                                         sector                             80
    dram__throughput.avg.pct_of_peak_sustained_elapsed                                   %                           0.00
    fe__draw_count.avg.pct_of_peak_sustained_elapsed                                                              (!) n/a
    gpc__cycles_elapsed.avg.per_second                                       cycle/usecond                         587.42
    gr__cycles_active.sum.pct_of_peak_sustained_elapsed                                  %                            100
    gr__dispatch_count.avg.pct_of_peak_sustained_elapsed                                                          (!) n/a
    gr__dispatch_cycles_active_queue_async.avg.pct_of_peak_sustained_elaps                                        (!) n/a
    ed                                                                                                                   
    gr__dispatch_cycles_active_queue_sync.avg.pct_of_peak_sustained_elapse                                        (!) n/a
    d                                                                                                                    
    l1tex__f_tex2sm_cycles_active.avg.pct_of_peak_sustained_elapsed                      %                              0
    l1tex__lsu_writeback_active.avg.pct_of_peak_sustained_active                         %                           0.81
    l1tex__lsu_writeback_active.sum                                                  cycle                        198,636
    l1tex__t_bytes_pipe_lsu_mem_global_op_ld.sum.per_second                   Mbyte/second                          81.96
    l1tex__t_bytes_pipe_lsu_mem_global_op_st.sum                                     Kbyte                         336.67
    l1tex__t_bytes_pipe_lsu_mem_global_op_st.sum.per_second                   Mbyte/second                           8.02
    l1tex__t_bytes_pipe_lsu_mem_local_op_ld.sum.per_second                    Mbyte/second                          56.02
    l1tex__t_requests_pipe_lsu_mem_global_op_atom.sum                              request                          7,921
    l1tex__t_requests_pipe_lsu_mem_global_op_ld.sum                                request                        107,448
    l1tex__t_requests_pipe_lsu_mem_global_op_red.sum                               request                            978
    l1tex__t_requests_pipe_lsu_mem_global_op_st.sum                                request                         10,519
    l1tex__t_requests_pipe_lsu_mem_local_op_ld.sum                                 request                         73,444
    l1tex__t_requests_pipe_lsu_mem_local_op_st.sum                                 request                         79,623
    l1tex__t_requests_pipe_tex_mem_surface_op_atom.sum                             request                              0
    l1tex__t_requests_pipe_tex_mem_surface_op_ld.sum                               request                              0
    l1tex__t_requests_pipe_tex_mem_surface_op_red.sum                              request                              0
    l1tex__t_requests_pipe_tex_mem_surface_op_st.sum                               request                              0
    l1tex__t_requests_pipe_tex_mem_texture.sum                                     request                              0
    l1tex__t_sector_hit_rate.pct                                                         %                          56.76
    l1tex__t_sectors_pipe_lsu_mem_global_op.sum                                                                   (!) n/a
    l1tex__t_sectors_pipe_lsu_mem_global_op_ld.sum                                  sector                        107,448
    l1tex__t_sectors_pipe_lsu_mem_global_op_lookup_hit.sum                                                        (!) n/a
    l1tex__t_sectors_pipe_lsu_mem_local_op_ld.sum                                   sector                         73,444
    l1tex__t_sectors_pipe_lsu_mem_local_op_st.sum                                   sector                         79,623
    l1tex__t_sectors_pipe_lsu_mem_local_op_st.sum.per_second                sector/usecond                           1.90
    l1tex__t_set_accesses_pipe_lsu_mem_global_op_atom.sum                                                           7,921
    l1tex__t_set_accesses_pipe_lsu_mem_global_op_red.sum                                                              978
    l1tex__t_set_accesses_pipe_tex_mem_surface_op_atom.sum                                                              0
    l1tex__t_set_accesses_pipe_tex_mem_surface_op_red.sum                                                               0
    l1tex__tex_writeback_active.avg.pct_of_peak_sustained_active                         %                              0
    l1tex__texin_sm2tex_req_cycles_active.avg.pct_of_peak_sustained_elapse               %                           0.00
    d                                                                                                                    
    lts__t_bytes_equiv_l1sectormiss_pipe_lsu_mem_global_op_ld.sum                    Mbyte                           3.44
    lts__t_bytes_equiv_l1sectormiss_pipe_lsu_mem_global_op_st.sum                    Kbyte                         147.23
    lts__t_bytes_equiv_l1sectormiss_pipe_lsu_mem_surface_op_st.sum                                                (!) n/a
    lts__t_bytes_equiv_l1sectormiss_pipe_tex_mem_surface_op_ld.sum                    byte                              0
    lts__t_sector_hit_rate.pct                                                           %                          98.18
    lts__t_sector_op_read_hit_rate.pct                                                   %                          86.35
    lts__t_sector_op_write_hit_rate.pct                                                  %                          99.43
    lts__t_sectors.avg.pct_of_peak_sustained_elapsed                                     %                           0.02
    lts__t_sectors_aperture_sysmem_op_read.sum                                      sector                              0
    lts__t_sectors_aperture_sysmem_op_read.sum.per_second                    sector/second                              0
    lts__t_sectors_aperture_sysmem_op_write.sum                                     sector                              9
    lts__t_sectors_aperture_sysmem_op_write.sum.per_second                   sector/second                         214.52
    lts__t_sectors_op_read.sum                                                      sector                        143,224
    lts__t_sectors_op_read.sum.per_second                                   sector/usecond                           3.41
    lts__t_sectors_op_write.sum                                                     sector                         86,049
    lts__t_sectors_op_write.sum.per_second                                  sector/usecond                           2.05
    lts__t_sectors_srcunit_l1_op_atom.sum                                           sector                              0
    lts__t_sectors_srcunit_l1_op_atom.sum.per_second                         sector/second                              0
    lts__t_sectors_srcunit_tex_op_read.sum                                          sector                        107,439
    lts__t_sectors_srcunit_tex_op_read.sum.per_second                       sector/usecond                           2.56
    pcie__read_bytes.avg.pct_of_peak_sustained_elapsed                                   %                           0.00
    pcie__rx_requests_aperture_bar1_op_read.sum                                                                   (!) n/a
    pcie__rx_requests_aperture_bar1_op_write.sum                                                                  (!) n/a
    pcie__write_bytes.avg.pct_of_peak_sustained_elapsed                                  %                           0.00
    sm__cycles_active.avg.pct_of_peak_sustained_elapsed                                  %                           2.50
    sm__inst_executed_realtime.avg.pct_of_peak_sustained_elapsed                                                  (!) n/a
    sm__mio2rf_writeback_active.avg.pct_of_peak_sustained_elapsed                        %                           0.01
    sm__pipe_shared_cycles_active_realtime.avg.pct_of_peak_sustained_elaps                                        (!) n/a
    ed                                                                                                                   
    sm__pipe_tensor_cycles_active.avg.pct_of_peak_sustained_active                       %                              0
    sm__pipe_tensor_cycles_active_realtime.avg.pct_of_peak_sustained_elaps                                        (!) n/a
    ed                                                                                                                   
    sm__warps_active.avg.pct_of_peak_sustained_active                                    %                           3.12
    smsp__average_inst_executed_per_warp.ratio                                   inst/warp                      1,590,561
    smsp__cycles_active.avg.pct_of_peak_sustained_elapsed                                %                           0.62
    smsp__inst_executed.avg.per_cycle_active                                    inst/cycle                           0.06
    smsp__inst_executed.sum                                                           inst                      1,590,561
    smsp__inst_executed_op_global_atom.sum                                                                        (!) n/a
    smsp__inst_executed_op_global_ld.sum                                              inst                            978
    smsp__inst_executed_op_global_st.sum                                              inst                            490
    smsp__inst_executed_op_local_ld.sum                                               inst                         69,477
    smsp__inst_executed_op_shared_atom.sum                                            inst                              0
    smsp__inst_executed_op_shared_atom_dot_alu.sum                                    inst                              0
    smsp__inst_executed_op_shared_atom_dot_cas.sum                                    inst                              0
    smsp__inst_executed_op_shared_ld.avg.pct_of_peak_sustained_elapsed                   %                              0
    smsp__inst_executed_op_shared_ld.sum                                              inst                              0
    smsp__inst_executed_op_shared_ld.sum.per_second                            inst/second                              0
    smsp__inst_executed_op_shared_st.avg.pct_of_peak_sustained_elapsed                   %                              0
    smsp__inst_executed_op_shared_st.sum                                              inst                              0
    smsp__inst_executed_op_shared_st.sum.per_second                            inst/second                              0
    smsp__inst_executed_op_surface_atom.sum                                           inst                              0
    smsp__inst_executed_op_surface_ld.sum                                             inst                              0
    smsp__inst_executed_op_surface_red.sum                                            inst                              0
    smsp__inst_executed_op_surface_st.sum                                             inst                              0
    smsp__inst_executed_op_texture.sum                                                inst                              0
    smsp__inst_executed_pipe_adu.sum                                                  inst                         26,377
    smsp__inst_executed_pipe_cbu.sum                                                  inst                        251,439
    smsp__inst_executed_pipe_fp16.sum                                                 inst                              0
    smsp__inst_executed_pipe_fp64.avg.pct_of_peak_sustained_active                       %                              0
    smsp__inst_executed_pipe_lsu.avg.pct_of_peak_sustained_active                        %                           2.29
    smsp__inst_executed_pipe_tex.avg.pct_of_peak_sustained_active                        %                              0
    smsp__inst_issued.avg.per_cycle_active                                      inst/cycle                           0.07
    smsp__inst_issued.sum                                                             inst                      1,595,957
    smsp__issue_active.avg.pct_of_peak_sustained_active                                  %                           6.50
    smsp__sass_thread_inst_executed_op_control_pred_on.sum                            inst                          5,855
    smsp__sass_thread_inst_executed_op_dadd_pred_on.sum                               inst                              0
    smsp__sass_thread_inst_executed_op_dfma_pred_on.sum                               inst                              0
    smsp__sass_thread_inst_executed_op_dmul_pred_on.sum                               inst                              0
    smsp__sass_thread_inst_executed_op_fadd_pred_on.sum                               inst                          1,217
    smsp__sass_thread_inst_executed_op_ffma_pred_on.sum                               inst                          4,124
    smsp__sass_thread_inst_executed_op_fmul_pred_on.sum                               inst                          1,491
    smsp__sass_thread_inst_executed_op_fp16_pred_on.sum                               inst                              0
    smsp__sass_thread_inst_executed_op_fp32_pred_on.sum                               inst                          7,506
    smsp__sass_thread_inst_executed_op_fp64_pred_on.sum                               inst                              0
    smsp__sass_thread_inst_executed_op_hadd_pred_on.sum                               inst                              0
    smsp__sass_thread_inst_executed_op_hfma_pred_on.sum                               inst                              0
    smsp__sass_thread_inst_executed_op_hmul_pred_on.sum                               inst                              0
    smsp__sass_thread_inst_executed_op_integer_pred_on.sum                            inst                         37,787
    smsp__sass_thread_inst_executed_op_inter_thread_communication_pred_on.            inst                              0
    sum                                                                                                                  
    smsp__sass_thread_inst_executed_op_memory_pred_on.sum                             inst                          4,001
    smsp__sass_thread_inst_executed_op_misc_pred_on.sum                               inst                          7,738
    smsp__sass_thread_inst_executed_op_mufu_pred_on.sum                                                           (!) n/a
    smsp__thread_inst_executed_per_inst_executed.pct                                     %                           3.13
    smsp__thread_inst_executed_per_inst_executed.ratio                                                               1.00
    smsp__warp_issue_stalled_drain_miss_per_warp_active.pct                                                       (!) n/a
    smsp__warp_issue_stalled_imc_miss_per_warp_active.pct                                %                           0.00
    smsp__warp_issue_stalled_long_scoreboard_miss_per_warp_active.pct                                             (!) n/a
    smsp__warp_issue_stalled_misc_membar_per_warp_active.pct                                                      (!) n/a
    smsp__warp_issue_stalled_misc_mio_throttle_per_warp_active.pct                                                (!) n/a
    smsp__warp_issue_stalled_misc_miss_per_warp_active.pct                                                        (!) n/a
    smsp__warp_issue_stalled_misc_sleeping_per_warp_active.pct                                                    (!) n/a
    smsp__warp_issue_stalled_misc_tex_throttle_per_warp_active.pct                                                (!) n/a
    smsp__warp_issue_stalled_no_instruction_miss_per_warp_active.pct                                              (!) n/a
    smsp__warp_issue_stalled_short_scoreboard_miss_per_warp_active.pct                                            (!) n/a
    smsp__warps_eligible.sum.per_cycle_active                                         warp                          10.41
    sys__cycles_elapsed.avg.per_second                                       cycle/usecond                         858.54
    tpc__warps_active_shader_cs_realtime.avg.pct_of_peak_sustained_elapsed               %                           0.08
    tpc__warps_active_shader_ps_realtime.avg.pct_of_peak_sustained_elapsed                                        (!) n/a
    tpc__warps_active_shader_vtg_realtime.avg.pct_of_peak_sustained_elapse                                        (!) n/a
    d                                                                                                                    
    tpc__warps_inactive_sm_active_realtime.avg.pct_of_peak_sustained_elaps                                        (!) n/a
    ed                                                                                                                   
    tpc__warps_inactive_sm_idle_realtime.avg.pct_of_peak_sustained_elapsed                                        (!) n/a
    ---------------------------------------------------------------------- --------------- ------------------------------

  render(vec3 *, int, int, int, hitable **, camera **), 2023-Mar-24 15:42:34, Context 1, Stream 7
    Section: Command line profiler metrics
    ---------------------------------------------------------------------- --------------- ------------------------------
    dram__bytes_read.sum                                                             Gbyte                          16.97
    dram__bytes_read.sum.per_second                                           Gbyte/second                           3.60
    dram__bytes_write.sum                                                            Gbyte                         115.67
    dram__bytes_write.sum.per_second                                          Gbyte/second                          24.54
    dram__sectors_read.sum                                                          sector                    530,296,337
    dram__sectors_write.sum                                                         sector                  3,614,708,907
    dram__throughput.avg.pct_of_peak_sustained_elapsed                                   %                           8.61
    fe__draw_count.avg.pct_of_peak_sustained_elapsed                                                              (!) n/a
    gpc__cycles_elapsed.avg.per_second                                       cycle/usecond                         597.83
    gr__cycles_active.sum.pct_of_peak_sustained_elapsed                                  %                            100
    gr__dispatch_count.avg.pct_of_peak_sustained_elapsed                                                          (!) n/a
    gr__dispatch_cycles_active_queue_async.avg.pct_of_peak_sustained_elaps                                        (!) n/a
    ed                                                                                                                   
    gr__dispatch_cycles_active_queue_sync.avg.pct_of_peak_sustained_elapse                                        (!) n/a
    d                                                                                                                    
    l1tex__f_tex2sm_cycles_active.avg.pct_of_peak_sustained_elapsed                      %                              0
    l1tex__lsu_writeback_active.avg.pct_of_peak_sustained_active                         %                          18.28
    l1tex__lsu_writeback_active.sum                                                  cycle                 11,976,783,249
    l1tex__t_bytes_pipe_lsu_mem_global_op_ld.sum.per_second                   Gbyte/second                          17.76
    l1tex__t_bytes_pipe_lsu_mem_global_op_st.sum                                     Mbyte                           1.44
    l1tex__t_bytes_pipe_lsu_mem_global_op_st.sum.per_second                   Kbyte/second                         305.54
    l1tex__t_bytes_pipe_lsu_mem_local_op_ld.sum.per_second                    Gbyte/second                         147.06
    l1tex__t_requests_pipe_lsu_mem_global_op_atom.sum                              request                              0
    l1tex__t_requests_pipe_lsu_mem_global_op_ld.sum                                request                  2,607,951,603
    l1tex__t_requests_pipe_lsu_mem_global_op_red.sum                               request                              0
    l1tex__t_requests_pipe_lsu_mem_global_op_st.sum                                request                          3,750
    l1tex__t_requests_pipe_lsu_mem_local_op_ld.sum                                 request                  8,228,698,661
    l1tex__t_requests_pipe_lsu_mem_local_op_st.sum                                 request                  6,000,306,374
    l1tex__t_requests_pipe_tex_mem_surface_op_atom.sum                             request                              0
    l1tex__t_requests_pipe_tex_mem_surface_op_ld.sum                               request                              0
    l1tex__t_requests_pipe_tex_mem_surface_op_red.sum                              request                              0
    l1tex__t_requests_pipe_tex_mem_surface_op_st.sum                               request                              0
    l1tex__t_requests_pipe_tex_mem_texture.sum                                     request                              0
    l1tex__t_sector_hit_rate.pct                                                         %                          76.44
    l1tex__t_sectors_pipe_lsu_mem_global_op.sum                                                                   (!) n/a
    l1tex__t_sectors_pipe_lsu_mem_global_op_ld.sum                                  sector                  2,616,377,012
    l1tex__t_sectors_pipe_lsu_mem_global_op_lookup_hit.sum                                                        (!) n/a
    l1tex__t_sectors_pipe_lsu_mem_local_op_ld.sum                                   sector                 21,658,695,197
    l1tex__t_sectors_pipe_lsu_mem_local_op_st.sum                                   sector                 15,686,445,838
    l1tex__t_sectors_pipe_lsu_mem_local_op_st.sum.per_second                sector/nsecond                           3.33
    l1tex__t_set_accesses_pipe_lsu_mem_global_op_atom.sum                                                               0
    l1tex__t_set_accesses_pipe_lsu_mem_global_op_red.sum                                                                0
    l1tex__t_set_accesses_pipe_tex_mem_surface_op_atom.sum                                                              0
    l1tex__t_set_accesses_pipe_tex_mem_surface_op_red.sum                                                               0
    l1tex__tex_writeback_active.avg.pct_of_peak_sustained_active                         %                              0
    l1tex__texin_sm2tex_req_cycles_active.avg.pct_of_peak_sustained_elapse               %                           0.00
    d                                                                                                                    
    lts__t_bytes_equiv_l1sectormiss_pipe_lsu_mem_global_op_ld.sum                    Gbyte                          12.03
    lts__t_bytes_equiv_l1sectormiss_pipe_lsu_mem_global_op_st.sum                    Kbyte                         483.39
    lts__t_bytes_equiv_l1sectormiss_pipe_lsu_mem_surface_op_st.sum                                                (!) n/a
    lts__t_bytes_equiv_l1sectormiss_pipe_tex_mem_surface_op_ld.sum                    byte                              0
    lts__t_sector_hit_rate.pct                                                           %                          98.40
    lts__t_sector_op_read_hit_rate.pct                                                   %                          96.21
    lts__t_sector_op_write_hit_rate.pct                                                  %                          99.41
    lts__t_sectors.avg.pct_of_peak_sustained_elapsed                                     %                          16.24
    lts__t_sectors_aperture_sysmem_op_read.sum                                      sector                              0
    lts__t_sectors_aperture_sysmem_op_read.sum.per_second                    sector/second                              0
    lts__t_sectors_aperture_sysmem_op_write.sum                                     sector                            290
    lts__t_sectors_aperture_sysmem_op_write.sum.per_second                   sector/second                          61.53
    lts__t_sectors_op_read.sum                                                      sector                  5,560,898,399
    lts__t_sectors_op_read.sum.per_second                                   sector/nsecond                           1.18
    lts__t_sectors_op_write.sum                                                     sector                 15,795,517,444
    lts__t_sectors_op_write.sum.per_second                                  sector/nsecond                           3.35
    lts__t_sectors_srcunit_l1_op_atom.sum                                           sector                              0
    lts__t_sectors_srcunit_l1_op_atom.sum.per_second                         sector/second                              0
    lts__t_sectors_srcunit_tex_op_read.sum                                          sector                  5,597,421,696
    lts__t_sectors_srcunit_tex_op_read.sum.per_second                       sector/nsecond                           1.19
    pcie__read_bytes.avg.pct_of_peak_sustained_elapsed                                   %                           0.00
    pcie__rx_requests_aperture_bar1_op_read.sum                                                                   (!) n/a
    pcie__rx_requests_aperture_bar1_op_write.sum                                                                  (!) n/a
    pcie__write_bytes.avg.pct_of_peak_sustained_elapsed                                  %                           0.00
    sm__cycles_active.avg.pct_of_peak_sustained_elapsed                                  %                          58.14
    sm__inst_executed_realtime.avg.pct_of_peak_sustained_elapsed                                                  (!) n/a
    sm__mio2rf_writeback_active.avg.pct_of_peak_sustained_elapsed                        %                           5.81
    sm__pipe_shared_cycles_active_realtime.avg.pct_of_peak_sustained_elaps                                        (!) n/a
    ed                                                                                                                   
    sm__pipe_tensor_cycles_active.avg.pct_of_peak_sustained_active                       %                              0
    sm__pipe_tensor_cycles_active_realtime.avg.pct_of_peak_sustained_elaps                                        (!) n/a
    ed                                                                                                                   
    sm__warps_active.avg.pct_of_peak_sustained_active                                    %                          44.86
    smsp__average_inst_executed_per_warp.ratio                                   inst/warp                  30,196,432.82
    smsp__cycles_active.avg.pct_of_peak_sustained_elapsed                                %                          46.53
    smsp__inst_executed.avg.per_cycle_active                                    inst/cycle                           0.19
    smsp__inst_executed.sum                                                           inst                 40,825,577,171
    smsp__inst_executed_op_global_atom.sum                                                                        (!) n/a
    smsp__inst_executed_op_global_ld.sum                                              inst                        886,729
    smsp__inst_executed_op_global_st.sum                                              inst                          3,750
    smsp__inst_executed_op_local_ld.sum                                               inst                  5,989,339,775
    smsp__inst_executed_op_shared_atom.sum                                            inst                              0
    smsp__inst_executed_op_shared_atom_dot_alu.sum                                    inst                              0
    smsp__inst_executed_op_shared_atom_dot_cas.sum                                    inst                              0
    smsp__inst_executed_op_shared_ld.avg.pct_of_peak_sustained_elapsed                   %                              0
    smsp__inst_executed_op_shared_ld.sum                                              inst                              0
    smsp__inst_executed_op_shared_ld.sum.per_second                            inst/second                              0
    smsp__inst_executed_op_shared_st.avg.pct_of_peak_sustained_elapsed                   %                              0
    smsp__inst_executed_op_shared_st.sum                                              inst                              0
    smsp__inst_executed_op_shared_st.sum.per_second                            inst/second                              0
    smsp__inst_executed_op_surface_atom.sum                                           inst                              0
    smsp__inst_executed_op_surface_ld.sum                                             inst                              0
    smsp__inst_executed_op_surface_red.sum                                            inst                              0
    smsp__inst_executed_op_surface_st.sum                                             inst                              0
    smsp__inst_executed_op_texture.sum                                                inst                              0
    smsp__inst_executed_pipe_adu.sum                                                  inst                    372,321,725
    smsp__inst_executed_pipe_cbu.sum                                                  inst                  6,005,883,446
    smsp__inst_executed_pipe_fp16.sum                                                 inst                              0
    smsp__inst_executed_pipe_fp64.avg.pct_of_peak_sustained_active                       %                              0
    smsp__inst_executed_pipe_lsu.avg.pct_of_peak_sustained_active                        %                          16.09
    smsp__inst_executed_pipe_tex.avg.pct_of_peak_sustained_active                        %                              0
    smsp__inst_issued.avg.per_cycle_active                                      inst/cycle                           0.20
    smsp__inst_issued.sum                                                             inst                 41,010,595,813
    smsp__issue_active.avg.pct_of_peak_sustained_active                                  %                          19.55
    smsp__sass_thread_inst_executed_op_control_pred_on.sum                            inst                 52,312,276,189
    smsp__sass_thread_inst_executed_op_dadd_pred_on.sum                               inst                              0
    smsp__sass_thread_inst_executed_op_dfma_pred_on.sum                               inst                              0
    smsp__sass_thread_inst_executed_op_dmul_pred_on.sum                               inst                              0
    smsp__sass_thread_inst_executed_op_fadd_pred_on.sum                               inst                 14,424,618,051
    smsp__sass_thread_inst_executed_op_ffma_pred_on.sum                               inst                 38,491,170,920
    smsp__sass_thread_inst_executed_op_fmul_pred_on.sum                               inst                 19,010,211,738
    smsp__sass_thread_inst_executed_op_fp16_pred_on.sum                               inst                              0
    smsp__sass_thread_inst_executed_op_fp32_pred_on.sum                               inst                 76,796,953,190
    smsp__sass_thread_inst_executed_op_fp64_pred_on.sum                               inst                              0
    smsp__sass_thread_inst_executed_op_hadd_pred_on.sum                               inst                              0
    smsp__sass_thread_inst_executed_op_hfma_pred_on.sum                               inst                              0
    smsp__sass_thread_inst_executed_op_hmul_pred_on.sum                               inst                              0
    smsp__sass_thread_inst_executed_op_integer_pred_on.sum                            inst                 66,765,314,522
    smsp__sass_thread_inst_executed_op_inter_thread_communication_pred_on.            inst                              0
    sum                                                                                                                  
    smsp__sass_thread_inst_executed_op_memory_pred_on.sum                             inst                218,288,200,021
    smsp__sass_thread_inst_executed_op_misc_pred_on.sum                               inst                 90,286,637,552
    smsp__sass_thread_inst_executed_op_mufu_pred_on.sum                                                           (!) n/a
    smsp__thread_inst_executed_per_inst_executed.pct                                     %                          39.36
    smsp__thread_inst_executed_per_inst_executed.ratio                                                              12.60
    smsp__warp_issue_stalled_drain_miss_per_warp_active.pct                                                       (!) n/a
    smsp__warp_issue_stalled_imc_miss_per_warp_active.pct                                %                           0.00
    smsp__warp_issue_stalled_long_scoreboard_miss_per_warp_active.pct                                             (!) n/a
    smsp__warp_issue_stalled_misc_membar_per_warp_active.pct                                                      (!) n/a
    smsp__warp_issue_stalled_misc_mio_throttle_per_warp_active.pct                                                (!) n/a
    smsp__warp_issue_stalled_misc_miss_per_warp_active.pct                                                        (!) n/a
    smsp__warp_issue_stalled_misc_sleeping_per_warp_active.pct                                                    (!) n/a
    smsp__warp_issue_stalled_misc_tex_throttle_per_warp_active.pct                                                (!) n/a
    smsp__warp_issue_stalled_no_instruction_miss_per_warp_active.pct                                              (!) n/a
    smsp__warp_issue_stalled_short_scoreboard_miss_per_warp_active.pct                                            (!) n/a
    smsp__warps_eligible.sum.per_cycle_active                                         warp                          59.64
    sys__cycles_elapsed.avg.per_second                                       cycle/usecond                         873.74
    tpc__warps_active_shader_cs_realtime.avg.pct_of_peak_sustained_elapsed               %                          25.93
    tpc__warps_active_shader_ps_realtime.avg.pct_of_peak_sustained_elapsed                                        (!) n/a
    tpc__warps_active_shader_vtg_realtime.avg.pct_of_peak_sustained_elapse                                        (!) n/a
    d                                                                                                                    
    tpc__warps_inactive_sm_active_realtime.avg.pct_of_peak_sustained_elaps                                        (!) n/a
    ed                                                                                                                   
    tpc__warps_inactive_sm_idle_realtime.avg.pct_of_peak_sustained_elapsed                                        (!) n/a
    ---------------------------------------------------------------------- --------------- ------------------------------

  free_scene(hitable **, hitable **, camera **), 2023-Mar-24 15:42:34, Context 1, Stream 7
    Section: Command line profiler metrics
    ---------------------------------------------------------------------- --------------- ------------------------------
    dram__bytes_read.sum                                                             Kbyte                         237.82
    dram__bytes_read.sum.per_second                                           Mbyte/second                           7.98
    dram__bytes_write.sum                                                            Kbyte                           1.89
    dram__bytes_write.sum.per_second                                          Kbyte/second                          63.37
    dram__sectors_read.sum                                                          sector                          7,432
    dram__sectors_write.sum                                                         sector                             59
    dram__throughput.avg.pct_of_peak_sustained_elapsed                                   %                           0.00
    fe__draw_count.avg.pct_of_peak_sustained_elapsed                                                              (!) n/a
    gpc__cycles_elapsed.avg.per_second                                       cycle/usecond                         584.88
    gr__cycles_active.sum.pct_of_peak_sustained_elapsed                                  %                            100
    gr__dispatch_count.avg.pct_of_peak_sustained_elapsed                                                          (!) n/a
    gr__dispatch_cycles_active_queue_async.avg.pct_of_peak_sustained_elaps                                        (!) n/a
    ed                                                                                                                   
    gr__dispatch_cycles_active_queue_sync.avg.pct_of_peak_sustained_elapse                                        (!) n/a
    d                                                                                                                    
    l1tex__f_tex2sm_cycles_active.avg.pct_of_peak_sustained_elapsed                      %                              0
    l1tex__lsu_writeback_active.avg.pct_of_peak_sustained_active                         %                           0.73
    l1tex__lsu_writeback_active.sum                                                  cycle                        127,890
    l1tex__t_bytes_pipe_lsu_mem_global_op_ld.sum.per_second                   Mbyte/second                         101.04
    l1tex__t_bytes_pipe_lsu_mem_global_op_st.sum                                      byte                              0
    l1tex__t_bytes_pipe_lsu_mem_global_op_st.sum.per_second                    byte/second                              0
    l1tex__t_bytes_pipe_lsu_mem_local_op_ld.sum.per_second                    Mbyte/second                          27.37
    l1tex__t_requests_pipe_lsu_mem_global_op_atom.sum                              request                          3,430
    l1tex__t_requests_pipe_lsu_mem_global_op_ld.sum                                request                         94,080
    l1tex__t_requests_pipe_lsu_mem_global_op_red.sum                               request                            490
    l1tex__t_requests_pipe_lsu_mem_global_op_st.sum                                request                              0
    l1tex__t_requests_pipe_lsu_mem_local_op_ld.sum                                 request                         25,480
    l1tex__t_requests_pipe_lsu_mem_local_op_st.sum                                 request                         24,500
    l1tex__t_requests_pipe_tex_mem_surface_op_atom.sum                             request                              0
    l1tex__t_requests_pipe_tex_mem_surface_op_ld.sum                               request                              0
    l1tex__t_requests_pipe_tex_mem_surface_op_red.sum                              request                              0
    l1tex__t_requests_pipe_tex_mem_surface_op_st.sum                               request                              0
    l1tex__t_requests_pipe_tex_mem_texture.sum                                     request                              0
    l1tex__t_sector_hit_rate.pct                                                         %                          34.00
    l1tex__t_sectors_pipe_lsu_mem_global_op.sum                                                                   (!) n/a
    l1tex__t_sectors_pipe_lsu_mem_global_op_ld.sum                                  sector                         94,080
    l1tex__t_sectors_pipe_lsu_mem_global_op_lookup_hit.sum                                                        (!) n/a
    l1tex__t_sectors_pipe_lsu_mem_local_op_ld.sum                                   sector                         25,480
    l1tex__t_sectors_pipe_lsu_mem_local_op_st.sum                                   sector                         24,500
    l1tex__t_sectors_pipe_lsu_mem_local_op_st.sum.per_second                sector/msecond                         822.30
    l1tex__t_set_accesses_pipe_lsu_mem_global_op_atom.sum                                                           3,430
    l1tex__t_set_accesses_pipe_lsu_mem_global_op_red.sum                                                              490
    l1tex__t_set_accesses_pipe_tex_mem_surface_op_atom.sum                                                              0
    l1tex__t_set_accesses_pipe_tex_mem_surface_op_red.sum                                                               0
    l1tex__tex_writeback_active.avg.pct_of_peak_sustained_active                         %                              0
    l1tex__texin_sm2tex_req_cycles_active.avg.pct_of_peak_sustained_elapse               %                           0.00
    d                                                                                                                    
    lts__t_bytes_equiv_l1sectormiss_pipe_lsu_mem_global_op_ld.sum                    Mbyte                           3.00
    lts__t_bytes_equiv_l1sectormiss_pipe_lsu_mem_global_op_st.sum                     byte                              0
    lts__t_bytes_equiv_l1sectormiss_pipe_lsu_mem_surface_op_st.sum                                                (!) n/a
    lts__t_bytes_equiv_l1sectormiss_pipe_tex_mem_surface_op_ld.sum                    byte                              0
    lts__t_sector_hit_rate.pct                                                           %                          88.21
    lts__t_sector_op_read_hit_rate.pct                                                   %                          98.45
    lts__t_sector_op_write_hit_rate.pct                                                  %                          94.01
    lts__t_sectors.avg.pct_of_peak_sustained_elapsed                                     %                           0.02
    lts__t_sectors_aperture_sysmem_op_read.sum                                      sector                              0
    lts__t_sectors_aperture_sysmem_op_read.sum.per_second                    sector/second                              0
    lts__t_sectors_aperture_sysmem_op_write.sum                                     sector                              9
    lts__t_sectors_aperture_sysmem_op_write.sum.per_second                   sector/second                         302.07
    lts__t_sectors_op_read.sum                                                      sector                         97,359
    lts__t_sectors_op_read.sum.per_second                                   sector/usecond                           3.27
    lts__t_sectors_op_write.sum                                                     sector                         26,410
    lts__t_sectors_op_write.sum.per_second                                  sector/msecond                         886.40
    lts__t_sectors_srcunit_l1_op_atom.sum                                           sector                              0
    lts__t_sectors_srcunit_l1_op_atom.sum.per_second                         sector/second                              0
    lts__t_sectors_srcunit_tex_op_read.sum                                          sector                         93,714
    lts__t_sectors_srcunit_tex_op_read.sum.per_second                       sector/usecond                           3.15
    pcie__read_bytes.avg.pct_of_peak_sustained_elapsed                                   %                           0.00
    pcie__rx_requests_aperture_bar1_op_read.sum                                                                   (!) n/a
    pcie__rx_requests_aperture_bar1_op_write.sum                                                                  (!) n/a
    pcie__write_bytes.avg.pct_of_peak_sustained_elapsed                                  %                           0.00
    sm__cycles_active.avg.pct_of_peak_sustained_elapsed                                  %                           2.50
    sm__inst_executed_realtime.avg.pct_of_peak_sustained_elapsed                                                  (!) n/a
    sm__mio2rf_writeback_active.avg.pct_of_peak_sustained_elapsed                        %                           0.01
    sm__pipe_shared_cycles_active_realtime.avg.pct_of_peak_sustained_elaps                                        (!) n/a
    ed                                                                                                                   
    sm__pipe_tensor_cycles_active.avg.pct_of_peak_sustained_active                       %                              0
    sm__pipe_tensor_cycles_active_realtime.avg.pct_of_peak_sustained_elaps                                        (!) n/a
    ed                                                                                                                   
    sm__warps_active.avg.pct_of_peak_sustained_active                                    %                           3.13
    smsp__average_inst_executed_per_warp.ratio                                   inst/warp                        876,063
    smsp__cycles_active.avg.pct_of_peak_sustained_elapsed                                %                           0.63
    smsp__inst_executed.avg.per_cycle_active                                    inst/cycle                           0.05
    smsp__inst_executed.sum                                                           inst                        876,063
    smsp__inst_executed_op_global_atom.sum                                                                        (!) n/a
    smsp__inst_executed_op_global_ld.sum                                              inst                            980
    smsp__inst_executed_op_global_st.sum                                              inst                              0
    smsp__inst_executed_op_local_ld.sum                                               inst                         24,010
    smsp__inst_executed_op_shared_atom.sum                                            inst                              0
    smsp__inst_executed_op_shared_atom_dot_alu.sum                                    inst                              0
    smsp__inst_executed_op_shared_atom_dot_cas.sum                                    inst                              0
    smsp__inst_executed_op_shared_ld.avg.pct_of_peak_sustained_elapsed                   %                              0
    smsp__inst_executed_op_shared_ld.sum                                              inst                              0
    smsp__inst_executed_op_shared_ld.sum.per_second                            inst/second                              0
    smsp__inst_executed_op_shared_st.avg.pct_of_peak_sustained_elapsed                   %                              0
    smsp__inst_executed_op_shared_st.sum                                              inst                              0
    smsp__inst_executed_op_shared_st.sum.per_second                            inst/second                              0
    smsp__inst_executed_op_surface_atom.sum                                           inst                              0
    smsp__inst_executed_op_surface_ld.sum                                             inst                              0
    smsp__inst_executed_op_surface_red.sum                                            inst                              0
    smsp__inst_executed_op_surface_st.sum                                             inst                              0
    smsp__inst_executed_op_texture.sum                                                inst                              0
    smsp__inst_executed_pipe_adu.sum                                                  inst                         22,050
    smsp__inst_executed_pipe_cbu.sum                                                  inst                        120,051
    smsp__inst_executed_pipe_fp16.sum                                                 inst                              0
    smsp__inst_executed_pipe_fp64.avg.pct_of_peak_sustained_active                       %                              0
    smsp__inst_executed_pipe_lsu.avg.pct_of_peak_sustained_active                        %                           1.72
    smsp__inst_executed_pipe_tex.avg.pct_of_peak_sustained_active                        %                              0
    smsp__inst_issued.avg.per_cycle_active                                      inst/cycle                           0.05
    smsp__inst_issued.sum                                                             inst                        878,031
    smsp__issue_active.avg.pct_of_peak_sustained_active                                  %                           5.04
    smsp__sass_thread_inst_executed_op_control_pred_on.sum                            inst                            551
    smsp__sass_thread_inst_executed_op_dadd_pred_on.sum                               inst                              0
    smsp__sass_thread_inst_executed_op_dfma_pred_on.sum                               inst                              0
    smsp__sass_thread_inst_executed_op_dmul_pred_on.sum                               inst                              0
    smsp__sass_thread_inst_executed_op_fadd_pred_on.sum                               inst                              0
    smsp__sass_thread_inst_executed_op_ffma_pred_on.sum                               inst                              0
    smsp__sass_thread_inst_executed_op_fmul_pred_on.sum                               inst                              0
    smsp__sass_thread_inst_executed_op_fp16_pred_on.sum                               inst                              0
    smsp__sass_thread_inst_executed_op_fp32_pred_on.sum                               inst                              0
    smsp__sass_thread_inst_executed_op_fp64_pred_on.sum                               inst                              0
    smsp__sass_thread_inst_executed_op_hadd_pred_on.sum                               inst                              0
    smsp__sass_thread_inst_executed_op_hfma_pred_on.sum                               inst                              0
    smsp__sass_thread_inst_executed_op_hmul_pred_on.sum                               inst                              0
    smsp__sass_thread_inst_executed_op_integer_pred_on.sum                            inst                            123
    smsp__sass_thread_inst_executed_op_inter_thread_communication_pred_on.            inst                              0
    sum                                                                                                                  
    smsp__sass_thread_inst_executed_op_memory_pred_on.sum                             inst                            490
    smsp__sass_thread_inst_executed_op_misc_pred_on.sum                               inst                            980
    smsp__sass_thread_inst_executed_op_mufu_pred_on.sum                                                           (!) n/a
    smsp__thread_inst_executed_per_inst_executed.pct                                     %                           3.12
    smsp__thread_inst_executed_per_inst_executed.ratio                                                                  1
    smsp__warp_issue_stalled_drain_miss_per_warp_active.pct                                                       (!) n/a
    smsp__warp_issue_stalled_imc_miss_per_warp_active.pct                                %                           0.00
    smsp__warp_issue_stalled_long_scoreboard_miss_per_warp_active.pct                                             (!) n/a
    smsp__warp_issue_stalled_misc_membar_per_warp_active.pct                                                      (!) n/a
    smsp__warp_issue_stalled_misc_mio_throttle_per_warp_active.pct                                                (!) n/a
    smsp__warp_issue_stalled_misc_miss_per_warp_active.pct                                                        (!) n/a
    smsp__warp_issue_stalled_misc_sleeping_per_warp_active.pct                                                    (!) n/a
    smsp__warp_issue_stalled_misc_tex_throttle_per_warp_active.pct                                                (!) n/a
    smsp__warp_issue_stalled_no_instruction_miss_per_warp_active.pct                                              (!) n/a
    smsp__warp_issue_stalled_short_scoreboard_miss_per_warp_active.pct                                            (!) n/a
    smsp__warps_eligible.sum.per_cycle_active                                         warp                           8.06
    sys__cycles_elapsed.avg.per_second                                       cycle/usecond                         854.83
    tpc__warps_active_shader_cs_realtime.avg.pct_of_peak_sustained_elapsed               %                           0.08
    tpc__warps_active_shader_ps_realtime.avg.pct_of_peak_sustained_elapsed                                        (!) n/a
    tpc__warps_active_shader_vtg_realtime.avg.pct_of_peak_sustained_elapse                                        (!) n/a
    d                                                                                                                    
    tpc__warps_inactive_sm_active_realtime.avg.pct_of_peak_sustained_elaps                                        (!) n/a
    ed                                                                                                                   
    tpc__warps_inactive_sm_idle_realtime.avg.pct_of_peak_sustained_elapsed                                        (!) n/a

